%!PS-Adobe-2.0 EPSF-1.2
%%Creator: MATLAB, The MathWorks, Inc. Version 8.1.0.604 (R2013a). Operating System: Linux 3.13.0-40-generic #69-Ubuntu SMP Thu Nov 13 17:53:56 UTC 2014 x86_64.
%%Title: /home/xiaolin/Documents/model_selection/model_selection_log03new/YFH/data_figures/sampleHist.eps
%%CreationDate: 10/25/2015  07:10:39
%%DocumentNeededFonts: Helvetica
%%DocumentProcessColors: Cyan Magenta Yellow Black
%%Pages: 1
%%BoundingBox:    58   194   547   589
%%EndComments

%%BeginProlog
% MathWorks dictionary
/MathWorks 160 dict begin
% definition operators
/bdef {bind def} bind def
/ldef {load def} bind def
/xdef {exch def} bdef
/xstore {exch store} bdef
% operator abbreviations
/c  /clip ldef
/cc /concat ldef
/cp /closepath ldef
/gr /grestore ldef
/gs /gsave ldef
/mt /moveto ldef
/np /newpath ldef
/cm /currentmatrix ldef
/sm /setmatrix ldef
/rm /rmoveto ldef
/rl /rlineto ldef
/s {show newpath} bdef
/sc {setcmykcolor} bdef
/sr /setrgbcolor ldef
/sg /setgray ldef
/w /setlinewidth ldef
/j /setlinejoin ldef
/cap /setlinecap ldef
/rc {rectclip} bdef
/rf {rectfill} bdef
% page state control
/pgsv () def
/bpage {/pgsv save def} bdef
/epage {pgsv restore} bdef
/bplot /gsave ldef
/eplot {stroke grestore} bdef
% orientation switch
/portraitMode 0 def /landscapeMode 1 def /rotateMode 2 def
% coordinate system mappings
/dpi2point 0 def
% font control
/FontSize 0 def
/FMS {/FontSize xstore findfont [FontSize 0 0 FontSize neg 0 0]
  makefont setfont} bdef
/reencode {exch dup where {pop load} {pop StandardEncoding} ifelse
  exch dup 3 1 roll findfont dup length dict begin
  { 1 index /FID ne {def}{pop pop} ifelse } forall
  /Encoding exch def currentdict end definefont pop} bdef
/isroman {findfont /CharStrings get /Agrave known} bdef
/FMSR {3 1 roll 1 index dup isroman {reencode} {pop pop} ifelse
  exch FMS} bdef
/csm {1 dpi2point div -1 dpi2point div scale neg translate
 dup landscapeMode eq {pop -90 rotate}
  {rotateMode eq {90 rotate} if} ifelse} bdef
% line types: solid, dotted, dashed, dotdash
/SO { [] 0 setdash } bdef
/DO { [.5 dpi2point mul 4 dpi2point mul] 0 setdash } bdef
/DA { [6 dpi2point mul] 0 setdash } bdef
/DD { [.5 dpi2point mul 4 dpi2point mul 6 dpi2point mul 4
  dpi2point mul] 0 setdash } bdef
% macros for lines and objects
/L {lineto stroke} bdef
/MP {3 1 roll moveto 1 sub {rlineto} repeat} bdef
/AP {{rlineto} repeat} bdef
/PDlw -1 def
/W {/PDlw currentlinewidth def setlinewidth} def
/PP {closepath eofill} bdef
/DP {closepath stroke} bdef
/MR {4 -2 roll moveto dup  0 exch rlineto exch 0 rlineto
  neg 0 exch rlineto closepath} bdef
/FR {MR stroke} bdef
/PR {MR fill} bdef
/L1i {{currentfile picstr readhexstring pop} image} bdef
/tMatrix matrix def
/MakeOval {newpath tMatrix currentmatrix pop translate scale
0 0 1 0 360 arc tMatrix setmatrix} bdef
/FO {MakeOval stroke} bdef
/PO {MakeOval fill} bdef
/PD {currentlinewidth 2 div 0 360 arc fill
   PDlw -1 eq not {PDlw w /PDlw -1 def} if} def
/FA {newpath tMatrix currentmatrix pop translate scale
  0 0 1 5 -2 roll arc tMatrix setmatrix stroke} bdef
/PA {newpath tMatrix currentmatrix pop	translate 0 0 moveto scale
  0 0 1 5 -2 roll arc closepath tMatrix setmatrix fill} bdef
/FAn {newpath tMatrix currentmatrix pop translate scale
  0 0 1 5 -2 roll arcn tMatrix setmatrix stroke} bdef
/PAn {newpath tMatrix currentmatrix pop translate 0 0 moveto scale
  0 0 1 5 -2 roll arcn closepath tMatrix setmatrix fill} bdef
/vradius 0 def /hradius 0 def /lry 0 def
/lrx 0 def /uly 0 def /ulx 0 def /rad 0 def
/MRR {/vradius xdef /hradius xdef /lry xdef /lrx xdef /uly xdef
  /ulx xdef newpath tMatrix currentmatrix pop ulx hradius add uly
  vradius add translate hradius vradius scale 0 0 1 180 270 arc 
  tMatrix setmatrix lrx hradius sub uly vradius add translate
  hradius vradius scale 0 0 1 270 360 arc tMatrix setmatrix
  lrx hradius sub lry vradius sub translate hradius vradius scale
  0 0 1 0 90 arc tMatrix setmatrix ulx hradius add lry vradius sub
  translate hradius vradius scale 0 0 1 90 180 arc tMatrix setmatrix
  closepath} bdef
/FRR {MRR stroke } bdef
/PRR {MRR fill } bdef
/MlrRR {/lry xdef /lrx xdef /uly xdef /ulx xdef /rad lry uly sub 2 div def
  newpath tMatrix currentmatrix pop ulx rad add uly rad add translate
  rad rad scale 0 0 1 90 270 arc tMatrix setmatrix lrx rad sub lry rad
  sub translate rad rad scale 0 0 1 270 90 arc tMatrix setmatrix
  closepath} bdef
/FlrRR {MlrRR stroke } bdef
/PlrRR {MlrRR fill } bdef
/MtbRR {/lry xdef /lrx xdef /uly xdef /ulx xdef /rad lrx ulx sub 2 div def
  newpath tMatrix currentmatrix pop ulx rad add uly rad add translate
  rad rad scale 0 0 1 180 360 arc tMatrix setmatrix lrx rad sub lry rad
  sub translate rad rad scale 0 0 1 0 180 arc tMatrix setmatrix
  closepath} bdef
/FtbRR {MtbRR stroke } bdef
/PtbRR {MtbRR fill } bdef
/stri 6 array def /dtri 6 array def
/smat 6 array def /dmat 6 array def
/tmat1 6 array def /tmat2 6 array def /dif 3 array def
/asub {/ind2 exch def /ind1 exch def dup dup
  ind1 get exch ind2 get sub exch } bdef
/tri_to_matrix {
  2 0 asub 3 1 asub 4 0 asub 5 1 asub
  dup 0 get exch 1 get 7 -1 roll astore } bdef
/compute_transform {
  dmat dtri tri_to_matrix tmat1 invertmatrix 
  smat stri tri_to_matrix tmat2 concatmatrix } bdef
/ds {stri astore pop} bdef
/dt {dtri astore pop} bdef
/db {2 copy /cols xdef /rows xdef mul dup string
  currentfile exch readhexstring pop
  /bmap xdef pop pop} bdef
/it {gs np dtri aload pop moveto lineto lineto cp c
  cols rows 8 compute_transform 
  {bmap} image gr}bdef
/il {newpath moveto lineto stroke}bdef
currentdict end def
%%EndProlog

%%BeginSetup
MathWorks begin

0 cap

end
%%EndSetup

%%Page: 1 1
%%BeginPageSetup
%%PageBoundingBox:    58   194   547   589
MathWorks begin
bpage
%%EndPageSetup

%%BeginObject: obj1
bplot

/dpi2point 12 def
portraitMode 0216 7344 csm

  488   274  5860  4731 MR c np
85 dict begin %Colortable dictionary
/c0 { 0.000000 0.000000 0.000000 sr} bdef
/c1 { 1.000000 1.000000 1.000000 sr} bdef
/c2 { 0.900000 0.000000 0.000000 sr} bdef
/c3 { 0.000000 0.820000 0.000000 sr} bdef
/c4 { 0.000000 0.000000 0.800000 sr} bdef
/c5 { 0.910000 0.820000 0.320000 sr} bdef
/c6 { 1.000000 0.260000 0.820000 sr} bdef
/c7 { 0.000000 0.820000 0.820000 sr} bdef
c0
1 j
1 sg
   0    0 6913 5186 PR
6 w
0 1770 1393 0 0 -1770 940 2158 4 MP
PP
-1393 0 0 1770 1393 0 0 -1770 940 2158 5 MP stroke
4 w
DO
SO
6 w
0 sg
 940 2158 mt 2333 2158 L
 940  388 mt 2333  388 L
 940 2158 mt  940  388 L
2333 2158 mt 2333  388 L
 940 2158 mt 2333 2158 L
 940 2158 mt  940  388 L
 940 2158 mt  940 2140 L
 940  389 mt  940  406 L
%%IncludeResource: font Helvetica
/Helvetica /ISOLatin1Encoding 120 FMSR

 824 2303 mt 
(0.75) s
1637 2158 mt 1637 2140 L
1637  389 mt 1637  406 L
1554 2303 mt 
(0.8) s
2333 2158 mt 2333 2140 L
2333  389 mt 2333  406 L
2217 2303 mt 
(0.85) s
 940 2158 mt  958 2158 L
2333 2158 mt 2316 2158 L
 840 2202 mt 
(0) s
 940 1863 mt  958 1863 L
2333 1863 mt 2316 1863 L
 706 1907 mt 
(100) s
 940 1568 mt  958 1568 L
2333 1568 mt 2316 1568 L
 706 1612 mt 
(200) s
 940 1273 mt  958 1273 L
2333 1273 mt 2316 1273 L
 706 1317 mt 
(300) s
 940  978 mt  958  978 L
2333  978 mt 2316  978 L
 706 1022 mt 
(400) s
 940  683 mt  958  683 L
2333  683 mt 2316  683 L
 706  727 mt 
(500) s
 940  389 mt  958  389 L
2333  389 mt 2316  389 L
 706  433 mt 
(600) s
 940 2158 mt 2333 2158 L
 940  388 mt 2333  388 L
 940 2158 mt  940  388 L
2333 2158 mt 2333  388 L
gs 940 389 1394 1770 MR c np
/c8 { 0.000000 0.000000 0.562500 sr} bdef
c8
0 6 14 0 0 -6 1312 2158 4 MP
PP
0 sg
-14 0 0 6 14 0 0 -6 1312 2158 5 MP stroke
c8
0 0 14 0 0 0 1326 2158 4 MP
PP
0 sg
-14 0 0 0 14 0 0 0 1326 2158 5 MP stroke
c8
0 0 13 0 0 0 1340 2158 4 MP
PP
0 sg
-13 0 0 0 13 0 0 0 1340 2158 5 MP stroke
c8
0 0 14 0 0 0 1353 2158 4 MP
PP
0 sg
-14 0 0 0 14 0 0 0 1353 2158 5 MP stroke
c8
0 0 14 0 0 0 1367 2158 4 MP
PP
0 sg
-14 0 0 0 14 0 0 0 1367 2158 5 MP stroke
c8
0 30 13 0 0 -30 1381 2158 4 MP
PP
0 sg
-13 0 0 30 13 0 0 -30 1381 2158 5 MP stroke
c8
0 45 14 0 0 -45 1394 2158 4 MP
PP
0 sg
-14 0 0 45 14 0 0 -45 1394 2158 5 MP stroke
c8
0 62 13 0 0 -62 1408 2158 4 MP
PP
0 sg
-13 0 0 62 13 0 0 -62 1408 2158 5 MP stroke
c8
0 133 14 0 0 -133 1421 2158 4 MP
PP
0 sg
-14 0 0 133 14 0 0 -133 1421 2158 5 MP stroke
c8
0 192 14 0 0 -192 1435 2158 4 MP
PP
0 sg
-14 0 0 192 14 0 0 -192 1435 2158 5 MP stroke
c8
0 278 13 0 0 -278 1449 2158 4 MP
PP
0 sg
-13 0 0 278 13 0 0 -278 1449 2158 5 MP stroke
c8
0 437 14 0 0 -437 1462 2158 4 MP
PP
0 sg
-14 0 0 437 14 0 0 -437 1462 2158 5 MP stroke
c8
0 631 14 0 0 -631 1476 2158 4 MP
PP
0 sg
-14 0 0 631 14 0 0 -631 1476 2158 5 MP stroke
c8
0 1074 13 0 0 -1074 1490 2158 4 MP
PP
0 sg
-13 0 0 1074 13 0 0 -1074 1490 2158 5 MP stroke
c8
0 1183 14 0 0 -1183 1503 2158 4 MP
PP
0 sg
-14 0 0 1183 14 0 0 -1183 1503 2158 5 MP stroke
c8
0 1392 14 0 0 -1392 1517 2158 4 MP
PP
0 sg
-14 0 0 1392 14 0 0 -1392 1517 2158 5 MP stroke
c8
0 1486 13 0 0 -1486 1531 2158 4 MP
PP
0 sg
-13 0 0 1486 13 0 0 -1486 1531 2158 5 MP stroke
c8
0 1504 14 0 0 -1504 1544 2158 4 MP
PP
0 sg
-14 0 0 1504 14 0 0 -1504 1544 2158 5 MP stroke
c8
0 1551 14 0 0 -1551 1558 2158 4 MP
PP
0 sg
-14 0 0 1551 14 0 0 -1551 1558 2158 5 MP stroke
c8
0 1448 13 0 0 -1448 1572 2158 4 MP
PP
0 sg
-13 0 0 1448 13 0 0 -1448 1572 2158 5 MP stroke
c8
0 1259 14 0 0 -1259 1585 2158 4 MP
PP
0 sg
-14 0 0 1259 14 0 0 -1259 1585 2158 5 MP stroke
c8
0 776 14 0 0 -776 1599 2158 4 MP
PP
0 sg
-14 0 0 776 14 0 0 -776 1599 2158 5 MP stroke
c8
0 593 13 0 0 -593 1613 2158 4 MP
PP
0 sg
-13 0 0 593 13 0 0 -593 1613 2158 5 MP stroke
c8
0 257 14 0 0 -257 1626 2158 4 MP
PP
0 sg
-14 0 0 257 14 0 0 -257 1626 2158 5 MP stroke
c8
0 230 14 0 0 -230 1640 2158 4 MP
PP
0 sg
-14 0 0 230 14 0 0 -230 1640 2158 5 MP stroke
c8
0 92 13 0 0 -92 1654 2158 4 MP
PP
0 sg
-13 0 0 92 13 0 0 -92 1654 2158 5 MP stroke
c8
0 42 14 0 0 -42 1667 2158 4 MP
PP
0 sg
-14 0 0 42 14 0 0 -42 1667 2158 5 MP stroke
c8
0 18 14 0 0 -18 1681 2158 4 MP
PP
0 sg
-14 0 0 18 14 0 0 -18 1681 2158 5 MP stroke
c8
0 30 13 0 0 -30 1695 2158 4 MP
PP
0 sg
-13 0 0 30 13 0 0 -30 1695 2158 5 MP stroke
c8
0 3 14 0 0 -3 1708 2158 4 MP
PP
0 sg
-14 0 0 3 14 0 0 -3 1708 2158 5 MP stroke
gr

%%IncludeResource: font Symbol
/Symbol /ISOLatin1Encoding 120 FMSR

1601 2440 mt 
(u) s
%%IncludeResource: font Helvetica
/Helvetica /ISOLatin1Encoding 120 FMSR

 624 1537 mt  -90 rotate
(frequency) s
90 rotate
1 sg
0 1770 1393 0 0 -1770 2882 2158 4 MP
PP
-1393 0 0 1770 1393 0 0 -1770 2882 2158 5 MP stroke
4 w
DO
SO
6 w
0 sg
2882 2158 mt 4275 2158 L
2882  388 mt 4275  388 L
2882 2158 mt 2882  388 L
4275 2158 mt 4275  388 L
2882 2158 mt 4275 2158 L
2882 2158 mt 2882  388 L
2882 2158 mt 2882 2140 L
2882  389 mt 2882  406 L
2849 2303 mt 
(0) s
3578 2158 mt 3578 2140 L
3578  389 mt 3578  406 L
3495 2303 mt 
(0.5) s
4275 2158 mt 4275 2140 L
4275  389 mt 4275  406 L
4242 2303 mt 
(1) s
3958 2505 mt 
(x 10) s
%%IncludeResource: font Helvetica
/Helvetica /ISOLatin1Encoding 80 FMSR

4184 2431 mt 
(-4) s
2882 2158 mt 2899 2158 L
4275 2158 mt 4257 2158 L
%%IncludeResource: font Helvetica
/Helvetica /ISOLatin1Encoding 120 FMSR

2781 2202 mt 
(0) s
2882 1863 mt 2899 1863 L
4275 1863 mt 4257 1863 L
2714 1907 mt 
(50) s
2882 1568 mt 2899 1568 L
4275 1568 mt 4257 1568 L
2647 1612 mt 
(100) s
2882 1273 mt 2899 1273 L
4275 1273 mt 4257 1273 L
2647 1317 mt 
(150) s
2882  978 mt 2899  978 L
4275  978 mt 4257  978 L
2647 1022 mt 
(200) s
2882  683 mt 2899  683 L
4275  683 mt 4257  683 L
2647  727 mt 
(250) s
2882  389 mt 2899  389 L
4275  389 mt 4257  389 L
2647  433 mt 
(300) s
2882 2158 mt 4275 2158 L
2882  388 mt 4275  388 L
2882 2158 mt 2882  388 L
4275 2158 mt 4275  388 L
gs 2882 389 1394 1770 MR c np
c8
0 773 33 0 0 -773 2882 2158 4 MP
PP
0 sg
-33 0 0 773 33 0 0 -773 2882 2158 5 MP stroke
c8
0 726 34 0 0 -726 2915 2158 4 MP
PP
0 sg
-34 0 0 726 34 0 0 -726 2915 2158 5 MP stroke
c8
0 655 34 0 0 -655 2949 2158 4 MP
PP
0 sg
-34 0 0 655 34 0 0 -655 2949 2158 5 MP stroke
c8
0 826 34 0 0 -826 2983 2158 4 MP
PP
0 sg
-34 0 0 826 34 0 0 -826 2983 2158 5 MP stroke
c8
0 738 34 0 0 -738 3017 2158 4 MP
PP
0 sg
-34 0 0 738 34 0 0 -738 3017 2158 5 MP stroke
c8
0 826 33 0 0 -826 3051 2158 4 MP
PP
0 sg
-33 0 0 826 33 0 0 -826 3051 2158 5 MP stroke
c8
0 932 34 0 0 -932 3084 2158 4 MP
PP
0 sg
-34 0 0 932 34 0 0 -932 3084 2158 5 MP stroke
c8
0 808 34 0 0 -808 3118 2158 4 MP
PP
0 sg
-34 0 0 808 34 0 0 -808 3118 2158 5 MP stroke
c8
0 903 34 0 0 -903 3152 2158 4 MP
PP
0 sg
-34 0 0 903 34 0 0 -903 3152 2158 5 MP stroke
c8
0 867 33 0 0 -867 3186 2158 4 MP
PP
0 sg
-33 0 0 867 33 0 0 -867 3186 2158 5 MP stroke
c8
0 861 34 0 0 -861 3219 2158 4 MP
PP
0 sg
-34 0 0 861 34 0 0 -861 3219 2158 5 MP stroke
c8
0 885 34 0 0 -885 3253 2158 4 MP
PP
0 sg
-34 0 0 885 34 0 0 -885 3253 2158 5 MP stroke
c8
0 1050 34 0 0 -1050 3287 2158 4 MP
PP
0 sg
-34 0 0 1050 34 0 0 -1050 3287 2158 5 MP stroke
c8
0 1068 34 0 0 -1068 3321 2158 4 MP
PP
0 sg
-34 0 0 1068 34 0 0 -1068 3321 2158 5 MP stroke
c8
0 1091 33 0 0 -1091 3355 2158 4 MP
PP
0 sg
-33 0 0 1091 33 0 0 -1091 3355 2158 5 MP stroke
c8
0 1085 34 0 0 -1085 3388 2158 4 MP
PP
0 sg
-34 0 0 1085 34 0 0 -1085 3388 2158 5 MP stroke
c8
0 1168 34 0 0 -1168 3422 2158 4 MP
PP
0 sg
-34 0 0 1168 34 0 0 -1168 3422 2158 5 MP stroke
c8
0 1144 34 0 0 -1144 3456 2158 4 MP
PP
0 sg
-34 0 0 1144 34 0 0 -1144 3456 2158 5 MP stroke
c8
0 1044 34 0 0 -1044 3490 2158 4 MP
PP
0 sg
-34 0 0 1044 34 0 0 -1044 3490 2158 5 MP stroke
c8
0 1021 33 0 0 -1021 3524 2158 4 MP
PP
0 sg
-33 0 0 1021 33 0 0 -1021 3524 2158 5 MP stroke
c8
0 1209 34 0 0 -1209 3557 2158 4 MP
PP
0 sg
-34 0 0 1209 34 0 0 -1209 3557 2158 5 MP stroke
c8
0 1209 34 0 0 -1209 3591 2158 4 MP
PP
0 sg
-34 0 0 1209 34 0 0 -1209 3591 2158 5 MP stroke
c8
0 1380 34 0 0 -1380 3625 2158 4 MP
PP
0 sg
-34 0 0 1380 34 0 0 -1380 3625 2158 5 MP stroke
c8
0 1109 33 0 0 -1109 3659 2158 4 MP
PP
0 sg
-33 0 0 1109 33 0 0 -1109 3659 2158 5 MP stroke
c8
0 968 34 0 0 -968 3692 2158 4 MP
PP
0 sg
-34 0 0 968 34 0 0 -968 3692 2158 5 MP stroke
c8
0 1174 34 0 0 -1174 3726 2158 4 MP
PP
0 sg
-34 0 0 1174 34 0 0 -1174 3726 2158 5 MP stroke
c8
0 1256 34 0 0 -1256 3760 2158 4 MP
PP
0 sg
-34 0 0 1256 34 0 0 -1256 3760 2158 5 MP stroke
c8
0 1534 34 0 0 -1534 3794 2158 4 MP
PP
0 sg
-34 0 0 1534 34 0 0 -1534 3794 2158 5 MP stroke
c8
0 631 33 0 0 -631 3828 2158 4 MP
PP
0 sg
-33 0 0 631 33 0 0 -631 3828 2158 5 MP stroke
c8
0 555 34 0 0 -555 3861 2158 4 MP
PP
0 sg
-34 0 0 555 34 0 0 -555 3861 2158 5 MP stroke
gr

%%IncludeResource: font Symbol
/Symbol /ISOLatin1Encoding 120 FMSR

3513 2408 mt 
(a) s
%%IncludeResource: font Helvetica
/Helvetica /ISOLatin1Encoding 96 FMSR

3588 2468 mt 
(2) s
%%IncludeResource: font Helvetica
/Helvetica /ISOLatin1Encoding 120 FMSR

2565 1537 mt  -90 rotate
(frequency) s
90 rotate
1 sg
0 1770 1393 0 0 -1770 4823 2158 4 MP
PP
-1393 0 0 1770 1393 0 0 -1770 4823 2158 5 MP stroke
4 w
DO
SO
6 w
0 sg
4823 2158 mt 6216 2158 L
4823  388 mt 6216  388 L
4823 2158 mt 4823  388 L
6216 2158 mt 6216  388 L
4823 2158 mt 6216 2158 L
4823 2158 mt 4823  388 L
4823 2158 mt 4823 2140 L
4823  389 mt 4823  406 L
4707 2303 mt 
(0.05) s
5287 2158 mt 5287 2140 L
5287  389 mt 5287  406 L
5204 2303 mt 
(0.1) s
5751 2158 mt 5751 2140 L
5751  389 mt 5751  406 L
5635 2303 mt 
(0.15) s
6216 2158 mt 6216 2140 L
6216  389 mt 6216  406 L
6133 2303 mt 
(0.2) s
4823 2158 mt 4840 2158 L
6216 2158 mt 6198 2158 L
4722 2202 mt 
(0) s
4823 1863 mt 4840 1863 L
6216 1863 mt 6198 1863 L
4588 1907 mt 
(100) s
4823 1568 mt 4840 1568 L
6216 1568 mt 6198 1568 L
4588 1612 mt 
(200) s
4823 1273 mt 4840 1273 L
6216 1273 mt 6198 1273 L
4588 1317 mt 
(300) s
4823  978 mt 4840  978 L
6216  978 mt 6198  978 L
4588 1022 mt 
(400) s
4823  683 mt 4840  683 L
6216  683 mt 6198  683 L
4588  727 mt 
(500) s
4823  389 mt 4840  389 L
6216  389 mt 6198  389 L
4588  433 mt 
(600) s
4823 2158 mt 6216 2158 L
4823  388 mt 6216  388 L
4823 2158 mt 4823  388 L
6216 2158 mt 6216  388 L
gs 4823 389 1394 1770 MR c np
c8
0 3 19 0 0 -3 5052 2158 4 MP
PP
0 sg
-19 0 0 3 19 0 0 -3 5052 2158 5 MP stroke
c8
0 9 18 0 0 -9 5071 2158 4 MP
PP
0 sg
-18 0 0 9 18 0 0 -9 5071 2158 5 MP stroke
c8
0 21 18 0 0 -21 5089 2158 4 MP
PP
0 sg
-18 0 0 21 18 0 0 -21 5089 2158 5 MP stroke
c8
0 18 19 0 0 -18 5107 2158 4 MP
PP
0 sg
-19 0 0 18 19 0 0 -18 5107 2158 5 MP stroke
c8
0 45 18 0 0 -45 5126 2158 4 MP
PP
0 sg
-18 0 0 45 18 0 0 -45 5126 2158 5 MP stroke
c8
0 36 19 0 0 -36 5144 2158 4 MP
PP
0 sg
-19 0 0 36 19 0 0 -36 5144 2158 5 MP stroke
c8
0 83 18 0 0 -83 5163 2158 4 MP
PP
0 sg
-18 0 0 83 18 0 0 -83 5163 2158 5 MP stroke
c8
0 210 18 0 0 -210 5181 2158 4 MP
PP
0 sg
-18 0 0 210 18 0 0 -210 5181 2158 5 MP stroke
c8
0 528 19 0 0 -528 5199 2158 4 MP
PP
0 sg
-19 0 0 528 19 0 0 -528 5199 2158 5 MP stroke
c8
0 679 18 0 0 -679 5218 2158 4 MP
PP
0 sg
-18 0 0 679 18 0 0 -679 5218 2158 5 MP stroke
c8
0 667 18 0 0 -667 5236 2158 4 MP
PP
0 sg
-18 0 0 667 18 0 0 -667 5236 2158 5 MP stroke
c8
0 1177 19 0 0 -1177 5254 2158 4 MP
PP
0 sg
-19 0 0 1177 19 0 0 -1177 5254 2158 5 MP stroke
c8
0 1422 18 0 0 -1422 5273 2158 4 MP
PP
0 sg
-18 0 0 1422 18 0 0 -1422 5273 2158 5 MP stroke
c8
0 1619 18 0 0 -1619 5291 2158 4 MP
PP
0 sg
-18 0 0 1619 18 0 0 -1619 5291 2158 5 MP stroke
c8
0 1448 19 0 0 -1448 5309 2158 4 MP
PP
0 sg
-19 0 0 1448 19 0 0 -1448 5309 2158 5 MP stroke
c8
0 1304 18 0 0 -1304 5328 2158 4 MP
PP
0 sg
-18 0 0 1304 18 0 0 -1304 5328 2158 5 MP stroke
c8
0 1442 19 0 0 -1442 5346 2158 4 MP
PP
0 sg
-19 0 0 1442 19 0 0 -1442 5346 2158 5 MP stroke
c8
0 1142 18 0 0 -1142 5365 2158 4 MP
PP
0 sg
-18 0 0 1142 18 0 0 -1142 5365 2158 5 MP stroke
c8
0 1003 18 0 0 -1003 5383 2158 4 MP
PP
0 sg
-18 0 0 1003 18 0 0 -1003 5383 2158 5 MP stroke
c8
0 628 19 0 0 -628 5401 2158 4 MP
PP
0 sg
-19 0 0 628 19 0 0 -628 5401 2158 5 MP stroke
c8
0 499 18 0 0 -499 5420 2158 4 MP
PP
0 sg
-18 0 0 499 18 0 0 -499 5420 2158 5 MP stroke
c8
0 307 18 0 0 -307 5438 2158 4 MP
PP
0 sg
-18 0 0 307 18 0 0 -307 5438 2158 5 MP stroke
c8
0 186 19 0 0 -186 5456 2158 4 MP
PP
0 sg
-19 0 0 186 19 0 0 -186 5456 2158 5 MP stroke
c8
0 121 18 0 0 -121 5475 2158 4 MP
PP
0 sg
-18 0 0 121 18 0 0 -121 5475 2158 5 MP stroke
c8
0 80 19 0 0 -80 5493 2158 4 MP
PP
0 sg
-19 0 0 80 19 0 0 -80 5493 2158 5 MP stroke
c8
0 36 18 0 0 -36 5512 2158 4 MP
PP
0 sg
-18 0 0 36 18 0 0 -36 5512 2158 5 MP stroke
c8
0 21 18 0 0 -21 5530 2158 4 MP
PP
0 sg
-18 0 0 21 18 0 0 -21 5530 2158 5 MP stroke
c8
0 15 19 0 0 -15 5548 2158 4 MP
PP
0 sg
-19 0 0 15 19 0 0 -15 5548 2158 5 MP stroke
c8
0 0 18 0 0 0 5567 2158 4 MP
PP
0 sg
-18 0 0 0 18 0 0 0 5567 2158 5 MP stroke
c8
0 6 18 0 0 -6 5585 2158 4 MP
PP
0 sg
-18 0 0 6 18 0 0 -6 5585 2158 5 MP stroke
gr

%%IncludeResource: font Symbol
/Symbol /ISOLatin1Encoding 120 FMSR

5454 2408 mt 
(a) s
%%IncludeResource: font Helvetica
/Helvetica /ISOLatin1Encoding 96 FMSR

5529 2468 mt 
(1) s
%%IncludeResource: font Helvetica
/Helvetica /ISOLatin1Encoding 120 FMSR

4506 1537 mt  -90 rotate
(frequency) s
90 rotate
1 sg
0 1769 1393 0 0 -1769 941 4615 4 MP
PP
-1393 0 0 1769 1393 0 0 -1769 941 4615 5 MP stroke
4 w
DO
SO
6 w
0 sg
 941 4615 mt 2334 4615 L
 941 2846 mt 2334 2846 L
 941 4615 mt  941 2846 L
2334 4615 mt 2334 2846 L
 941 4615 mt 2334 4615 L
 941 4615 mt  941 2846 L
 941 4615 mt  941 4597 L
 941 2846 mt  941 2863 L
 858 4760 mt 
(0.1) s
1637 4615 mt 1637 4597 L
1637 2846 mt 1637 2863 L
1554 4760 mt 
(0.2) s
2334 4615 mt 2334 4597 L
2334 2846 mt 2334 2863 L
2251 4760 mt 
(0.3) s
 941 4615 mt  958 4615 L
2334 4615 mt 2316 4615 L
 840 4659 mt 
(0) s
 941 4261 mt  958 4261 L
2334 4261 mt 2316 4261 L
 706 4305 mt 
(100) s
 941 3907 mt  958 3907 L
2334 3907 mt 2316 3907 L
 706 3951 mt 
(200) s
 941 3553 mt  958 3553 L
2334 3553 mt 2316 3553 L
 706 3597 mt 
(300) s
 941 3199 mt  958 3199 L
2334 3199 mt 2316 3199 L
 706 3243 mt 
(400) s
 941 2846 mt  958 2846 L
2334 2846 mt 2316 2846 L
 706 2890 mt 
(500) s
 941 4615 mt 2334 4615 L
 941 2846 mt 2334 2846 L
 941 4615 mt  941 2846 L
2334 4615 mt 2334 2846 L
gs 941 2846 1394 1770 MR c np
c8
0 32 22 0 0 -32 1338 4615 4 MP
PP
0 sg
-22 0 0 32 22 0 0 -32 1338 4615 5 MP stroke
c8
0 22 21 0 0 -22 1360 4615 4 MP
PP
0 sg
-21 0 0 22 21 0 0 -22 1360 4615 5 MP stroke
c8
0 43 22 0 0 -43 1381 4615 4 MP
PP
0 sg
-22 0 0 43 22 0 0 -43 1381 4615 5 MP stroke
c8
0 43 21 0 0 -43 1403 4615 4 MP
PP
0 sg
-21 0 0 43 21 0 0 -43 1403 4615 5 MP stroke
c8
0 100 22 0 0 -100 1424 4615 4 MP
PP
0 sg
-22 0 0 100 22 0 0 -100 1424 4615 5 MP stroke
c8
0 230 22 0 0 -230 1446 4615 4 MP
PP
0 sg
-22 0 0 230 22 0 0 -230 1446 4615 5 MP stroke
c8
0 605 21 0 0 -605 1468 4615 4 MP
PP
0 sg
-21 0 0 605 21 0 0 -605 1468 4615 5 MP stroke
c8
0 620 22 0 0 -620 1489 4615 4 MP
PP
0 sg
-22 0 0 620 22 0 0 -620 1489 4615 5 MP stroke
c8
0 814 21 0 0 -814 1511 4615 4 MP
PP
0 sg
-21 0 0 814 21 0 0 -814 1511 4615 5 MP stroke
c8
0 1256 22 0 0 -1256 1532 4615 4 MP
PP
0 sg
-22 0 0 1256 22 0 0 -1256 1532 4615 5 MP stroke
c8
0 1663 22 0 0 -1663 1554 4615 4 MP
PP
0 sg
-22 0 0 1663 22 0 0 -1663 1554 4615 5 MP stroke
c8
0 1667 21 0 0 -1667 1576 4615 4 MP
PP
0 sg
-21 0 0 1667 21 0 0 -1667 1576 4615 5 MP stroke
c8
0 1699 22 0 0 -1699 1597 4615 4 MP
PP
0 sg
-22 0 0 1699 22 0 0 -1699 1597 4615 5 MP stroke
c8
0 1635 21 0 0 -1635 1619 4615 4 MP
PP
0 sg
-21 0 0 1635 21 0 0 -1635 1619 4615 5 MP stroke
c8
0 1494 22 0 0 -1494 1640 4615 4 MP
PP
0 sg
-22 0 0 1494 22 0 0 -1494 1640 4615 5 MP stroke
c8
0 1356 21 0 0 -1356 1662 4615 4 MP
PP
0 sg
-21 0 0 1356 21 0 0 -1356 1662 4615 5 MP stroke
c8
0 1320 22 0 0 -1320 1683 4615 4 MP
PP
0 sg
-22 0 0 1320 22 0 0 -1320 1683 4615 5 MP stroke
c8
0 1051 22 0 0 -1051 1705 4615 4 MP
PP
0 sg
-22 0 0 1051 22 0 0 -1051 1705 4615 5 MP stroke
c8
0 800 21 0 0 -800 1727 4615 4 MP
PP
0 sg
-21 0 0 800 21 0 0 -800 1727 4615 5 MP stroke
c8
0 383 22 0 0 -383 1748 4615 4 MP
PP
0 sg
-22 0 0 383 22 0 0 -383 1748 4615 5 MP stroke
c8
0 432 21 0 0 -432 1770 4615 4 MP
PP
0 sg
-21 0 0 432 21 0 0 -432 1770 4615 5 MP stroke
c8
0 184 22 0 0 -184 1791 4615 4 MP
PP
0 sg
-22 0 0 184 22 0 0 -184 1791 4615 5 MP stroke
c8
0 89 21 0 0 -89 1813 4615 4 MP
PP
0 sg
-21 0 0 89 21 0 0 -89 1813 4615 5 MP stroke
c8
0 50 22 0 0 -50 1834 4615 4 MP
PP
0 sg
-22 0 0 50 22 0 0 -50 1834 4615 5 MP stroke
c8
0 54 22 0 0 -54 1856 4615 4 MP
PP
0 sg
-22 0 0 54 22 0 0 -54 1856 4615 5 MP stroke
c8
0 43 21 0 0 -43 1878 4615 4 MP
PP
0 sg
-21 0 0 43 21 0 0 -43 1878 4615 5 MP stroke
c8
0 11 22 0 0 -11 1899 4615 4 MP
PP
0 sg
-22 0 0 11 22 0 0 -11 1899 4615 5 MP stroke
c8
0 0 21 0 0 0 1921 4615 4 MP
PP
0 sg
-21 0 0 0 21 0 0 0 1921 4615 5 MP stroke
c8
0 0 22 0 0 0 1942 4615 4 MP
PP
0 sg
-22 0 0 0 22 0 0 0 1942 4615 5 MP stroke
c8
0 8 22 0 0 -8 1964 4615 4 MP
PP
0 sg
-22 0 0 8 22 0 0 -8 1964 4615 5 MP stroke
gr

%%IncludeResource: font Symbol
/Symbol /ISOLatin1Encoding 120 FMSR

1577 4865 mt 
(b) s
%%IncludeResource: font Helvetica
/Helvetica /ISOLatin1Encoding 96 FMSR

1642 4925 mt 
(2) s
%%IncludeResource: font Helvetica
/Helvetica /ISOLatin1Encoding 120 FMSR

 624 3994 mt  -90 rotate
(frequency) s
90 rotate
1 sg
0 1769 1393 0 0 -1769 2882 4615 4 MP
PP
-1393 0 0 1769 1393 0 0 -1769 2882 4615 5 MP stroke
4 w
DO
SO
6 w
0 sg
2882 4615 mt 4275 4615 L
2882 2846 mt 4275 2846 L
2882 4615 mt 2882 2846 L
4275 4615 mt 4275 2846 L
2882 4615 mt 4275 4615 L
2882 4615 mt 2882 2846 L
2882 4615 mt 2882 4597 L
2882 2846 mt 2882 2863 L
2849 4760 mt 
(0) s
3578 4615 mt 3578 4597 L
3578 2846 mt 3578 2863 L
3495 4760 mt 
(0.2) s
4275 4615 mt 4275 4597 L
4275 2846 mt 4275 2863 L
4192 4760 mt 
(0.4) s
2882 4615 mt 2899 4615 L
4275 4615 mt 4257 4615 L
2781 4659 mt 
(0) s
2882 4320 mt 2899 4320 L
4275 4320 mt 4257 4320 L
2647 4364 mt 
(100) s
2882 4025 mt 2899 4025 L
4275 4025 mt 4257 4025 L
2647 4069 mt 
(200) s
2882 3730 mt 2899 3730 L
4275 3730 mt 4257 3730 L
2647 3774 mt 
(300) s
2882 3435 mt 2899 3435 L
4275 3435 mt 4257 3435 L
2647 3479 mt 
(400) s
2882 3140 mt 2899 3140 L
4275 3140 mt 4257 3140 L
2647 3184 mt 
(500) s
2882 2846 mt 2899 2846 L
4275 2846 mt 4257 2846 L
2647 2890 mt 
(600) s
2882 4615 mt 4275 4615 L
2882 2846 mt 4275 2846 L
2882 4615 mt 2882 2846 L
4275 4615 mt 4275 2846 L
gs 2882 2846 1394 1770 MR c np
c8
0 9 21 0 0 -9 3103 4615 4 MP
PP
0 sg
-21 0 0 9 21 0 0 -9 3103 4615 5 MP stroke
c8
0 74 20 0 0 -74 3124 4615 4 MP
PP
0 sg
-20 0 0 74 20 0 0 -74 3124 4615 5 MP stroke
c8
0 136 21 0 0 -136 3144 4615 4 MP
PP
0 sg
-21 0 0 136 21 0 0 -136 3144 4615 5 MP stroke
c8
0 275 21 0 0 -275 3165 4615 4 MP
PP
0 sg
-21 0 0 275 21 0 0 -275 3165 4615 5 MP stroke
c8
0 519 21 0 0 -519 3186 4615 4 MP
PP
0 sg
-21 0 0 519 21 0 0 -519 3186 4615 5 MP stroke
c8
0 814 20 0 0 -814 3207 4615 4 MP
PP
0 sg
-20 0 0 814 20 0 0 -814 3207 4615 5 MP stroke
c8
0 1209 21 0 0 -1209 3227 4615 4 MP
PP
0 sg
-21 0 0 1209 21 0 0 -1209 3227 4615 5 MP stroke
c8
0 1463 21 0 0 -1463 3248 4615 4 MP
PP
0 sg
-21 0 0 1463 21 0 0 -1463 3248 4615 5 MP stroke
c8
0 1604 20 0 0 -1604 3269 4615 4 MP
PP
0 sg
-20 0 0 1604 20 0 0 -1604 3269 4615 5 MP stroke
c8
0 1628 21 0 0 -1628 3289 4615 4 MP
PP
0 sg
-21 0 0 1628 21 0 0 -1628 3289 4615 5 MP stroke
c8
0 1625 21 0 0 -1625 3310 4615 4 MP
PP
0 sg
-21 0 0 1625 21 0 0 -1625 3310 4615 5 MP stroke
c8
0 1236 21 0 0 -1236 3331 4615 4 MP
PP
0 sg
-21 0 0 1236 21 0 0 -1236 3331 4615 5 MP stroke
c8
0 1168 20 0 0 -1168 3352 4615 4 MP
PP
0 sg
-20 0 0 1168 20 0 0 -1168 3352 4615 5 MP stroke
c8
0 779 21 0 0 -779 3372 4615 4 MP
PP
0 sg
-21 0 0 779 21 0 0 -779 3372 4615 5 MP stroke
c8
0 720 21 0 0 -720 3393 4615 4 MP
PP
0 sg
-21 0 0 720 21 0 0 -720 3393 4615 5 MP stroke
c8
0 514 21 0 0 -514 3414 4615 4 MP
PP
0 sg
-21 0 0 514 21 0 0 -514 3414 4615 5 MP stroke
c8
0 345 20 0 0 -345 3435 4615 4 MP
PP
0 sg
-20 0 0 345 20 0 0 -345 3435 4615 5 MP stroke
c8
0 266 21 0 0 -266 3455 4615 4 MP
PP
0 sg
-21 0 0 266 21 0 0 -266 3455 4615 5 MP stroke
c8
0 142 21 0 0 -142 3476 4615 4 MP
PP
0 sg
-21 0 0 142 21 0 0 -142 3476 4615 5 MP stroke
c8
0 71 21 0 0 -71 3497 4615 4 MP
PP
0 sg
-21 0 0 71 21 0 0 -71 3497 4615 5 MP stroke
c8
0 80 20 0 0 -80 3518 4615 4 MP
PP
0 sg
-20 0 0 80 20 0 0 -80 3518 4615 5 MP stroke
c8
0 9 21 0 0 -9 3538 4615 4 MP
PP
0 sg
-21 0 0 9 21 0 0 -9 3538 4615 5 MP stroke
c8
0 6 21 0 0 -6 3559 4615 4 MP
PP
0 sg
-21 0 0 6 21 0 0 -6 3559 4615 5 MP stroke
c8
0 3 21 0 0 -3 3580 4615 4 MP
PP
0 sg
-21 0 0 3 21 0 0 -3 3580 4615 5 MP stroke
c8
0 27 20 0 0 -27 3601 4615 4 MP
PP
0 sg
-20 0 0 27 20 0 0 -27 3601 4615 5 MP stroke
c8
0 6 21 0 0 -6 3621 4615 4 MP
PP
0 sg
-21 0 0 6 21 0 0 -6 3621 4615 5 MP stroke
c8
0 6 21 0 0 -6 3642 4615 4 MP
PP
0 sg
-21 0 0 6 21 0 0 -6 3642 4615 5 MP stroke
c8
0 12 21 0 0 -12 3663 4615 4 MP
PP
0 sg
-21 0 0 12 21 0 0 -12 3663 4615 5 MP stroke
c8
0 3 20 0 0 -3 3684 4615 4 MP
PP
0 sg
-20 0 0 3 20 0 0 -3 3684 4615 5 MP stroke
c8
0 3 21 0 0 -3 3704 4615 4 MP
PP
0 sg
-21 0 0 3 21 0 0 -3 3704 4615 5 MP stroke
gr

%%IncludeResource: font Symbol
/Symbol /ISOLatin1Encoding 120 FMSR

3514 4892 mt 
(s) s
%%IncludeResource: font Symbol
/Symbol /ISOLatin1Encoding 96 FMSR

3586 4952 mt 
(r) s
%%IncludeResource: font Helvetica
/Helvetica /ISOLatin1Encoding 96 FMSR

3586 4832 mt 
(2) s
%%IncludeResource: font Helvetica
/Helvetica /ISOLatin1Encoding 120 FMSR

2565 3994 mt  -90 rotate
(frequency) s
90 rotate
1 sg
0 1769 1393 0 0 -1769 4823 4615 4 MP
PP
-1393 0 0 1769 1393 0 0 -1769 4823 4615 5 MP stroke
4 w
DO
SO
6 w
0 sg
4823 4615 mt 6216 4615 L
4823 2846 mt 6216 2846 L
4823 4615 mt 4823 2846 L
6216 4615 mt 6216 2846 L
4823 4615 mt 6216 4615 L
4823 4615 mt 4823 2846 L
4823 4615 mt 4823 4597 L
4823 2846 mt 4823 2863 L
4790 4760 mt 
(0) s
5287 4615 mt 5287 4597 L
5287 2846 mt 5287 2863 L
5204 4760 mt 
(0.5) s
5751 4615 mt 5751 4597 L
5751 2846 mt 5751 2863 L
5718 4760 mt 
(1) s
6216 4615 mt 6216 4597 L
6216 2846 mt 6216 2863 L
6133 4760 mt 
(1.5) s
5899 4962 mt 
(x 10) s
%%IncludeResource: font Helvetica
/Helvetica /ISOLatin1Encoding 80 FMSR

6125 4888 mt 
(-3) s
4823 4615 mt 4840 4615 L
6216 4615 mt 6198 4615 L
%%IncludeResource: font Helvetica
/Helvetica /ISOLatin1Encoding 120 FMSR

4722 4659 mt 
(0) s
4823 4320 mt 4840 4320 L
6216 4320 mt 6198 4320 L
4588 4364 mt 
(100) s
4823 4025 mt 4840 4025 L
6216 4025 mt 6198 4025 L
4588 4069 mt 
(200) s
4823 3730 mt 4840 3730 L
6216 3730 mt 6198 3730 L
4588 3774 mt 
(300) s
4823 3435 mt 4840 3435 L
6216 3435 mt 6198 3435 L
4588 3479 mt 
(400) s
4823 3140 mt 4840 3140 L
6216 3140 mt 6198 3140 L
4588 3184 mt 
(500) s
4823 2846 mt 4840 2846 L
6216 2846 mt 6198 2846 L
4588 2890 mt 
(600) s
4823 4615 mt 6216 4615 L
4823 2846 mt 6216 2846 L
4823 4615 mt 4823 2846 L
6216 4615 mt 6216 2846 L
gs 4823 2846 1394 1770 MR c np
c8
0 169 37 0 0 -169 5029 4615 4 MP
PP
0 sg
-37 0 0 169 37 0 0 -169 5029 4615 5 MP stroke
c8
0 251 37 0 0 -251 5066 4615 4 MP
PP
0 sg
-37 0 0 251 37 0 0 -251 5066 4615 5 MP stroke
c8
0 655 37 0 0 -655 5103 4615 4 MP
PP
0 sg
-37 0 0 655 37 0 0 -655 5103 4615 5 MP stroke
c8
0 1003 37 0 0 -1003 5140 4615 4 MP
PP
0 sg
-37 0 0 1003 37 0 0 -1003 5140 4615 5 MP stroke
c8
0 1298 36 0 0 -1298 5177 4615 4 MP
PP
0 sg
-36 0 0 1298 36 0 0 -1298 5177 4615 5 MP stroke
c8
0 1492 37 0 0 -1492 5213 4615 4 MP
PP
0 sg
-37 0 0 1492 37 0 0 -1492 5213 4615 5 MP stroke
c8
0 1439 37 0 0 -1439 5250 4615 4 MP
PP
0 sg
-37 0 0 1439 37 0 0 -1439 5250 4615 5 MP stroke
c8
0 1590 37 0 0 -1590 5287 4615 4 MP
PP
0 sg
-37 0 0 1590 37 0 0 -1590 5287 4615 5 MP stroke
c8
0 1248 37 0 0 -1248 5324 4615 4 MP
PP
0 sg
-37 0 0 1248 37 0 0 -1248 5324 4615 5 MP stroke
c8
0 1029 36 0 0 -1029 5361 4615 4 MP
PP
0 sg
-36 0 0 1029 36 0 0 -1029 5361 4615 5 MP stroke
c8
0 717 37 0 0 -717 5397 4615 4 MP
PP
0 sg
-37 0 0 717 37 0 0 -717 5397 4615 5 MP stroke
c8
0 690 37 0 0 -690 5434 4615 4 MP
PP
0 sg
-37 0 0 690 37 0 0 -690 5434 4615 5 MP stroke
c8
0 735 37 0 0 -735 5471 4615 4 MP
PP
0 sg
-37 0 0 735 37 0 0 -735 5471 4615 5 MP stroke
c8
0 502 36 0 0 -502 5508 4615 4 MP
PP
0 sg
-36 0 0 502 36 0 0 -502 5508 4615 5 MP stroke
c8
0 381 37 0 0 -381 5544 4615 4 MP
PP
0 sg
-37 0 0 381 37 0 0 -381 5544 4615 5 MP stroke
c8
0 286 37 0 0 -286 5581 4615 4 MP
PP
0 sg
-37 0 0 286 37 0 0 -286 5581 4615 5 MP stroke
c8
0 263 37 0 0 -263 5618 4615 4 MP
PP
0 sg
-37 0 0 263 37 0 0 -263 5618 4615 5 MP stroke
c8
0 233 37 0 0 -233 5655 4615 4 MP
PP
0 sg
-37 0 0 233 37 0 0 -233 5655 4615 5 MP stroke
c8
0 183 36 0 0 -183 5692 4615 4 MP
PP
0 sg
-36 0 0 183 36 0 0 -183 5692 4615 5 MP stroke
c8
0 189 37 0 0 -189 5728 4615 4 MP
PP
0 sg
-37 0 0 189 37 0 0 -189 5728 4615 5 MP stroke
c8
0 104 37 0 0 -104 5765 4615 4 MP
PP
0 sg
-37 0 0 104 37 0 0 -104 5765 4615 5 MP stroke
c8
0 62 37 0 0 -62 5802 4615 4 MP
PP
0 sg
-37 0 0 62 37 0 0 -62 5802 4615 5 MP stroke
c8
0 45 37 0 0 -45 5839 4615 4 MP
PP
0 sg
-37 0 0 45 37 0 0 -45 5839 4615 5 MP stroke
c8
0 48 36 0 0 -48 5876 4615 4 MP
PP
0 sg
-36 0 0 48 36 0 0 -48 5876 4615 5 MP stroke
c8
0 54 37 0 0 -54 5912 4615 4 MP
PP
0 sg
-37 0 0 54 37 0 0 -54 5912 4615 5 MP stroke
c8
0 21 37 0 0 -21 5949 4615 4 MP
PP
0 sg
-37 0 0 21 37 0 0 -21 5949 4615 5 MP stroke
c8
0 39 37 0 0 -39 5986 4615 4 MP
PP
0 sg
-37 0 0 39 37 0 0 -39 5986 4615 5 MP stroke
c8
0 18 37 0 0 -18 6023 4615 4 MP
PP
0 sg
-37 0 0 18 37 0 0 -18 6023 4615 5 MP stroke
c8
0 6 36 0 0 -6 6060 4615 4 MP
PP
0 sg
-36 0 0 6 36 0 0 -6 6060 4615 5 MP stroke
c8
0 6 37 0 0 -6 6096 4615 4 MP
PP
0 sg
-37 0 0 6 37 0 0 -6 6096 4615 5 MP stroke
gr

%%IncludeResource: font Symbol
/Symbol /ISOLatin1Encoding 120 FMSR

5455 4885 mt 
(s) s
%%IncludeResource: font Helvetica
/Helvetica /ISOLatin1Encoding 96 FMSR

5527 4945 mt 
(n) s
5527 4825 mt 
(2) s
%%IncludeResource: font Helvetica
/Helvetica /ISOLatin1Encoding 120 FMSR

4506 3994 mt  -90 rotate
(frequency) s
90 rotate

end %%Color Dict

eplot
%%EndObject

epage
end

showpage

%%Trailer
%%EOF
