%!PS-Adobe-2.0 EPSF-1.2
%%Creator: MATLAB, The MathWorks, Inc. Version 8.1.0.604 (R2013a). Operating System: Linux 3.13.0-40-generic #69-Ubuntu SMP Thu Nov 13 17:53:56 UTC 2014 x86_64.
%%Title: /home/xiaolin/Documents/model_selection/model_selection_log03new/YH/data_figures/prediction.eps
%%CreationDate: 10/25/2015  07:08:20
%%DocumentNeededFonts: Helvetica
%%DocumentProcessColors: Cyan Magenta Yellow Black
%%Pages: 1
%%BoundingBox:    58   403   548   602
%%EndComments

%%BeginProlog
% MathWorks dictionary
/MathWorks 160 dict begin
% definition operators
/bdef {bind def} bind def
/ldef {load def} bind def
/xdef {exch def} bdef
/xstore {exch store} bdef
% operator abbreviations
/c  /clip ldef
/cc /concat ldef
/cp /closepath ldef
/gr /grestore ldef
/gs /gsave ldef
/mt /moveto ldef
/np /newpath ldef
/cm /currentmatrix ldef
/sm /setmatrix ldef
/rm /rmoveto ldef
/rl /rlineto ldef
/s {show newpath} bdef
/sc {setcmykcolor} bdef
/sr /setrgbcolor ldef
/sg /setgray ldef
/w /setlinewidth ldef
/j /setlinejoin ldef
/cap /setlinecap ldef
/rc {rectclip} bdef
/rf {rectfill} bdef
% page state control
/pgsv () def
/bpage {/pgsv save def} bdef
/epage {pgsv restore} bdef
/bplot /gsave ldef
/eplot {stroke grestore} bdef
% orientation switch
/portraitMode 0 def /landscapeMode 1 def /rotateMode 2 def
% coordinate system mappings
/dpi2point 0 def
% font control
/FontSize 0 def
/FMS {/FontSize xstore findfont [FontSize 0 0 FontSize neg 0 0]
  makefont setfont} bdef
/reencode {exch dup where {pop load} {pop StandardEncoding} ifelse
  exch dup 3 1 roll findfont dup length dict begin
  { 1 index /FID ne {def}{pop pop} ifelse } forall
  /Encoding exch def currentdict end definefont pop} bdef
/isroman {findfont /CharStrings get /Agrave known} bdef
/FMSR {3 1 roll 1 index dup isroman {reencode} {pop pop} ifelse
  exch FMS} bdef
/csm {1 dpi2point div -1 dpi2point div scale neg translate
 dup landscapeMode eq {pop -90 rotate}
  {rotateMode eq {90 rotate} if} ifelse} bdef
% line types: solid, dotted, dashed, dotdash
/SO { [] 0 setdash } bdef
/DO { [.5 dpi2point mul 4 dpi2point mul] 0 setdash } bdef
/DA { [6 dpi2point mul] 0 setdash } bdef
/DD { [.5 dpi2point mul 4 dpi2point mul 6 dpi2point mul 4
  dpi2point mul] 0 setdash } bdef
% macros for lines and objects
/L {lineto stroke} bdef
/MP {3 1 roll moveto 1 sub {rlineto} repeat} bdef
/AP {{rlineto} repeat} bdef
/PDlw -1 def
/W {/PDlw currentlinewidth def setlinewidth} def
/PP {closepath eofill} bdef
/DP {closepath stroke} bdef
/MR {4 -2 roll moveto dup  0 exch rlineto exch 0 rlineto
  neg 0 exch rlineto closepath} bdef
/FR {MR stroke} bdef
/PR {MR fill} bdef
/L1i {{currentfile picstr readhexstring pop} image} bdef
/tMatrix matrix def
/MakeOval {newpath tMatrix currentmatrix pop translate scale
0 0 1 0 360 arc tMatrix setmatrix} bdef
/FO {MakeOval stroke} bdef
/PO {MakeOval fill} bdef
/PD {currentlinewidth 2 div 0 360 arc fill
   PDlw -1 eq not {PDlw w /PDlw -1 def} if} def
/FA {newpath tMatrix currentmatrix pop translate scale
  0 0 1 5 -2 roll arc tMatrix setmatrix stroke} bdef
/PA {newpath tMatrix currentmatrix pop	translate 0 0 moveto scale
  0 0 1 5 -2 roll arc closepath tMatrix setmatrix fill} bdef
/FAn {newpath tMatrix currentmatrix pop translate scale
  0 0 1 5 -2 roll arcn tMatrix setmatrix stroke} bdef
/PAn {newpath tMatrix currentmatrix pop translate 0 0 moveto scale
  0 0 1 5 -2 roll arcn closepath tMatrix setmatrix fill} bdef
/vradius 0 def /hradius 0 def /lry 0 def
/lrx 0 def /uly 0 def /ulx 0 def /rad 0 def
/MRR {/vradius xdef /hradius xdef /lry xdef /lrx xdef /uly xdef
  /ulx xdef newpath tMatrix currentmatrix pop ulx hradius add uly
  vradius add translate hradius vradius scale 0 0 1 180 270 arc 
  tMatrix setmatrix lrx hradius sub uly vradius add translate
  hradius vradius scale 0 0 1 270 360 arc tMatrix setmatrix
  lrx hradius sub lry vradius sub translate hradius vradius scale
  0 0 1 0 90 arc tMatrix setmatrix ulx hradius add lry vradius sub
  translate hradius vradius scale 0 0 1 90 180 arc tMatrix setmatrix
  closepath} bdef
/FRR {MRR stroke } bdef
/PRR {MRR fill } bdef
/MlrRR {/lry xdef /lrx xdef /uly xdef /ulx xdef /rad lry uly sub 2 div def
  newpath tMatrix currentmatrix pop ulx rad add uly rad add translate
  rad rad scale 0 0 1 90 270 arc tMatrix setmatrix lrx rad sub lry rad
  sub translate rad rad scale 0 0 1 270 90 arc tMatrix setmatrix
  closepath} bdef
/FlrRR {MlrRR stroke } bdef
/PlrRR {MlrRR fill } bdef
/MtbRR {/lry xdef /lrx xdef /uly xdef /ulx xdef /rad lrx ulx sub 2 div def
  newpath tMatrix currentmatrix pop ulx rad add uly rad add translate
  rad rad scale 0 0 1 180 360 arc tMatrix setmatrix lrx rad sub lry rad
  sub translate rad rad scale 0 0 1 0 180 arc tMatrix setmatrix
  closepath} bdef
/FtbRR {MtbRR stroke } bdef
/PtbRR {MtbRR fill } bdef
/stri 6 array def /dtri 6 array def
/smat 6 array def /dmat 6 array def
/tmat1 6 array def /tmat2 6 array def /dif 3 array def
/asub {/ind2 exch def /ind1 exch def dup dup
  ind1 get exch ind2 get sub exch } bdef
/tri_to_matrix {
  2 0 asub 3 1 asub 4 0 asub 5 1 asub
  dup 0 get exch 1 get 7 -1 roll astore } bdef
/compute_transform {
  dmat dtri tri_to_matrix tmat1 invertmatrix 
  smat stri tri_to_matrix tmat2 concatmatrix } bdef
/ds {stri astore pop} bdef
/dt {dtri astore pop} bdef
/db {2 copy /cols xdef /rows xdef mul dup string
  currentfile exch readhexstring pop
  /bmap xdef pop pop} bdef
/it {gs np dtri aload pop moveto lineto lineto cp c
  cols rows 8 compute_transform 
  {bmap} image gr}bdef
/il {newpath moveto lineto stroke}bdef
currentdict end def
%%EndProlog

%%BeginSetup
MathWorks begin

0 cap

end
%%EndSetup

%%Page: 1 1
%%BeginPageSetup
%%PageBoundingBox:    58   403   548   602
MathWorks begin
bpage
%%EndPageSetup

%%BeginObject: obj1
bplot

/dpi2point 12 def
portraitMode 0216 7344 csm

  480   110  5891  2388 MR c np
87 dict begin %Colortable dictionary
/c0 { 0.000000 0.000000 0.000000 sr} bdef
/c1 { 1.000000 1.000000 1.000000 sr} bdef
/c2 { 0.900000 0.000000 0.000000 sr} bdef
/c3 { 0.000000 0.820000 0.000000 sr} bdef
/c4 { 0.000000 0.000000 0.800000 sr} bdef
/c5 { 0.910000 0.820000 0.320000 sr} bdef
/c6 { 1.000000 0.260000 0.820000 sr} bdef
/c7 { 0.000000 0.820000 0.820000 sr} bdef
c0
1 j
1 sg
   0    0 6913 5186 PR
6 w
0 1769 2313 0 0 -1769 899 2158 4 MP
PP
-2313 0 0 1769 2313 0 0 -1769 899 2158 5 MP stroke
4 w
DO
SO
6 w
0 sg
 899 2158 mt 3212 2158 L
 899  389 mt 3212  389 L
 899 2158 mt  899  389 L
3212 2158 mt 3212  389 L
 899 2158 mt 3212 2158 L
 899 2158 mt  899  389 L
 899 2158 mt  899 2134 L
 899  389 mt  899  412 L
%%IncludeResource: font Helvetica
/Helvetica /ISOLatin1Encoding 120 FMSR

 866 2303 mt 
(0) s
1361 2158 mt 1361 2134 L
1361  389 mt 1361  412 L
1328 2303 mt 
(5) s
1824 2158 mt 1824 2134 L
1824  389 mt 1824  412 L
1758 2303 mt 
(10) s
2286 2158 mt 2286 2134 L
2286  389 mt 2286  412 L
2220 2303 mt 
(15) s
2749 2158 mt 2749 2134 L
2749  389 mt 2749  412 L
2683 2303 mt 
(20) s
3212 2158 mt 3212 2134 L
3212  389 mt 3212  412 L
3146 2303 mt 
(25) s
 899 2158 mt  922 2158 L
3212 2158 mt 3188 2158 L
 798 2202 mt 
(0) s
 899 1905 mt  922 1905 L
3212 1905 mt 3188 1905 L
 698 1949 mt 
(0.5) s
 899 1652 mt  922 1652 L
3212 1652 mt 3188 1652 L
 798 1696 mt 
(1) s
 899 1399 mt  922 1399 L
3212 1399 mt 3188 1399 L
 698 1443 mt 
(1.5) s
 899 1147 mt  922 1147 L
3212 1147 mt 3188 1147 L
 798 1191 mt 
(2) s
 899  894 mt  922  894 L
3212  894 mt 3188  894 L
 698  938 mt 
(2.5) s
 899  641 mt  922  641 L
3212  641 mt 3188  641 L
 798  685 mt 
(3) s
 899  389 mt  922  389 L
3212  389 mt 3188  389 L
 698  433 mt 
(3.5) s
 899 2158 mt 3212 2158 L
 899  389 mt 3212  389 L
 899 2158 mt  899  389 L
3212 2158 mt 3212  389 L
gs 899 389 2314 1770 MR c np
0.85 sg
46 0 47 0 46 0 47 0 46 0 47 0 46 0 47 0 
46 0 47 0 46 0 47 0 46 0 47 0 46 0 47 0 
46 0 47 0 46 0 47 0 46 0 47 0 46 0 47 0 
46 0 47 0 46 0 47 0 46 0 47 0 46 0 47 0 
46 0 46 0 47 0 46 0 47 0 46 0 47 0 46 0 
47 1 46 0 47 0 46 0 47 0 46 0 47 0 46 0 
47 0 46 0 47 0 46 0 47 0 46 0 47 0 46 0 
47 0 46 0 47 0 46 0 47 0 46 0 47 0 46 1 
47 2 46 4 47 7 46 14 47 24 46 39 47 56 46 93 
47 113 46 157 47 172 46 167 47 216 46 182 47 231 46 103 
47 77 46 76 47 -58 46 -72 47 -74 46 -125 47 -148 46 -121 
47 -88 46 -18 47 -16 46 -14 47 29 46 40 47 53 46 -7 
47 -1 46 14 46 2 899 1027 100 MP
47 0 46 0 47 0 46 0 47 0 46 0 47 0 46 0 
47 0 46 0 47 0 46 0 47 0 46 0 47 0 46 0 
47 0 46 0 47 0 46 0 47 0 46 0 47 0 46 0 
47 0 46 0 47 0 46 0 47 0 46 0 47 0 46 0 
47 0 46 0 47 0 46 0 47 0 46 0 47 0 46 0 
47 0 46 0 47 0 46 0 47 0 46 0 47 0 46 0 
47 0 46 0 47 0 46 0 47 0 46 0 47 0 46 0 
47 0 46 0 47 0 46 0 47 0 46 0 47 0 46 0 
47 0 46 0 46 0 47 0 46 0 47 0 46 0 47 0 
46 0 47 0 46 0 47 0 46 0 47 0 46 0 47 0 
46 0 47 0 46 0 47 0 46 0 47 0 46 0 47 0 
46 0 47 0 46 0 47 0 46 0 47 0 46 0 47 0 
46 0 47 0 46 0 47 0 100 AP
-46 0 -47 0 -46 0 -47 0 -46 0 -47 0 -46 0 -47 0 
-46 0 -47 0 -46 0 -47 0 -46 0 -47 0 -46 0 -47 0 
-46 0 -47 0 -46 0 -47 0 -46 0 -47 0 -46 0 -47 0 
-46 0 -47 0 -46 0 -47 0 -46 0 -47 0 -46 0 -47 0 
-46 0 -46 0 -47 0 -46 0 -47 0 -46 0 -47 0 -46 0 
-47 0 -46 0 -47 0 -46 0 -47 0 -46 0 -47 0 -46 0 
-47 0 -46 0 -47 0 -46 0 -47 0 -46 0 -47 0 -46 0 
-47 0 -46 0 -47 0 -46 0 -47 0 -46 0 -47 0 -46 0 
-47 0 -46 0 -47 0 -46 0 -47 0 -46 0 -47 0 -46 0 
-47 0 -46 0 -47 0 -46 0 -47 0 -46 0 -47 0 -46 0 
-47 0 -46 0 -47 0 -46 0 -47 0 -46 0 -47 0 -46 0 
-47 0 -46 0 -47 0 -46 0 -47 0 -46 0 -47 0 -46 0 
-47 0 -46 0 -47 0 0 0 100 AP
-46 1 -46 -6 -47 5 -46 -2 -47 -6 -46 -10 -47 -3 -46 5 
-47 -6 -46 9 -47 20 -46 24 -47 18 -46 26 -47 36 -46 16 
-47 -12 -46 -8 -47 -10 -46 -35 -47 -36 -46 -42 -47 -34 -46 -43 
-47 -32 -46 -30 -47 -26 -46 -17 -47 -13 -46 -8 -47 -5 -46 -3 
-47 -1 -46 -1 -47 0 -46 0 -47 0 -46 0 -47 0 -46 0 
-47 0 -46 0 -47 0 -46 0 -47 0 -46 0 -47 0 -46 0 
-47 0 -46 0 -47 0 -46 0 -47 0 -46 0 -47 0 -46 0 
-47 0 -46 -1 -47 0 -46 0 -47 0 -46 0 -47 0 -46 0 
-47 0 -46 0 -46 0 -47 0 -46 0 -47 0 -46 0 -47 0 
-46 0 -47 0 -46 0 -47 0 -46 0 -47 0 -46 0 -47 0 
-46 0 -47 0 -46 0 -47 0 -46 0 -47 0 -46 0 -47 0 
-46 0 -47 0 -46 0 -47 0 -46 0 -47 0 -46 0 -47 0 
-46 0 -47 0 -46 0 -47 0 100 AP
PP
0 sg
0 -901 -46 1 -46 -6 -47 5 -46 -2 -47 -6 -46 -10 -47 -3 
-46 5 -47 -6 -46 9 -47 20 -46 24 -47 18 -46 26 -47 36 
-46 16 -47 -12 -46 -8 -47 -10 -46 -35 -47 -36 -46 -42 -47 -34 
-46 -43 -47 -32 -46 -30 -47 -26 -46 -17 -47 -13 -46 -8 -47 -5 
-46 -3 -47 -1 -46 -1 -47 0 -46 0 -47 0 -46 0 -47 0 
-46 0 -47 0 -46 0 -47 0 -46 0 -47 0 -46 0 -47 0 
-46 0 -47 0 -46 0 -47 0 -46 0 -47 0 -46 0 -47 0 
-46 0 -47 0 -46 -1 -47 0 -46 0 -47 0 -46 0 -47 0 
-46 0 -47 0 -46 0 -46 0 -47 0 -46 0 -47 0 -46 0 
-47 0 -46 0 -47 0 -46 0 -47 0 -46 0 -47 0 -46 0 
-47 0 -46 0 -47 0 -46 0 -47 0 -46 0 -47 0 -46 0 
-47 0 -46 0 -47 0 -46 0 -47 0 -46 0 -47 0 -46 0 
-47 0 -46 0 -47 0 5455 2158 100 MP stroke
-46 0 -47 0 -46 0 -47 0 -46 0 -47 0 -46 0 -47 0 
-46 0 -47 0 -46 0 -47 0 -46 0 -47 0 -46 0 -47 0 
-46 0 -47 0 -46 0 -47 0 -46 0 -47 0 -46 0 -47 0 
-46 0 -47 0 -46 0 -47 0 -46 0 -47 0 -46 0 -47 0 
-46 0 -47 0 -46 0 -46 0 -47 0 -46 0 -47 0 -46 0 
-47 0 -46 0 -47 0 -46 0 -47 0 -46 0 -47 0 -46 0 
-47 0 -46 0 -47 0 -46 0 -47 0 -46 0 -47 0 -46 0 
-47 0 -46 0 -47 0 -46 0 -47 0 -46 0 -47 0 -46 0 
-47 0 -46 0 -47 0 -46 0 -47 0 -46 0 -47 0 -46 0 
-47 0 -46 0 -47 0 -46 0 -47 0 -46 0 -47 0 -46 0 
-47 0 -46 0 -47 0 -46 0 -47 0 -46 0 -47 0 -46 0 
-47 0 -46 0 -47 0 -46 0 -47 0 -46 0 -47 0 -46 0 
-47 0 -46 0 -47 0 10058 2158 100 MP stroke
-46 0 -47 0 0 0 47 0 46 0 47 0 46 0 47 0 
46 0 47 0 46 0 47 0 46 0 47 0 46 0 47 0 
46 0 47 0 46 0 47 0 46 0 47 0 46 0 47 0 
46 0 47 0 46 0 47 0 46 0 47 0 46 0 47 0 
46 0 47 0 46 0 47 0 46 0 47 0 46 0 47 0 
46 0 47 0 46 0 47 0 46 0 47 0 46 0 47 0 
46 0 47 0 46 0 47 0 46 0 47 0 46 0 47 0 
46 0 47 0 46 0 47 0 46 0 47 0 46 0 47 0 
46 0 47 0 46 0 47 0 46 0 46 0 47 0 46 0 
47 0 46 0 47 0 46 0 47 0 46 0 47 0 46 0 
47 0 46 0 47 0 46 0 47 0 46 0 47 0 46 0 
47 0 46 0 47 0 46 0 47 0 46 0 47 0 46 0 
47 0 46 0 47 0 5687 2158 100 MP stroke
46 0 47 0 46 0 47 0 46 0 47 0 46 0 47 0 
46 0 47 0 46 0 47 0 46 0 47 0 46 0 47 0 
46 0 47 0 46 0 47 0 46 0 47 0 46 0 47 0 
46 0 47 0 46 0 47 0 46 0 47 0 46 0 47 0 
46 0 47 0 46 0 47 0 46 0 46 0 47 0 46 0 
47 0 46 0 47 0 46 0 47 1 46 0 47 0 46 0 
47 0 46 0 47 0 46 0 47 0 46 0 47 0 46 0 
47 0 46 0 47 0 46 0 47 0 46 0 47 0 46 0 
47 0 46 0 47 0 46 1 47 2 46 4 47 7 46 14 
47 24 46 39 47 56 46 93 47 113 46 157 47 172 46 167 
47 216 46 182 47 231 46 103 47 77 46 76 47 -58 46 -72 
47 -74 46 -125 47 -148 46 -121 47 -88 46 -18 47 -16 46 -14 
47 29 46 40 47 53 1084 1035 100 MP stroke
46 -7 47 -1 46 14 46 2 899 1027 5 MP stroke
0.6 sg
46 0 47 0 46 0 47 0 46 0 47 0 46 0 47 0 
46 0 47 0 46 0 47 0 46 0 47 0 46 0 47 0 
46 0 47 0 46 0 47 0 46 0 47 0 46 0 47 0 
46 0 47 0 46 0 47 0 46 0 47 0 46 0 47 0 
46 0 46 0 47 0 46 0 47 0 46 0 47 0 46 0 
47 1 46 0 47 0 46 0 47 0 46 0 47 0 46 0 
47 0 46 0 47 0 46 0 47 0 46 0 47 0 46 0 
47 0 46 0 47 0 46 0 47 0 46 0 47 0 46 1 
47 1 46 3 47 5 46 10 47 18 46 29 47 44 46 64 
47 86 46 110 47 133 46 139 47 157 46 117 47 146 46 99 
47 72 46 33 47 -18 46 -60 47 -56 46 -117 47 -94 46 -75 
47 -67 46 -35 47 -4 46 -3 47 21 46 35 47 40 46 -10 
47 6 46 -3 46 -8 899 1338 100 MP
47 0 46 0 47 0 46 0 47 0 46 0 47 0 46 0 
47 0 46 0 47 0 46 0 47 0 46 0 47 0 46 0 
47 0 46 0 47 0 46 0 47 0 46 0 47 0 46 0 
47 0 46 0 47 0 46 0 47 0 46 0 47 0 46 0 
47 0 46 0 47 0 46 0 47 0 46 0 47 0 46 0 
47 0 46 0 47 0 46 0 47 0 46 0 47 0 46 0 
47 0 46 0 47 0 46 0 47 0 46 0 47 0 46 0 
47 0 46 0 47 0 46 0 47 0 46 0 47 0 46 0 
47 0 46 0 46 0 47 0 46 0 47 0 46 0 47 0 
46 0 47 0 46 0 47 0 46 0 47 0 46 0 47 0 
46 0 47 0 46 0 47 0 46 0 47 0 46 0 47 0 
46 0 47 0 46 0 47 0 46 0 47 0 46 0 47 0 
46 0 47 0 46 0 47 0 100 AP
-46 0 -47 0 -46 0 -47 0 -46 0 -47 0 -46 0 -47 0 
-46 0 -47 0 -46 0 -47 0 -46 0 -47 0 -46 0 -47 0 
-46 0 -47 0 -46 0 -47 0 -46 0 -47 0 -46 0 -47 0 
-46 0 -47 0 -46 0 -47 0 -46 0 -47 0 -46 0 -47 0 
-46 0 -46 0 -47 0 -46 0 -47 0 -46 0 -47 0 -46 0 
-47 0 -46 0 -47 0 -46 0 -47 0 -46 0 -47 0 -46 0 
-47 0 -46 0 -47 0 -46 0 -47 0 -46 0 -47 0 -46 0 
-47 0 -46 0 -47 0 -46 0 -47 0 -46 0 -47 0 -46 0 
-47 0 -46 0 -47 0 -46 0 -47 0 -46 0 -47 0 -46 0 
-47 0 -46 0 -47 0 -46 0 -47 0 -46 0 -47 0 -46 0 
-47 0 -46 0 -47 0 -46 0 -47 0 -46 0 -47 0 -46 0 
-47 0 -46 0 -47 0 -46 0 -47 0 -46 0 -47 0 -46 0 
-47 0 -46 0 -47 0 0 0 100 AP
-46 -1 -46 1 -47 2 -46 -8 -47 -7 -46 -14 -47 -11 -46 3 
-47 -1 -46 20 -47 29 -46 34 -47 37 -46 49 -47 35 -46 14 
-47 4 -46 -3 -47 -27 -46 -55 -47 -49 -46 -65 -47 -67 -46 -64 
-47 -59 -46 -48 -47 -39 -46 -28 -47 -20 -46 -13 -47 -7 -46 -5 
-47 -2 -46 -1 -47 -1 -46 0 -47 0 -46 0 -47 0 -46 0 
-47 0 -46 0 -47 0 -46 0 -47 0 -46 0 -47 0 -46 0 
-47 0 -46 0 -47 0 -46 0 -47 0 -46 0 -47 0 -46 0 
-47 0 -46 -1 -47 0 -46 0 -47 0 -46 0 -47 0 -46 0 
-47 0 -46 0 -46 0 -47 0 -46 0 -47 0 -46 0 -47 0 
-46 0 -47 0 -46 0 -47 0 -46 0 -47 0 -46 0 -47 0 
-46 0 -47 0 -46 0 -47 0 -46 0 -47 0 -46 0 -47 0 
-46 0 -47 0 -46 0 -47 0 -46 0 -47 0 -46 0 -47 0 
-46 0 -47 0 -46 0 -47 0 100 AP
PP
0 sg
0 -452 -46 -1 -46 1 -47 2 -46 -8 -47 -7 -46 -14 -47 -11 
-46 3 -47 -1 -46 20 -47 29 -46 34 -47 37 -46 49 -47 35 
-46 14 -47 4 -46 -3 -47 -27 -46 -55 -47 -49 -46 -65 -47 -67 
-46 -64 -47 -59 -46 -48 -47 -39 -46 -28 -47 -20 -46 -13 -47 -7 
-46 -5 -47 -2 -46 -1 -47 -1 -46 0 -47 0 -46 0 -47 0 
-46 0 -47 0 -46 0 -47 0 -46 0 -47 0 -46 0 -47 0 
-46 0 -47 0 -46 0 -47 0 -46 0 -47 0 -46 0 -47 0 
-46 0 -47 0 -46 -1 -47 0 -46 0 -47 0 -46 0 -47 0 
-46 0 -47 0 -46 0 -46 0 -47 0 -46 0 -47 0 -46 0 
-47 0 -46 0 -47 0 -46 0 -47 0 -46 0 -47 0 -46 0 
-47 0 -46 0 -47 0 -46 0 -47 0 -46 0 -47 0 -46 0 
-47 0 -46 0 -47 0 -46 0 -47 0 -46 0 -47 0 -46 0 
-47 0 -46 0 -47 0 5455 2158 100 MP stroke
-46 0 -47 0 -46 0 -47 0 -46 0 -47 0 -46 0 -47 0 
-46 0 -47 0 -46 0 -47 0 -46 0 -47 0 -46 0 -47 0 
-46 0 -47 0 -46 0 -47 0 -46 0 -47 0 -46 0 -47 0 
-46 0 -47 0 -46 0 -47 0 -46 0 -47 0 -46 0 -47 0 
-46 0 -47 0 -46 0 -46 0 -47 0 -46 0 -47 0 -46 0 
-47 0 -46 0 -47 0 -46 0 -47 0 -46 0 -47 0 -46 0 
-47 0 -46 0 -47 0 -46 0 -47 0 -46 0 -47 0 -46 0 
-47 0 -46 0 -47 0 -46 0 -47 0 -46 0 -47 0 -46 0 
-47 0 -46 0 -47 0 -46 0 -47 0 -46 0 -47 0 -46 0 
-47 0 -46 0 -47 0 -46 0 -47 0 -46 0 -47 0 -46 0 
-47 0 -46 0 -47 0 -46 0 -47 0 -46 0 -47 0 -46 0 
-47 0 -46 0 -47 0 -46 0 -47 0 -46 0 -47 0 -46 0 
-47 0 -46 0 -47 0 10058 2158 100 MP stroke
-46 0 -47 0 0 0 47 0 46 0 47 0 46 0 47 0 
46 0 47 0 46 0 47 0 46 0 47 0 46 0 47 0 
46 0 47 0 46 0 47 0 46 0 47 0 46 0 47 0 
46 0 47 0 46 0 47 0 46 0 47 0 46 0 47 0 
46 0 47 0 46 0 47 0 46 0 47 0 46 0 47 0 
46 0 47 0 46 0 47 0 46 0 47 0 46 0 47 0 
46 0 47 0 46 0 47 0 46 0 47 0 46 0 47 0 
46 0 47 0 46 0 47 0 46 0 47 0 46 0 47 0 
46 0 47 0 46 0 47 0 46 0 46 0 47 0 46 0 
47 0 46 0 47 0 46 0 47 0 46 0 47 0 46 0 
47 0 46 0 47 0 46 0 47 0 46 0 47 0 46 0 
47 0 46 0 47 0 46 0 47 0 46 0 47 0 46 0 
47 0 46 0 47 0 5687 2158 100 MP stroke
46 0 47 0 46 0 47 0 46 0 47 0 46 0 47 0 
46 0 47 0 46 0 47 0 46 0 47 0 46 0 47 0 
46 0 47 0 46 0 47 0 46 0 47 0 46 0 47 0 
46 0 47 0 46 0 47 0 46 0 47 0 46 0 47 0 
46 0 47 0 46 0 47 0 46 0 46 0 47 0 46 0 
47 0 46 0 47 0 46 0 47 1 46 0 47 0 46 0 
47 0 46 0 47 0 46 0 47 0 46 0 47 0 46 0 
47 0 46 0 47 0 46 0 47 0 46 0 47 0 46 0 
47 0 46 0 47 0 46 1 47 1 46 3 47 5 46 10 
47 18 46 29 47 44 46 64 47 86 46 110 47 133 46 139 
47 157 46 117 47 146 46 99 47 72 46 33 47 -18 46 -60 
47 -56 46 -117 47 -94 46 -75 47 -67 46 -35 47 -4 46 -3 
47 21 46 35 47 40 1084 1323 100 MP stroke
46 -10 47 6 46 -3 46 -8 899 1338 5 MP stroke
24 w
36 0 47 0 46 0 47 0 46 0 47 0 46 0 47 0 
46 0 47 0 46 0 47 0 46 0 47 0 46 0 47 1 
46 2 47 4 46 6 47 12 46 19 47 29 46 43 47 57 
46 75 47 87 46 92 47 103 46 86 47 96 46 64 47 40 
46 16 47 -6 46 -32 47 -46 46 -70 47 -61 46 -51 47 -46 
46 -22 47 -5 46 0 47 13 46 23 47 13 46 7 47 -1 
46 1 46 -3 899 1611 51 MP stroke
6 w
gr

gs 778 1531 2335 749 MR c np
0 j
0 -94 -94 0 0 94 94 0 852 1605 5 MP
gs
PP
gr
DP
0 -94 -94 0 0 94 94 0 1084 2011 5 MP
gs
PP
gr
DP
0 -94 -94 0 0 94 94 0 1316 1968 5 MP
gs
PP
gr
DP
0 -94 -94 0 0 94 94 0 1549 1783 5 MP
gs
PP
gr
DP
0 -94 -94 0 0 94 94 0 1781 1749 5 MP
gs
PP
gr
DP
0 -94 -94 0 0 94 94 0 2014 1950 5 MP
gs
PP
gr
DP
0 -94 -94 0 0 94 94 0 2246 2092 5 MP
gs
PP
gr
DP
0 -94 -94 0 0 94 94 0 2479 2110 5 MP
gs
PP
gr
DP
0 -94 -94 0 0 94 94 0 2711 2111 5 MP
gs
PP
gr
DP
0 -94 -94 0 0 94 94 0 2944 2111 5 MP
gs
PP
gr
DP
gr

gs 899 389 2314 1770 MR c np
gr

1410 2446 mt 
(distance from the center) s
 616 1656 mt  -90 rotate
(hyphal density) s
90 rotate
1283  294 mt 
(YH: hyphal density prediction) s
 882 2201 mt 
( ) s
3196  431 mt 
( ) s
1 sg
0 626 899 0 0 -626 2253 1075 4 MP
PP
-899 0 0 626 899 0 0 -626 2253 1075 5 MP stroke
4 w
DO
SO
6 w
0 sg
2253 1075 mt 3152 1075 L
2253  449 mt 3152  449 L
2253 1075 mt 2253  449 L
3152 1075 mt 3152  449 L
2253 1075 mt 3152 1075 L
2253 1075 mt 2253  449 L
2253 1075 mt 3152 1075 L
2253  449 mt 3152  449 L
2253 1075 mt 2253  449 L
3152 1075 mt 3152  449 L
2712  581 mt 
(95% CI) s
gs 2253 449 900 627 MR c np
0.85 sg
0 111 353 0 0 -111 2323 594 4 MP
PP
0 sg
-353 0 0 111 353 0 0 -111 2323 594 5 MP stroke
gr

2712  730 mt 
(68% CI) s
gs 2253 449 900 627 MR c np
0.6 sg
0 111 353 0 0 -111 2323 743 4 MP
PP
0 sg
-353 0 0 111 353 0 0 -111 2323 743 5 MP stroke
gr

2712  879 mt 
(mean) s
gs 2253 449 900 627 MR c np
24 w
353 0 2323 836 2 MP stroke
gr

24 w
2712 1028 mt 
(data) s
gs 2253 449 900 627 MR c np
6 w
gr

6 w
gs 2379 863 243 243 MR c np
0 j
0 -94 -94 0 0 94 94 0 2453 937 5 MP
gs
PP
gr
DP
gr

gs 2253 449 900 627 MR c np
gr

1 sg
0 1769 2313 0 0 -1769 3942 2158 4 MP
PP
-2313 0 0 1769 2313 0 0 -1769 3942 2158 5 MP stroke
4 w
DO
SO
6 w
0 sg
3942 2158 mt 6255 2158 L
3942  389 mt 6255  389 L
3942 2158 mt 3942  389 L
6255 2158 mt 6255  389 L
3942 2158 mt 6255 2158 L
3942 2158 mt 3942  389 L
3942 2158 mt 3942 2134 L
3942  389 mt 3942  412 L
3909 2303 mt 
(0) s
4404 2158 mt 4404 2134 L
4404  389 mt 4404  412 L
4371 2303 mt 
(5) s
4867 2158 mt 4867 2134 L
4867  389 mt 4867  412 L
4801 2303 mt 
(10) s
5329 2158 mt 5329 2134 L
5329  389 mt 5329  412 L
5263 2303 mt 
(15) s
5792 2158 mt 5792 2134 L
5792  389 mt 5792  412 L
5726 2303 mt 
(20) s
6255 2158 mt 6255 2134 L
6255  389 mt 6255  412 L
6189 2303 mt 
(25) s
3942 2158 mt 3965 2158 L
6255 2158 mt 6231 2158 L
3841 2202 mt 
(0) s
3942 1804 mt 3965 1804 L
6255 1804 mt 6231 1804 L
3741 1848 mt 
(0.1) s
3942 1450 mt 3965 1450 L
6255 1450 mt 6231 1450 L
3741 1494 mt 
(0.2) s
3942 1096 mt 3965 1096 L
6255 1096 mt 6231 1096 L
3741 1140 mt 
(0.3) s
3942  742 mt 3965  742 L
6255  742 mt 6231  742 L
3741  786 mt 
(0.4) s
3942  389 mt 3965  389 L
6255  389 mt 6231  389 L
3741  433 mt 
(0.5) s
3942 2158 mt 6255 2158 L
3942  389 mt 6255  389 L
3942 2158 mt 3942  389 L
6255 2158 mt 6255  389 L
gs 3942 389 2314 1770 MR c np
0.85 sg
46 0 47 0 46 0 47 0 46 0 47 0 46 0 47 0 
46 0 47 0 46 0 47 0 46 0 47 0 46 0 47 0 
46 0 47 0 46 0 47 0 46 0 47 0 46 0 47 0 
46 0 47 0 46 0 47 0 46 0 47 0 46 0 47 0 
46 0 46 0 47 0 46 0 47 0 46 0 47 1 46 0 
47 0 46 0 47 0 46 0 47 0 46 0 47 0 46 0 
47 0 46 0 47 0 46 0 47 0 46 0 47 0 46 0 
47 0 46 0 47 0 46 0 47 0 46 1 47 3 46 5 
47 10 46 20 47 35 46 58 47 93 46 134 47 181 46 219 
47 233 46 223 47 166 46 88 47 1 46 -77 47 -134 46 -166 
47 -183 46 -180 47 -170 46 -154 47 -132 46 -103 47 -74 46 -48 
47 -27 46 -13 47 -6 46 -3 47 -1 46 0 47 0 46 0 
47 1 46 0 46 -1 3942 2158 100 MP
47 0 46 0 47 0 46 0 47 0 46 0 47 0 46 0 
47 0 46 0 47 0 46 0 47 0 46 0 47 0 46 0 
47 0 46 0 47 0 46 0 47 0 46 0 47 0 46 0 
47 0 46 0 47 0 46 0 47 0 46 0 47 0 46 0 
47 0 46 0 47 0 46 0 47 0 46 0 47 0 46 0 
47 0 46 0 47 0 46 0 47 0 46 0 47 0 46 0 
47 0 46 0 47 0 46 0 47 0 46 0 47 0 46 0 
47 0 46 0 47 0 46 0 47 0 46 0 47 0 46 0 
47 0 46 0 46 0 47 0 46 0 47 0 46 0 47 0 
46 0 47 0 46 0 47 0 46 0 47 0 46 0 47 0 
46 0 47 0 46 0 47 0 46 0 47 0 46 0 47 0 
46 0 47 0 46 0 47 0 46 0 47 0 46 0 47 0 
46 0 47 0 46 0 47 0 100 AP
-46 0 -47 0 -46 0 -47 0 -46 0 -47 0 -46 0 -47 0 
-46 0 -47 0 -46 0 -47 0 -46 0 -47 0 -46 0 -47 0 
-46 0 -47 0 -46 0 -47 0 -46 0 -47 0 -46 0 -47 0 
-46 0 -47 0 -46 0 -47 0 -46 0 -47 0 -46 0 -47 0 
-46 0 -46 0 -47 0 -46 0 -47 0 -46 0 -47 0 -46 0 
-47 0 -46 0 -47 0 -46 0 -47 0 -46 0 -47 0 -46 0 
-47 0 -46 0 -47 0 -46 0 -47 0 -46 0 -47 0 -46 0 
-47 0 -46 0 -47 0 -46 0 -47 0 -46 0 -47 0 -46 0 
-47 0 -46 0 -47 0 -46 0 -47 0 -46 0 -47 0 -46 0 
-47 0 -46 0 -47 0 -46 0 -47 0 -46 0 -47 0 -46 0 
-47 0 -46 0 -47 0 -46 0 -47 0 -46 0 -47 0 -46 0 
-47 0 -46 0 -47 0 -46 0 -47 0 -46 0 -47 0 -46 0 
-47 0 -46 0 -47 0 0 0 100 AP
-46 1 -46 0 -47 -1 -46 0 -47 0 -46 0 -47 1 -46 2 
-47 6 -46 12 -47 24 -46 43 -47 67 -46 93 -47 119 -46 137 
-47 151 -46 161 -47 165 -46 154 -47 126 -46 75 -47 2 -46 -81 
-47 -156 -46 -200 -47 -217 -46 -196 -47 -164 -46 -121 -47 -83 -46 -53 
-47 -31 -46 -18 -47 -9 -46 -5 -47 -2 -46 -1 -47 0 -46 0 
-47 0 -46 0 -47 0 -46 0 -47 0 -46 0 -47 0 -46 0 
-47 0 -46 0 -47 0 -46 0 -47 0 -46 0 -47 0 -46 0 
-47 0 -46 0 -47 0 -46 -1 -47 0 -46 0 -47 0 -46 0 
-47 0 -46 0 -46 0 -47 0 -46 0 -47 0 -46 0 -47 0 
-46 0 -47 0 -46 0 -47 0 -46 0 -47 0 -46 0 -47 0 
-46 0 -47 0 -46 0 -47 0 -46 0 -47 0 -46 0 -47 0 
-46 0 -47 0 -46 0 -47 0 -46 0 -47 0 -46 0 -47 0 
-46 0 -47 0 -46 0 -47 0 100 AP
PP
0 sg
0 0 -46 1 -46 0 -47 -1 -46 0 -47 0 -46 0 -47 1 
-46 2 -47 6 -46 12 -47 24 -46 43 -47 67 -46 93 -47 119 
-46 137 -47 151 -46 161 -47 165 -46 154 -47 126 -46 75 -47 2 
-46 -81 -47 -156 -46 -200 -47 -217 -46 -196 -47 -164 -46 -121 -47 -83 
-46 -53 -47 -31 -46 -18 -47 -9 -46 -5 -47 -2 -46 -1 -47 0 
-46 0 -47 0 -46 0 -47 0 -46 0 -47 0 -46 0 -47 0 
-46 0 -47 0 -46 0 -47 0 -46 0 -47 0 -46 0 -47 0 
-46 0 -47 0 -46 0 -47 0 -46 -1 -47 0 -46 0 -47 0 
-46 0 -47 0 -46 0 -46 0 -47 0 -46 0 -47 0 -46 0 
-47 0 -46 0 -47 0 -46 0 -47 0 -46 0 -47 0 -46 0 
-47 0 -46 0 -47 0 -46 0 -47 0 -46 0 -47 0 -46 0 
-47 0 -46 0 -47 0 -46 0 -47 0 -46 0 -47 0 -46 0 
-47 0 -46 0 -47 0 8498 2158 100 MP stroke
-46 0 -47 0 -46 0 -47 0 -46 0 -47 0 -46 0 -47 0 
-46 0 -47 0 -46 0 -47 0 -46 0 -47 0 -46 0 -47 0 
-46 0 -47 0 -46 0 -47 0 -46 0 -47 0 -46 0 -47 0 
-46 0 -47 0 -46 0 -47 0 -46 0 -47 0 -46 0 -47 0 
-46 0 -47 0 -46 0 -46 0 -47 0 -46 0 -47 0 -46 0 
-47 0 -46 0 -47 0 -46 0 -47 0 -46 0 -47 0 -46 0 
-47 0 -46 0 -47 0 -46 0 -47 0 -46 0 -47 0 -46 0 
-47 0 -46 0 -47 0 -46 0 -47 0 -46 0 -47 0 -46 0 
-47 0 -46 0 -47 0 -46 0 -47 0 -46 0 -47 0 -46 0 
-47 0 -46 0 -47 0 -46 0 -47 0 -46 0 -47 0 -46 0 
-47 0 -46 0 -47 0 -46 0 -47 0 -46 0 -47 0 -46 0 
-47 0 -46 0 -47 0 -46 0 -47 0 -46 0 -47 0 -46 0 
-47 0 -46 0 -47 0 13101 2158 100 MP stroke
-46 0 -47 0 0 0 47 0 46 0 47 0 46 0 47 0 
46 0 47 0 46 0 47 0 46 0 47 0 46 0 47 0 
46 0 47 0 46 0 47 0 46 0 47 0 46 0 47 0 
46 0 47 0 46 0 47 0 46 0 47 0 46 0 47 0 
46 0 47 0 46 0 47 0 46 0 47 0 46 0 47 0 
46 0 47 0 46 0 47 0 46 0 47 0 46 0 47 0 
46 0 47 0 46 0 47 0 46 0 47 0 46 0 47 0 
46 0 47 0 46 0 47 0 46 0 47 0 46 0 47 0 
46 0 47 0 46 0 47 0 46 0 46 0 47 0 46 0 
47 0 46 0 47 0 46 0 47 0 46 0 47 0 46 0 
47 0 46 0 47 0 46 0 47 0 46 0 47 0 46 0 
47 0 46 0 47 0 46 0 47 0 46 0 47 0 46 0 
47 0 46 0 47 0 8730 2158 100 MP stroke
46 0 47 0 46 0 47 0 46 0 47 0 46 0 47 0 
46 0 47 0 46 0 47 0 46 0 47 0 46 0 47 0 
46 0 47 0 46 0 47 0 46 0 47 0 46 0 47 0 
46 0 47 0 46 0 47 0 46 0 47 0 46 0 47 0 
46 0 47 0 46 0 47 0 46 0 46 0 47 0 46 0 
47 0 46 0 47 1 46 0 47 0 46 0 47 0 46 0 
47 0 46 0 47 0 46 0 47 0 46 0 47 0 46 0 
47 0 46 0 47 0 46 0 47 0 46 0 47 0 46 0 
47 0 46 1 47 3 46 5 47 10 46 20 47 35 46 58 
47 93 46 134 47 181 46 219 47 233 46 223 47 166 46 88 
47 1 46 -77 47 -134 46 -166 47 -183 46 -180 47 -170 46 -154 
47 -132 46 -103 47 -74 46 -48 47 -27 46 -13 47 -6 46 -3 
47 -1 46 0 47 0 4127 2158 100 MP stroke
46 0 47 1 46 0 46 -1 3942 2158 5 MP stroke
0.6 sg
46 0 47 0 46 0 47 0 46 0 47 0 46 0 47 0 
46 0 47 0 46 0 47 0 46 0 47 0 46 0 47 0 
46 0 47 0 46 0 47 0 46 0 47 0 46 0 47 0 
46 0 47 0 46 0 47 0 46 0 47 0 46 0 47 0 
46 0 46 0 47 0 46 0 47 0 46 0 47 0 46 1 
47 0 46 0 47 0 46 0 47 0 46 0 47 0 46 0 
47 0 46 0 47 0 46 0 47 0 46 0 47 0 46 0 
47 0 46 0 47 0 46 0 47 0 46 1 47 3 46 5 
47 10 46 19 47 34 46 58 47 90 46 132 47 177 46 215 
47 231 46 218 47 164 46 85 47 0 46 -76 47 -131 46 -165 
47 -178 46 -176 47 -168 46 -150 47 -129 46 -102 47 -72 46 -47 
47 -26 46 -13 47 -6 46 -3 47 -1 46 0 47 0 46 0 
47 1 46 0 46 -1 3942 2158 100 MP
47 0 46 0 47 0 46 0 47 0 46 0 47 0 46 0 
47 0 46 0 47 0 46 0 47 0 46 0 47 0 46 0 
47 0 46 0 47 0 46 0 47 0 46 0 47 0 46 0 
47 0 46 0 47 0 46 0 47 0 46 0 47 0 46 0 
47 0 46 0 47 0 46 0 47 0 46 0 47 0 46 0 
47 0 46 0 47 0 46 0 47 0 46 0 47 0 46 0 
47 0 46 0 47 0 46 0 47 0 46 0 47 0 46 0 
47 0 46 0 47 0 46 0 47 0 46 0 47 0 46 0 
47 0 46 0 46 0 47 0 46 0 47 0 46 0 47 0 
46 0 47 0 46 0 47 0 46 0 47 0 46 0 47 0 
46 0 47 0 46 0 47 0 46 0 47 0 46 0 47 0 
46 0 47 0 46 0 47 0 46 0 47 0 46 0 47 0 
46 0 47 0 46 0 47 0 100 AP
-46 0 -47 0 -46 0 -47 0 -46 0 -47 0 -46 0 -47 0 
-46 0 -47 0 -46 0 -47 0 -46 0 -47 0 -46 0 -47 0 
-46 0 -47 0 -46 0 -47 0 -46 0 -47 0 -46 0 -47 0 
-46 0 -47 0 -46 0 -47 0 -46 0 -47 0 -46 0 -47 0 
-46 0 -46 0 -47 0 -46 0 -47 0 -46 0 -47 0 -46 0 
-47 0 -46 0 -47 0 -46 0 -47 0 -46 0 -47 0 -46 0 
-47 0 -46 0 -47 0 -46 0 -47 0 -46 0 -47 0 -46 0 
-47 0 -46 0 -47 0 -46 0 -47 0 -46 0 -47 0 -46 0 
-47 0 -46 0 -47 0 -46 0 -47 0 -46 0 -47 0 -46 0 
-47 0 -46 0 -47 0 -46 0 -47 0 -46 0 -47 0 -46 0 
-47 0 -46 0 -47 0 -46 0 -47 0 -46 0 -47 0 -46 0 
-47 0 -46 0 -47 0 -46 0 -47 0 -46 0 -47 0 -46 0 
-47 0 -46 0 -47 0 0 0 100 AP
-46 1 -46 0 -47 -1 -46 0 -47 0 -46 0 -47 1 -46 3 
-47 5 -46 13 -47 25 -46 44 -47 69 -46 96 -47 122 -46 142 
-47 158 -46 166 -47 170 -46 158 -47 127 -46 75 -47 3 -46 -85 
-47 -157 -46 -207 -47 -222 -46 -204 -47 -167 -46 -125 -47 -86 -46 -54 
-47 -33 -46 -18 -47 -10 -46 -4 -47 -3 -46 -1 -47 0 -46 0 
-47 0 -46 0 -47 0 -46 0 -47 0 -46 0 -47 0 -46 0 
-47 0 -46 0 -47 0 -46 0 -47 0 -46 0 -47 0 -46 0 
-47 0 -46 0 -47 0 -46 -1 -47 0 -46 0 -47 0 -46 0 
-47 0 -46 0 -46 0 -47 0 -46 0 -47 0 -46 0 -47 0 
-46 0 -47 0 -46 0 -47 0 -46 0 -47 0 -46 0 -47 0 
-46 0 -47 0 -46 0 -47 0 -46 0 -47 0 -46 0 -47 0 
-46 0 -47 0 -46 0 -47 0 -46 0 -47 0 -46 0 -47 0 
-46 0 -47 0 -46 0 -47 0 100 AP
PP
0 sg
0 0 -46 1 -46 0 -47 -1 -46 0 -47 0 -46 0 -47 1 
-46 3 -47 5 -46 13 -47 25 -46 44 -47 69 -46 96 -47 122 
-46 142 -47 158 -46 166 -47 170 -46 158 -47 127 -46 75 -47 3 
-46 -85 -47 -157 -46 -207 -47 -222 -46 -204 -47 -167 -46 -125 -47 -86 
-46 -54 -47 -33 -46 -18 -47 -10 -46 -4 -47 -3 -46 -1 -47 0 
-46 0 -47 0 -46 0 -47 0 -46 0 -47 0 -46 0 -47 0 
-46 0 -47 0 -46 0 -47 0 -46 0 -47 0 -46 0 -47 0 
-46 0 -47 0 -46 0 -47 0 -46 -1 -47 0 -46 0 -47 0 
-46 0 -47 0 -46 0 -46 0 -47 0 -46 0 -47 0 -46 0 
-47 0 -46 0 -47 0 -46 0 -47 0 -46 0 -47 0 -46 0 
-47 0 -46 0 -47 0 -46 0 -47 0 -46 0 -47 0 -46 0 
-47 0 -46 0 -47 0 -46 0 -47 0 -46 0 -47 0 -46 0 
-47 0 -46 0 -47 0 8498 2158 100 MP stroke
-46 0 -47 0 -46 0 -47 0 -46 0 -47 0 -46 0 -47 0 
-46 0 -47 0 -46 0 -47 0 -46 0 -47 0 -46 0 -47 0 
-46 0 -47 0 -46 0 -47 0 -46 0 -47 0 -46 0 -47 0 
-46 0 -47 0 -46 0 -47 0 -46 0 -47 0 -46 0 -47 0 
-46 0 -47 0 -46 0 -46 0 -47 0 -46 0 -47 0 -46 0 
-47 0 -46 0 -47 0 -46 0 -47 0 -46 0 -47 0 -46 0 
-47 0 -46 0 -47 0 -46 0 -47 0 -46 0 -47 0 -46 0 
-47 0 -46 0 -47 0 -46 0 -47 0 -46 0 -47 0 -46 0 
-47 0 -46 0 -47 0 -46 0 -47 0 -46 0 -47 0 -46 0 
-47 0 -46 0 -47 0 -46 0 -47 0 -46 0 -47 0 -46 0 
-47 0 -46 0 -47 0 -46 0 -47 0 -46 0 -47 0 -46 0 
-47 0 -46 0 -47 0 -46 0 -47 0 -46 0 -47 0 -46 0 
-47 0 -46 0 -47 0 13101 2158 100 MP stroke
-46 0 -47 0 0 0 47 0 46 0 47 0 46 0 47 0 
46 0 47 0 46 0 47 0 46 0 47 0 46 0 47 0 
46 0 47 0 46 0 47 0 46 0 47 0 46 0 47 0 
46 0 47 0 46 0 47 0 46 0 47 0 46 0 47 0 
46 0 47 0 46 0 47 0 46 0 47 0 46 0 47 0 
46 0 47 0 46 0 47 0 46 0 47 0 46 0 47 0 
46 0 47 0 46 0 47 0 46 0 47 0 46 0 47 0 
46 0 47 0 46 0 47 0 46 0 47 0 46 0 47 0 
46 0 47 0 46 0 47 0 46 0 46 0 47 0 46 0 
47 0 46 0 47 0 46 0 47 0 46 0 47 0 46 0 
47 0 46 0 47 0 46 0 47 0 46 0 47 0 46 0 
47 0 46 0 47 0 46 0 47 0 46 0 47 0 46 0 
47 0 46 0 47 0 8730 2158 100 MP stroke
46 0 47 0 46 0 47 0 46 0 47 0 46 0 47 0 
46 0 47 0 46 0 47 0 46 0 47 0 46 0 47 0 
46 0 47 0 46 0 47 0 46 0 47 0 46 0 47 0 
46 0 47 0 46 0 47 0 46 0 47 0 46 0 47 0 
46 0 47 0 46 0 47 0 46 0 46 0 47 0 46 0 
47 0 46 0 47 0 46 1 47 0 46 0 47 0 46 0 
47 0 46 0 47 0 46 0 47 0 46 0 47 0 46 0 
47 0 46 0 47 0 46 0 47 0 46 0 47 0 46 0 
47 0 46 1 47 3 46 5 47 10 46 19 47 34 46 58 
47 90 46 132 47 177 46 215 47 231 46 218 47 164 46 85 
47 0 46 -76 47 -131 46 -165 47 -178 46 -176 47 -168 46 -150 
47 -129 46 -102 47 -72 46 -47 47 -26 46 -13 47 -6 46 -3 
47 -1 46 0 47 0 4127 2158 100 MP stroke
46 0 47 1 46 0 46 -1 3942 2158 5 MP stroke
24 w
36 0 47 0 46 0 47 0 46 0 47 0 46 0 47 0 
46 0 47 0 46 0 47 0 46 1 47 3 46 5 47 9 
46 19 47 33 46 56 47 87 46 128 47 171 46 208 47 226 
46 211 47 160 46 85 47 -2 46 -75 47 -129 46 -160 47 -173 
46 -171 47 -161 46 -146 47 -125 46 -98 47 -70 46 -45 47 -26 
46 -13 47 -5 46 -3 47 -1 46 0 47 0 46 0 47 1 
46 0 46 -1 3942 2158 51 MP stroke
6 w
gr

gs 3821 914 2335 1366 MR c np
0 j
0 -94 -94 0 0 94 94 0 3895 2111 5 MP
gs
PP
gr
DP
0 -94 -94 0 0 94 94 0 4127 2111 5 MP
gs
PP
gr
DP
0 -94 -94 0 0 94 94 0 4359 2089 5 MP
gs
PP
gr
DP
0 -94 -94 0 0 94 94 0 4592 1702 5 MP
gs
PP
gr
DP
0 -94 -94 0 0 94 94 0 4824 988 5 MP
gs
PP
gr
DP
0 -94 -94 0 0 94 94 0 5057 995 5 MP
gs
PP
gr
DP
0 -94 -94 0 0 94 94 0 5289 1895 5 MP
gs
PP
gr
DP
0 -94 -94 0 0 94 94 0 5522 2101 5 MP
gs
PP
gr
DP
0 -94 -94 0 0 94 94 0 5754 2111 5 MP
gs
PP
gr
DP
0 -94 -94 0 0 94 94 0 5987 2111 5 MP
gs
PP
gr
DP
gr

gs 3942 389 2314 1770 MR c np
gr

4453 2446 mt 
(distance from the center) s
3659 1544 mt  -90 rotate
(tip density) s
90 rotate
4437  294 mt 
(YH: tip density prediction) s
3925 2201 mt 
( ) s
6239  431 mt 
( ) s
1 sg
0 626 899 0 0 -626 5296 1075 4 MP
PP
-899 0 0 626 899 0 0 -626 5296 1075 5 MP stroke
4 w
DO
SO
6 w
0 sg
5296 1075 mt 6195 1075 L
5296  449 mt 6195  449 L
5296 1075 mt 5296  449 L
6195 1075 mt 6195  449 L
5296 1075 mt 6195 1075 L
5296 1075 mt 5296  449 L
5296 1075 mt 6195 1075 L
5296  449 mt 6195  449 L
5296 1075 mt 5296  449 L
6195 1075 mt 6195  449 L
5755  581 mt 
(95% CI) s
gs 5296 449 900 627 MR c np
0.85 sg
0 111 353 0 0 -111 5366 594 4 MP
PP
0 sg
-353 0 0 111 353 0 0 -111 5366 594 5 MP stroke
gr

5755  730 mt 
(68% CI) s
gs 5296 449 900 627 MR c np
0.6 sg
0 111 353 0 0 -111 5366 743 4 MP
PP
0 sg
-353 0 0 111 353 0 0 -111 5366 743 5 MP stroke
gr

5755  879 mt 
(mean) s
gs 5296 449 900 627 MR c np
24 w
353 0 5366 836 2 MP stroke
gr

24 w
5755 1028 mt 
(data) s
gs 5296 449 900 627 MR c np
6 w
gr

6 w
gs 5422 863 243 243 MR c np
0 j
0 -94 -94 0 0 94 94 0 5496 937 5 MP
gs
PP
gr
DP
gr

gs 5296 449 900 627 MR c np
gr


end %%Color Dict

eplot
%%EndObject

epage
end

showpage

%%Trailer
%%EOF
