%!PS-Adobe-2.0 EPSF-1.2
%%Creator: MATLAB, The MathWorks, Inc. Version 8.1.0.604 (R2013a). Operating System: Linux 3.13.0-40-generic #69-Ubuntu SMP Thu Nov 13 17:53:56 UTC 2014 x86_64.
%%Title: /home/xiaolin/Documents/model_selection/model_selection_log003new/YFH/data_figures/prediction.eps
%%CreationDate: 10/25/2015  06:59:49
%%DocumentNeededFonts: Helvetica
%%DocumentProcessColors: Cyan Magenta Yellow Black
%%Pages: 1
%%BoundingBox:    58   403   548   602
%%EndComments

%%BeginProlog
% MathWorks dictionary
/MathWorks 160 dict begin
% definition operators
/bdef {bind def} bind def
/ldef {load def} bind def
/xdef {exch def} bdef
/xstore {exch store} bdef
% operator abbreviations
/c  /clip ldef
/cc /concat ldef
/cp /closepath ldef
/gr /grestore ldef
/gs /gsave ldef
/mt /moveto ldef
/np /newpath ldef
/cm /currentmatrix ldef
/sm /setmatrix ldef
/rm /rmoveto ldef
/rl /rlineto ldef
/s {show newpath} bdef
/sc {setcmykcolor} bdef
/sr /setrgbcolor ldef
/sg /setgray ldef
/w /setlinewidth ldef
/j /setlinejoin ldef
/cap /setlinecap ldef
/rc {rectclip} bdef
/rf {rectfill} bdef
% page state control
/pgsv () def
/bpage {/pgsv save def} bdef
/epage {pgsv restore} bdef
/bplot /gsave ldef
/eplot {stroke grestore} bdef
% orientation switch
/portraitMode 0 def /landscapeMode 1 def /rotateMode 2 def
% coordinate system mappings
/dpi2point 0 def
% font control
/FontSize 0 def
/FMS {/FontSize xstore findfont [FontSize 0 0 FontSize neg 0 0]
  makefont setfont} bdef
/reencode {exch dup where {pop load} {pop StandardEncoding} ifelse
  exch dup 3 1 roll findfont dup length dict begin
  { 1 index /FID ne {def}{pop pop} ifelse } forall
  /Encoding exch def currentdict end definefont pop} bdef
/isroman {findfont /CharStrings get /Agrave known} bdef
/FMSR {3 1 roll 1 index dup isroman {reencode} {pop pop} ifelse
  exch FMS} bdef
/csm {1 dpi2point div -1 dpi2point div scale neg translate
 dup landscapeMode eq {pop -90 rotate}
  {rotateMode eq {90 rotate} if} ifelse} bdef
% line types: solid, dotted, dashed, dotdash
/SO { [] 0 setdash } bdef
/DO { [.5 dpi2point mul 4 dpi2point mul] 0 setdash } bdef
/DA { [6 dpi2point mul] 0 setdash } bdef
/DD { [.5 dpi2point mul 4 dpi2point mul 6 dpi2point mul 4
  dpi2point mul] 0 setdash } bdef
% macros for lines and objects
/L {lineto stroke} bdef
/MP {3 1 roll moveto 1 sub {rlineto} repeat} bdef
/AP {{rlineto} repeat} bdef
/PDlw -1 def
/W {/PDlw currentlinewidth def setlinewidth} def
/PP {closepath eofill} bdef
/DP {closepath stroke} bdef
/MR {4 -2 roll moveto dup  0 exch rlineto exch 0 rlineto
  neg 0 exch rlineto closepath} bdef
/FR {MR stroke} bdef
/PR {MR fill} bdef
/L1i {{currentfile picstr readhexstring pop} image} bdef
/tMatrix matrix def
/MakeOval {newpath tMatrix currentmatrix pop translate scale
0 0 1 0 360 arc tMatrix setmatrix} bdef
/FO {MakeOval stroke} bdef
/PO {MakeOval fill} bdef
/PD {currentlinewidth 2 div 0 360 arc fill
   PDlw -1 eq not {PDlw w /PDlw -1 def} if} def
/FA {newpath tMatrix currentmatrix pop translate scale
  0 0 1 5 -2 roll arc tMatrix setmatrix stroke} bdef
/PA {newpath tMatrix currentmatrix pop	translate 0 0 moveto scale
  0 0 1 5 -2 roll arc closepath tMatrix setmatrix fill} bdef
/FAn {newpath tMatrix currentmatrix pop translate scale
  0 0 1 5 -2 roll arcn tMatrix setmatrix stroke} bdef
/PAn {newpath tMatrix currentmatrix pop translate 0 0 moveto scale
  0 0 1 5 -2 roll arcn closepath tMatrix setmatrix fill} bdef
/vradius 0 def /hradius 0 def /lry 0 def
/lrx 0 def /uly 0 def /ulx 0 def /rad 0 def
/MRR {/vradius xdef /hradius xdef /lry xdef /lrx xdef /uly xdef
  /ulx xdef newpath tMatrix currentmatrix pop ulx hradius add uly
  vradius add translate hradius vradius scale 0 0 1 180 270 arc 
  tMatrix setmatrix lrx hradius sub uly vradius add translate
  hradius vradius scale 0 0 1 270 360 arc tMatrix setmatrix
  lrx hradius sub lry vradius sub translate hradius vradius scale
  0 0 1 0 90 arc tMatrix setmatrix ulx hradius add lry vradius sub
  translate hradius vradius scale 0 0 1 90 180 arc tMatrix setmatrix
  closepath} bdef
/FRR {MRR stroke } bdef
/PRR {MRR fill } bdef
/MlrRR {/lry xdef /lrx xdef /uly xdef /ulx xdef /rad lry uly sub 2 div def
  newpath tMatrix currentmatrix pop ulx rad add uly rad add translate
  rad rad scale 0 0 1 90 270 arc tMatrix setmatrix lrx rad sub lry rad
  sub translate rad rad scale 0 0 1 270 90 arc tMatrix setmatrix
  closepath} bdef
/FlrRR {MlrRR stroke } bdef
/PlrRR {MlrRR fill } bdef
/MtbRR {/lry xdef /lrx xdef /uly xdef /ulx xdef /rad lrx ulx sub 2 div def
  newpath tMatrix currentmatrix pop ulx rad add uly rad add translate
  rad rad scale 0 0 1 180 360 arc tMatrix setmatrix lrx rad sub lry rad
  sub translate rad rad scale 0 0 1 0 180 arc tMatrix setmatrix
  closepath} bdef
/FtbRR {MtbRR stroke } bdef
/PtbRR {MtbRR fill } bdef
/stri 6 array def /dtri 6 array def
/smat 6 array def /dmat 6 array def
/tmat1 6 array def /tmat2 6 array def /dif 3 array def
/asub {/ind2 exch def /ind1 exch def dup dup
  ind1 get exch ind2 get sub exch } bdef
/tri_to_matrix {
  2 0 asub 3 1 asub 4 0 asub 5 1 asub
  dup 0 get exch 1 get 7 -1 roll astore } bdef
/compute_transform {
  dmat dtri tri_to_matrix tmat1 invertmatrix 
  smat stri tri_to_matrix tmat2 concatmatrix } bdef
/ds {stri astore pop} bdef
/dt {dtri astore pop} bdef
/db {2 copy /cols xdef /rows xdef mul dup string
  currentfile exch readhexstring pop
  /bmap xdef pop pop} bdef
/it {gs np dtri aload pop moveto lineto lineto cp c
  cols rows 8 compute_transform 
  {bmap} image gr}bdef
/il {newpath moveto lineto stroke}bdef
currentdict end def
%%EndProlog

%%BeginSetup
MathWorks begin

0 cap

end
%%EndSetup

%%Page: 1 1
%%BeginPageSetup
%%PageBoundingBox:    58   403   548   602
MathWorks begin
bpage
%%EndPageSetup

%%BeginObject: obj1
bplot

/dpi2point 12 def
portraitMode 0216 7344 csm

  480   110  5891  2388 MR c np
87 dict begin %Colortable dictionary
/c0 { 0.000000 0.000000 0.000000 sr} bdef
/c1 { 1.000000 1.000000 1.000000 sr} bdef
/c2 { 0.900000 0.000000 0.000000 sr} bdef
/c3 { 0.000000 0.820000 0.000000 sr} bdef
/c4 { 0.000000 0.000000 0.800000 sr} bdef
/c5 { 0.910000 0.820000 0.320000 sr} bdef
/c6 { 1.000000 0.260000 0.820000 sr} bdef
/c7 { 0.000000 0.820000 0.820000 sr} bdef
c0
1 j
1 sg
   0    0 6913 5186 PR
6 w
0 1770 2313 0 0 -1770 899 2158 4 MP
PP
-2313 0 0 1770 2313 0 0 -1770 899 2158 5 MP stroke
4 w
DO
SO
6 w
0 sg
 899 2158 mt 3212 2158 L
 899  388 mt 3212  388 L
 899 2158 mt  899  388 L
3212 2158 mt 3212  388 L
 899 2158 mt 3212 2158 L
 899 2158 mt  899  388 L
 899 2158 mt  899 2134 L
 899  388 mt  899  412 L
%%IncludeResource: font Helvetica
/Helvetica /ISOLatin1Encoding 120 FMSR

 866 2303 mt 
(0) s
1361 2158 mt 1361 2134 L
1361  388 mt 1361  412 L
1328 2303 mt 
(5) s
1824 2158 mt 1824 2134 L
1824  388 mt 1824  412 L
1758 2303 mt 
(10) s
2286 2158 mt 2286 2134 L
2286  388 mt 2286  412 L
2220 2303 mt 
(15) s
2749 2158 mt 2749 2134 L
2749  388 mt 2749  412 L
2683 2303 mt 
(20) s
3212 2158 mt 3212 2134 L
3212  388 mt 3212  412 L
3146 2303 mt 
(25) s
 899 2158 mt  922 2158 L
3212 2158 mt 3188 2158 L
 798 2202 mt 
(0) s
 899 1666 mt  922 1666 L
3212 1666 mt 3188 1666 L
 698 1710 mt 
(0.5) s
 899 1175 mt  922 1175 L
3212 1175 mt 3188 1175 L
 798 1219 mt 
(1) s
 899  683 mt  922  683 L
3212  683 mt 3188  683 L
 698  727 mt 
(1.5) s
 899 2158 mt 3212 2158 L
 899  388 mt 3212  388 L
 899 2158 mt  899  388 L
3212 2158 mt 3212  388 L
gs 899 389 2314 1770 MR c np
0.85 sg
46 0 47 0 46 0 47 0 46 0 47 0 46 0 47 0 
46 0 47 0 46 0 47 0 46 0 47 0 46 0 47 0 
46 0 47 0 46 0 47 0 46 0 47 0 46 0 47 0 
46 0 47 0 46 0 47 0 46 0 47 0 46 0 47 0 
46 0 46 0 47 0 46 0 47 0 46 0 47 1 46 0 
47 0 46 0 47 0 46 0 47 0 46 0 47 0 46 0 
47 0 46 0 47 0 46 0 47 0 46 0 47 0 46 0 
47 0 46 0 47 0 46 0 47 0 46 0 47 0 46 1 
47 2 46 4 47 8 46 14 47 25 46 42 47 60 46 88 
47 116 46 141 47 166 46 172 47 183 46 171 47 130 46 135 
47 81 46 61 47 -15 46 -40 47 -71 46 -97 47 -101 46 -98 
47 -52 46 -41 47 -4 46 22 47 18 46 36 47 33 46 0 
47 -10 46 -15 46 13 899 979 100 MP
47 0 46 0 47 0 46 0 47 0 46 0 47 0 46 0 
47 0 46 0 47 0 46 0 47 0 46 0 47 0 46 0 
47 0 46 0 47 0 46 0 47 0 46 0 47 0 46 0 
47 0 46 0 47 0 46 0 47 0 46 0 47 0 46 0 
47 0 46 0 47 0 46 0 47 0 46 0 47 0 46 0 
47 0 46 0 47 0 46 0 47 0 46 0 47 0 46 0 
47 0 46 0 47 0 46 0 47 0 46 0 47 0 46 0 
47 0 46 0 47 0 46 0 47 0 46 0 47 0 46 0 
47 0 46 0 46 0 47 0 46 0 47 0 46 0 47 0 
46 0 47 0 46 0 47 0 46 0 47 0 46 0 47 0 
46 0 47 0 46 0 47 0 46 0 47 0 46 0 47 0 
46 0 47 0 46 0 47 0 46 0 47 0 46 0 47 0 
46 0 47 0 46 0 47 0 100 AP
-46 0 -47 0 -46 0 -47 0 -46 0 -47 0 -46 0 -47 0 
-46 0 -47 0 -46 0 -47 0 -46 0 -47 0 -46 0 -47 0 
-46 0 -47 0 -46 0 -47 0 -46 0 -47 0 -46 0 -47 0 
-46 0 -47 0 -46 0 -47 0 -46 0 -47 0 -46 0 -47 0 
-46 0 -46 0 -47 0 -46 0 -47 0 -46 0 -47 0 -46 0 
-47 0 -46 0 -47 0 -46 0 -47 0 -46 0 -47 0 -46 0 
-47 0 -46 0 -47 0 -46 0 -47 0 -46 0 -47 0 -46 0 
-47 0 -46 0 -47 0 -46 0 -47 0 -46 0 -47 0 -46 0 
-47 0 -46 0 -47 0 -46 0 -47 0 -46 0 -47 0 -46 0 
-47 0 -46 0 -47 0 -46 0 -47 0 -46 0 -47 0 -46 0 
-47 0 -46 0 -47 0 -46 0 -47 0 -46 0 -47 0 -46 0 
-47 0 -46 0 -47 0 -46 0 -47 0 -46 0 -47 0 -46 0 
-47 0 -46 0 -47 0 0 0 100 AP
-46 -18 -46 16 -47 0 -46 -1 -47 -21 -46 -14 -47 -20 -46 -14 
-47 5 -46 19 -47 47 -46 60 -47 77 -46 65 -47 50 -46 31 
-47 -5 -46 -33 -47 -62 -46 -80 -47 -105 -46 -114 -47 -119 -46 -119 
-47 -116 -46 -98 -47 -80 -46 -61 -47 -43 -46 -28 -47 -17 -46 -10 
-47 -5 -46 -3 -47 -1 -46 -1 -47 0 -46 0 -47 0 -46 0 
-47 0 -46 0 -47 0 -46 0 -47 0 -46 0 -47 0 -46 0 
-47 0 -46 0 -47 0 -46 0 -47 0 -46 0 -47 0 -46 0 
-47 0 -46 0 -47 -1 -46 0 -47 0 -46 0 -47 0 -46 0 
-47 0 -46 0 -46 0 -47 0 -46 0 -47 0 -46 0 -47 0 
-46 0 -47 0 -46 0 -47 0 -46 0 -47 0 -46 0 -47 0 
-46 0 -47 0 -46 0 -47 0 -46 0 -47 0 -46 0 -47 0 
-46 0 -47 0 -46 0 -47 0 -46 0 -47 0 -46 0 -47 0 
-46 0 -47 0 -46 0 -47 0 100 AP
PP
0 sg
0 -360 -46 -18 -46 16 -47 0 -46 -1 -47 -21 -46 -14 -47 -20 
-46 -14 -47 5 -46 19 -47 47 -46 60 -47 77 -46 65 -47 50 
-46 31 -47 -5 -46 -33 -47 -62 -46 -80 -47 -105 -46 -114 -47 -119 
-46 -119 -47 -116 -46 -98 -47 -80 -46 -61 -47 -43 -46 -28 -47 -17 
-46 -10 -47 -5 -46 -3 -47 -1 -46 -1 -47 0 -46 0 -47 0 
-46 0 -47 0 -46 0 -47 0 -46 0 -47 0 -46 0 -47 0 
-46 0 -47 0 -46 0 -47 0 -46 0 -47 0 -46 0 -47 0 
-46 0 -47 0 -46 0 -47 -1 -46 0 -47 0 -46 0 -47 0 
-46 0 -47 0 -46 0 -46 0 -47 0 -46 0 -47 0 -46 0 
-47 0 -46 0 -47 0 -46 0 -47 0 -46 0 -47 0 -46 0 
-47 0 -46 0 -47 0 -46 0 -47 0 -46 0 -47 0 -46 0 
-47 0 -46 0 -47 0 -46 0 -47 0 -46 0 -47 0 -46 0 
-47 0 -46 0 -47 0 5455 2158 100 MP stroke
-46 0 -47 0 -46 0 -47 0 -46 0 -47 0 -46 0 -47 0 
-46 0 -47 0 -46 0 -47 0 -46 0 -47 0 -46 0 -47 0 
-46 0 -47 0 -46 0 -47 0 -46 0 -47 0 -46 0 -47 0 
-46 0 -47 0 -46 0 -47 0 -46 0 -47 0 -46 0 -47 0 
-46 0 -47 0 -46 0 -46 0 -47 0 -46 0 -47 0 -46 0 
-47 0 -46 0 -47 0 -46 0 -47 0 -46 0 -47 0 -46 0 
-47 0 -46 0 -47 0 -46 0 -47 0 -46 0 -47 0 -46 0 
-47 0 -46 0 -47 0 -46 0 -47 0 -46 0 -47 0 -46 0 
-47 0 -46 0 -47 0 -46 0 -47 0 -46 0 -47 0 -46 0 
-47 0 -46 0 -47 0 -46 0 -47 0 -46 0 -47 0 -46 0 
-47 0 -46 0 -47 0 -46 0 -47 0 -46 0 -47 0 -46 0 
-47 0 -46 0 -47 0 -46 0 -47 0 -46 0 -47 0 -46 0 
-47 0 -46 0 -47 0 10058 2158 100 MP stroke
-46 0 -47 0 0 0 47 0 46 0 47 0 46 0 47 0 
46 0 47 0 46 0 47 0 46 0 47 0 46 0 47 0 
46 0 47 0 46 0 47 0 46 0 47 0 46 0 47 0 
46 0 47 0 46 0 47 0 46 0 47 0 46 0 47 0 
46 0 47 0 46 0 47 0 46 0 47 0 46 0 47 0 
46 0 47 0 46 0 47 0 46 0 47 0 46 0 47 0 
46 0 47 0 46 0 47 0 46 0 47 0 46 0 47 0 
46 0 47 0 46 0 47 0 46 0 47 0 46 0 47 0 
46 0 47 0 46 0 47 0 46 0 46 0 47 0 46 0 
47 0 46 0 47 0 46 0 47 0 46 0 47 0 46 0 
47 0 46 0 47 0 46 0 47 0 46 0 47 0 46 0 
47 0 46 0 47 0 46 0 47 0 46 0 47 0 46 0 
47 0 46 0 47 0 5687 2158 100 MP stroke
46 0 47 0 46 0 47 0 46 0 47 0 46 0 47 0 
46 0 47 0 46 0 47 0 46 0 47 0 46 0 47 0 
46 0 47 0 46 0 47 0 46 0 47 0 46 0 47 0 
46 0 47 0 46 0 47 0 46 0 47 0 46 0 47 0 
46 0 47 0 46 0 47 0 46 0 46 0 47 0 46 0 
47 0 46 0 47 1 46 0 47 0 46 0 47 0 46 0 
47 0 46 0 47 0 46 0 47 0 46 0 47 0 46 0 
47 0 46 0 47 0 46 0 47 0 46 0 47 0 46 0 
47 0 46 0 47 0 46 1 47 2 46 4 47 8 46 14 
47 25 46 42 47 60 46 88 47 116 46 141 47 166 46 172 
47 183 46 171 47 130 46 135 47 81 46 61 47 -15 46 -40 
47 -71 46 -97 47 -101 46 -98 47 -52 46 -41 47 -4 46 22 
47 18 46 36 47 33 1084 967 100 MP stroke
46 0 47 -10 46 -15 46 13 899 979 5 MP stroke
0.6 sg
46 0 47 0 46 0 47 0 46 0 47 0 46 0 47 0 
46 0 47 0 46 0 47 0 46 0 47 0 46 0 47 0 
46 0 47 0 46 0 47 0 46 0 47 0 46 0 47 0 
46 0 47 0 46 0 47 0 46 0 47 0 46 0 47 0 
46 0 46 0 47 0 46 0 47 0 46 0 47 1 46 0 
47 0 46 0 47 0 46 0 47 0 46 0 47 0 46 0 
47 0 46 0 47 0 46 0 47 0 46 0 47 0 46 0 
47 0 46 0 47 0 46 0 47 0 46 0 47 0 46 1 
47 2 46 4 47 7 46 13 47 23 46 38 47 57 46 82 
47 108 46 133 47 150 46 166 47 162 46 162 47 131 46 113 
47 76 46 53 47 -1 46 -36 47 -74 46 -91 47 -95 46 -82 
47 -55 46 -35 47 -9 46 20 47 26 46 23 47 33 46 0 
47 -10 46 -21 46 25 899 1058 100 MP
47 0 46 0 47 0 46 0 47 0 46 0 47 0 46 0 
47 0 46 0 47 0 46 0 47 0 46 0 47 0 46 0 
47 0 46 0 47 0 46 0 47 0 46 0 47 0 46 0 
47 0 46 0 47 0 46 0 47 0 46 0 47 0 46 0 
47 0 46 0 47 0 46 0 47 0 46 0 47 0 46 0 
47 0 46 0 47 0 46 0 47 0 46 0 47 0 46 0 
47 0 46 0 47 0 46 0 47 0 46 0 47 0 46 0 
47 0 46 0 47 0 46 0 47 0 46 0 47 0 46 0 
47 0 46 0 46 0 47 0 46 0 47 0 46 0 47 0 
46 0 47 0 46 0 47 0 46 0 47 0 46 0 47 0 
46 0 47 0 46 0 47 0 46 0 47 0 46 0 47 0 
46 0 47 0 46 0 47 0 46 0 47 0 46 0 47 0 
46 0 47 0 46 0 47 0 100 AP
-46 0 -47 0 -46 0 -47 0 -46 0 -47 0 -46 0 -47 0 
-46 0 -47 0 -46 0 -47 0 -46 0 -47 0 -46 0 -47 0 
-46 0 -47 0 -46 0 -47 0 -46 0 -47 0 -46 0 -47 0 
-46 0 -47 0 -46 0 -47 0 -46 0 -47 0 -46 0 -47 0 
-46 0 -46 0 -47 0 -46 0 -47 0 -46 0 -47 0 -46 0 
-47 0 -46 0 -47 0 -46 0 -47 0 -46 0 -47 0 -46 0 
-47 0 -46 0 -47 0 -46 0 -47 0 -46 0 -47 0 -46 0 
-47 0 -46 0 -47 0 -46 0 -47 0 -46 0 -47 0 -46 0 
-47 0 -46 0 -47 0 -46 0 -47 0 -46 0 -47 0 -46 0 
-47 0 -46 0 -47 0 -46 0 -47 0 -46 0 -47 0 -46 0 
-47 0 -46 0 -47 0 -46 0 -47 0 -46 0 -47 0 -46 0 
-47 0 -46 0 -47 0 -46 0 -47 0 -46 0 -47 0 -46 0 
-47 0 -46 0 -47 0 0 0 100 AP
-46 -19 -46 19 -47 7 -46 -9 -47 -20 -46 -20 -47 -21 -46 -14 
-47 3 -46 25 -47 52 -46 65 -47 81 -46 77 -47 57 -46 33 
-47 0 -46 -38 -47 -65 -46 -99 -47 -111 -46 -132 -47 -132 -46 -137 
-47 -126 -46 -110 -47 -90 -46 -68 -47 -47 -46 -31 -47 -19 -46 -11 
-47 -6 -46 -4 -47 -1 -46 -1 -47 0 -46 0 -47 0 -46 0 
-47 0 -46 0 -47 0 -46 0 -47 0 -46 0 -47 0 -46 0 
-47 0 -46 0 -47 0 -46 0 -47 0 -46 0 -47 0 -46 0 
-47 0 -46 0 -47 0 -46 -1 -47 0 -46 0 -47 0 -46 0 
-47 0 -46 0 -46 0 -47 0 -46 0 -47 0 -46 0 -47 0 
-46 0 -47 0 -46 0 -47 0 -46 0 -47 0 -46 0 -47 0 
-46 0 -47 0 -46 0 -47 0 -46 0 -47 0 -46 0 -47 0 
-46 0 -47 0 -46 0 -47 0 -46 0 -47 0 -46 0 -47 0 
-46 0 -47 0 -46 0 -47 0 100 AP
PP
0 sg
0 -187 -46 -19 -46 19 -47 7 -46 -9 -47 -20 -46 -20 -47 -21 
-46 -14 -47 3 -46 25 -47 52 -46 65 -47 81 -46 77 -47 57 
-46 33 -47 0 -46 -38 -47 -65 -46 -99 -47 -111 -46 -132 -47 -132 
-46 -137 -47 -126 -46 -110 -47 -90 -46 -68 -47 -47 -46 -31 -47 -19 
-46 -11 -47 -6 -46 -4 -47 -1 -46 -1 -47 0 -46 0 -47 0 
-46 0 -47 0 -46 0 -47 0 -46 0 -47 0 -46 0 -47 0 
-46 0 -47 0 -46 0 -47 0 -46 0 -47 0 -46 0 -47 0 
-46 0 -47 0 -46 0 -47 0 -46 -1 -47 0 -46 0 -47 0 
-46 0 -47 0 -46 0 -46 0 -47 0 -46 0 -47 0 -46 0 
-47 0 -46 0 -47 0 -46 0 -47 0 -46 0 -47 0 -46 0 
-47 0 -46 0 -47 0 -46 0 -47 0 -46 0 -47 0 -46 0 
-47 0 -46 0 -47 0 -46 0 -47 0 -46 0 -47 0 -46 0 
-47 0 -46 0 -47 0 5455 2158 100 MP stroke
-46 0 -47 0 -46 0 -47 0 -46 0 -47 0 -46 0 -47 0 
-46 0 -47 0 -46 0 -47 0 -46 0 -47 0 -46 0 -47 0 
-46 0 -47 0 -46 0 -47 0 -46 0 -47 0 -46 0 -47 0 
-46 0 -47 0 -46 0 -47 0 -46 0 -47 0 -46 0 -47 0 
-46 0 -47 0 -46 0 -46 0 -47 0 -46 0 -47 0 -46 0 
-47 0 -46 0 -47 0 -46 0 -47 0 -46 0 -47 0 -46 0 
-47 0 -46 0 -47 0 -46 0 -47 0 -46 0 -47 0 -46 0 
-47 0 -46 0 -47 0 -46 0 -47 0 -46 0 -47 0 -46 0 
-47 0 -46 0 -47 0 -46 0 -47 0 -46 0 -47 0 -46 0 
-47 0 -46 0 -47 0 -46 0 -47 0 -46 0 -47 0 -46 0 
-47 0 -46 0 -47 0 -46 0 -47 0 -46 0 -47 0 -46 0 
-47 0 -46 0 -47 0 -46 0 -47 0 -46 0 -47 0 -46 0 
-47 0 -46 0 -47 0 10058 2158 100 MP stroke
-46 0 -47 0 0 0 47 0 46 0 47 0 46 0 47 0 
46 0 47 0 46 0 47 0 46 0 47 0 46 0 47 0 
46 0 47 0 46 0 47 0 46 0 47 0 46 0 47 0 
46 0 47 0 46 0 47 0 46 0 47 0 46 0 47 0 
46 0 47 0 46 0 47 0 46 0 47 0 46 0 47 0 
46 0 47 0 46 0 47 0 46 0 47 0 46 0 47 0 
46 0 47 0 46 0 47 0 46 0 47 0 46 0 47 0 
46 0 47 0 46 0 47 0 46 0 47 0 46 0 47 0 
46 0 47 0 46 0 47 0 46 0 46 0 47 0 46 0 
47 0 46 0 47 0 46 0 47 0 46 0 47 0 46 0 
47 0 46 0 47 0 46 0 47 0 46 0 47 0 46 0 
47 0 46 0 47 0 46 0 47 0 46 0 47 0 46 0 
47 0 46 0 47 0 5687 2158 100 MP stroke
46 0 47 0 46 0 47 0 46 0 47 0 46 0 47 0 
46 0 47 0 46 0 47 0 46 0 47 0 46 0 47 0 
46 0 47 0 46 0 47 0 46 0 47 0 46 0 47 0 
46 0 47 0 46 0 47 0 46 0 47 0 46 0 47 0 
46 0 47 0 46 0 47 0 46 0 46 0 47 0 46 0 
47 0 46 0 47 1 46 0 47 0 46 0 47 0 46 0 
47 0 46 0 47 0 46 0 47 0 46 0 47 0 46 0 
47 0 46 0 47 0 46 0 47 0 46 0 47 0 46 0 
47 0 46 0 47 0 46 1 47 2 46 4 47 7 46 13 
47 23 46 38 47 57 46 82 47 108 46 133 47 150 46 166 
47 162 46 162 47 131 46 113 47 76 46 53 47 -1 46 -36 
47 -74 46 -91 47 -95 46 -82 47 -55 46 -35 47 -9 46 20 
47 26 46 23 47 33 1084 1052 100 MP stroke
46 0 47 -10 46 -21 46 25 899 1058 5 MP stroke
24 w
36 0 47 0 46 0 47 0 46 0 47 0 46 0 47 0 
46 0 47 0 46 0 47 0 46 0 47 0 46 1 47 2 
46 3 47 7 46 11 47 21 46 34 47 51 46 74 47 97 
46 119 47 136 46 147 47 145 46 143 47 121 46 103 47 71 
46 41 47 0 46 -34 47 -63 46 -82 47 -87 46 -73 47 -53 
46 -27 47 -6 46 16 47 22 46 22 47 24 46 7 47 -9 
46 -19 46 20 899 1172 51 MP stroke
6 w
gr

gs 778 762 2335 1518 MR c np
0 j
0 -94 -94 0 0 94 94 0 852 1128 5 MP
gs
PP
gr
DP
0 -94 -94 0 0 94 94 0 1084 1375 5 MP
gs
PP
gr
DP
0 -94 -94 0 0 94 94 0 1316 1295 5 MP
gs
PP
gr
DP
0 -94 -94 0 0 94 94 0 1549 836 5 MP
gs
PP
gr
DP
0 -94 -94 0 0 94 94 0 1781 1038 5 MP
gs
PP
gr
DP
0 -94 -94 0 0 94 94 0 2014 1700 5 MP
gs
PP
gr
DP
0 -94 -94 0 0 94 94 0 2246 2066 5 MP
gs
PP
gr
DP
0 -94 -94 0 0 94 94 0 2479 2109 5 MP
gs
PP
gr
DP
0 -94 -94 0 0 94 94 0 2711 2111 5 MP
gs
PP
gr
DP
0 -94 -94 0 0 94 94 0 2944 2111 5 MP
gs
PP
gr
DP
gr

gs 899 389 2314 1770 MR c np
gr

1410 2446 mt 
(distance from the center) s
 616 1656 mt  -90 rotate
(hyphal density) s
90 rotate
1246  294 mt 
(YFH: hyphal density prediction) s
 882 2201 mt 
( ) s
3196  431 mt 
( ) s
1 sg
0 626 899 0 0 -626 2253 1075 4 MP
PP
-899 0 0 626 899 0 0 -626 2253 1075 5 MP stroke
4 w
DO
SO
6 w
0 sg
2253 1075 mt 3152 1075 L
2253  449 mt 3152  449 L
2253 1075 mt 2253  449 L
3152 1075 mt 3152  449 L
2253 1075 mt 3152 1075 L
2253 1075 mt 2253  449 L
2253 1075 mt 3152 1075 L
2253  449 mt 3152  449 L
2253 1075 mt 2253  449 L
3152 1075 mt 3152  449 L
2712  581 mt 
(95% CI) s
gs 2253 449 900 627 MR c np
0.85 sg
0 111 353 0 0 -111 2323 594 4 MP
PP
0 sg
-353 0 0 111 353 0 0 -111 2323 594 5 MP stroke
gr

2712  730 mt 
(68% CI) s
gs 2253 449 900 627 MR c np
0.6 sg
0 111 353 0 0 -111 2323 743 4 MP
PP
0 sg
-353 0 0 111 353 0 0 -111 2323 743 5 MP stroke
gr

2712  879 mt 
(mean) s
gs 2253 449 900 627 MR c np
24 w
353 0 2323 836 2 MP stroke
gr

24 w
2712 1028 mt 
(data) s
gs 2253 449 900 627 MR c np
6 w
gr

6 w
gs 2379 863 243 243 MR c np
0 j
0 -94 -94 0 0 94 94 0 2453 937 5 MP
gs
PP
gr
DP
gr

gs 2253 449 900 627 MR c np
gr

1 sg
0 1769 2313 0 0 -1769 3942 2158 4 MP
PP
-2313 0 0 1769 2313 0 0 -1769 3942 2158 5 MP stroke
4 w
DO
SO
6 w
0 sg
3942 2158 mt 6255 2158 L
3942  389 mt 6255  389 L
3942 2158 mt 3942  389 L
6255 2158 mt 6255  389 L
3942 2158 mt 6255 2158 L
3942 2158 mt 3942  389 L
3942 2158 mt 3942 2134 L
3942  389 mt 3942  412 L
3909 2303 mt 
(0) s
4404 2158 mt 4404 2134 L
4404  389 mt 4404  412 L
4371 2303 mt 
(5) s
4867 2158 mt 4867 2134 L
4867  389 mt 4867  412 L
4801 2303 mt 
(10) s
5329 2158 mt 5329 2134 L
5329  389 mt 5329  412 L
5263 2303 mt 
(15) s
5792 2158 mt 5792 2134 L
5792  389 mt 5792  412 L
5726 2303 mt 
(20) s
6255 2158 mt 6255 2134 L
6255  389 mt 6255  412 L
6189 2303 mt 
(25) s
3942 2158 mt 3965 2158 L
6255 2158 mt 6231 2158 L
3841 2202 mt 
(0) s
3942 1715 mt 3965 1715 L
6255 1715 mt 6231 1715 L
3741 1759 mt 
(0.1) s
3942 1273 mt 3965 1273 L
6255 1273 mt 6231 1273 L
3741 1317 mt 
(0.2) s
3942  831 mt 3965  831 L
6255  831 mt 6231  831 L
3741  875 mt 
(0.3) s
3942  389 mt 3965  389 L
6255  389 mt 6231  389 L
3741  433 mt 
(0.4) s
3942 2158 mt 6255 2158 L
3942  389 mt 6255  389 L
3942 2158 mt 3942  389 L
6255 2158 mt 6255  389 L
gs 3942 389 2314 1770 MR c np
0.85 sg
46 0 47 0 46 0 47 0 46 0 47 0 46 0 47 0 
46 0 47 0 46 0 47 0 46 0 47 0 46 0 47 0 
46 0 47 0 46 0 47 0 46 0 47 0 46 0 47 0 
46 0 47 0 46 0 47 0 46 0 47 0 46 0 47 0 
46 0 46 0 47 0 46 0 47 1 46 0 47 0 46 0 
47 0 46 0 47 0 46 0 47 0 46 0 47 0 46 0 
47 0 46 0 47 0 46 0 47 0 46 0 47 0 46 0 
47 0 46 0 47 0 46 0 47 1 46 1 47 3 46 7 
47 12 46 25 47 44 46 71 47 113 46 159 47 206 46 235 
47 234 46 190 47 108 46 14 47 -75 46 -132 47 -162 46 -171 
47 -163 46 -151 47 -138 46 -119 47 -101 46 -80 47 -58 46 -36 
47 -20 46 -10 47 -5 46 -1 47 -1 46 -1 47 1 46 0 
47 0 46 0 46 -1 3942 2158 100 MP
47 0 46 0 47 0 46 0 47 0 46 0 47 0 46 0 
47 0 46 0 47 0 46 0 47 0 46 0 47 0 46 0 
47 0 46 0 47 0 46 0 47 0 46 0 47 0 46 0 
47 0 46 0 47 0 46 0 47 0 46 0 47 0 46 0 
47 0 46 0 47 0 46 0 47 0 46 0 47 0 46 0 
47 0 46 0 47 0 46 0 47 0 46 0 47 0 46 0 
47 0 46 0 47 0 46 0 47 0 46 0 47 0 46 0 
47 0 46 0 47 0 46 0 47 0 46 0 47 0 46 0 
47 0 46 0 46 0 47 0 46 0 47 0 46 0 47 0 
46 0 47 0 46 0 47 0 46 0 47 0 46 0 47 0 
46 0 47 0 46 0 47 0 46 0 47 0 46 0 47 0 
46 0 47 0 46 0 47 0 46 0 47 0 46 0 47 0 
46 0 47 0 46 0 47 0 100 AP
-46 0 -47 0 -46 0 -47 0 -46 0 -47 0 -46 0 -47 0 
-46 0 -47 0 -46 0 -47 0 -46 0 -47 0 -46 0 -47 0 
-46 0 -47 0 -46 0 -47 0 -46 0 -47 0 -46 0 -47 0 
-46 0 -47 0 -46 0 -47 0 -46 0 -47 0 -46 0 -47 0 
-46 0 -46 0 -47 0 -46 0 -47 0 -46 0 -47 0 -46 0 
-47 0 -46 0 -47 0 -46 0 -47 0 -46 0 -47 0 -46 0 
-47 0 -46 0 -47 0 -46 0 -47 0 -46 0 -47 0 -46 0 
-47 0 -46 0 -47 0 -46 0 -47 0 -46 0 -47 0 -46 0 
-47 0 -46 0 -47 0 -46 0 -47 0 -46 0 -47 0 -46 0 
-47 0 -46 0 -47 0 -46 0 -47 0 -46 0 -47 0 -46 0 
-47 0 -46 0 -47 0 -46 0 -47 0 -46 0 -47 0 -46 0 
-47 0 -46 0 -47 0 -46 0 -47 0 -46 0 -47 0 -46 0 
-47 0 -46 0 -47 0 0 0 100 AP
-46 1 -46 0 -47 -1 -46 0 -47 0 -46 0 -47 1 -46 2 
-47 4 -46 9 -47 18 -46 33 -47 52 -46 72 -47 90 -46 107 
-47 121 -46 137 -47 147 -46 154 -47 155 -46 128 -47 69 -46 -13 
-47 -105 -46 -177 -47 -211 -46 -215 -47 -186 -46 -143 -47 -100 -46 -65 
-47 -39 -46 -22 -47 -12 -46 -5 -47 -3 -46 -2 -47 0 -46 0 
-47 0 -46 0 -47 0 -46 0 -47 0 -46 0 -47 0 -46 0 
-47 0 -46 0 -47 0 -46 0 -47 0 -46 0 -47 0 -46 0 
-47 0 -46 0 -47 0 -46 0 -47 -1 -46 0 -47 0 -46 0 
-47 0 -46 0 -46 0 -47 0 -46 0 -47 0 -46 0 -47 0 
-46 0 -47 0 -46 0 -47 0 -46 0 -47 0 -46 0 -47 0 
-46 0 -47 0 -46 0 -47 0 -46 0 -47 0 -46 0 -47 0 
-46 0 -47 0 -46 0 -47 0 -46 0 -47 0 -46 0 -47 0 
-46 0 -47 0 -46 0 -47 0 100 AP
PP
0 sg
0 0 -46 1 -46 0 -47 -1 -46 0 -47 0 -46 0 -47 1 
-46 2 -47 4 -46 9 -47 18 -46 33 -47 52 -46 72 -47 90 
-46 107 -47 121 -46 137 -47 147 -46 154 -47 155 -46 128 -47 69 
-46 -13 -47 -105 -46 -177 -47 -211 -46 -215 -47 -186 -46 -143 -47 -100 
-46 -65 -47 -39 -46 -22 -47 -12 -46 -5 -47 -3 -46 -2 -47 0 
-46 0 -47 0 -46 0 -47 0 -46 0 -47 0 -46 0 -47 0 
-46 0 -47 0 -46 0 -47 0 -46 0 -47 0 -46 0 -47 0 
-46 0 -47 0 -46 0 -47 0 -46 0 -47 -1 -46 0 -47 0 
-46 0 -47 0 -46 0 -46 0 -47 0 -46 0 -47 0 -46 0 
-47 0 -46 0 -47 0 -46 0 -47 0 -46 0 -47 0 -46 0 
-47 0 -46 0 -47 0 -46 0 -47 0 -46 0 -47 0 -46 0 
-47 0 -46 0 -47 0 -46 0 -47 0 -46 0 -47 0 -46 0 
-47 0 -46 0 -47 0 8498 2158 100 MP stroke
-46 0 -47 0 -46 0 -47 0 -46 0 -47 0 -46 0 -47 0 
-46 0 -47 0 -46 0 -47 0 -46 0 -47 0 -46 0 -47 0 
-46 0 -47 0 -46 0 -47 0 -46 0 -47 0 -46 0 -47 0 
-46 0 -47 0 -46 0 -47 0 -46 0 -47 0 -46 0 -47 0 
-46 0 -47 0 -46 0 -46 0 -47 0 -46 0 -47 0 -46 0 
-47 0 -46 0 -47 0 -46 0 -47 0 -46 0 -47 0 -46 0 
-47 0 -46 0 -47 0 -46 0 -47 0 -46 0 -47 0 -46 0 
-47 0 -46 0 -47 0 -46 0 -47 0 -46 0 -47 0 -46 0 
-47 0 -46 0 -47 0 -46 0 -47 0 -46 0 -47 0 -46 0 
-47 0 -46 0 -47 0 -46 0 -47 0 -46 0 -47 0 -46 0 
-47 0 -46 0 -47 0 -46 0 -47 0 -46 0 -47 0 -46 0 
-47 0 -46 0 -47 0 -46 0 -47 0 -46 0 -47 0 -46 0 
-47 0 -46 0 -47 0 13101 2158 100 MP stroke
-46 0 -47 0 0 0 47 0 46 0 47 0 46 0 47 0 
46 0 47 0 46 0 47 0 46 0 47 0 46 0 47 0 
46 0 47 0 46 0 47 0 46 0 47 0 46 0 47 0 
46 0 47 0 46 0 47 0 46 0 47 0 46 0 47 0 
46 0 47 0 46 0 47 0 46 0 47 0 46 0 47 0 
46 0 47 0 46 0 47 0 46 0 47 0 46 0 47 0 
46 0 47 0 46 0 47 0 46 0 47 0 46 0 47 0 
46 0 47 0 46 0 47 0 46 0 47 0 46 0 47 0 
46 0 47 0 46 0 47 0 46 0 46 0 47 0 46 0 
47 0 46 0 47 0 46 0 47 0 46 0 47 0 46 0 
47 0 46 0 47 0 46 0 47 0 46 0 47 0 46 0 
47 0 46 0 47 0 46 0 47 0 46 0 47 0 46 0 
47 0 46 0 47 0 8730 2158 100 MP stroke
46 0 47 0 46 0 47 0 46 0 47 0 46 0 47 0 
46 0 47 0 46 0 47 0 46 0 47 0 46 0 47 0 
46 0 47 0 46 0 47 0 46 0 47 0 46 0 47 0 
46 0 47 0 46 0 47 0 46 0 47 0 46 0 47 0 
46 0 47 0 46 0 47 0 46 0 46 0 47 0 46 0 
47 1 46 0 47 0 46 0 47 0 46 0 47 0 46 0 
47 0 46 0 47 0 46 0 47 0 46 0 47 0 46 0 
47 0 46 0 47 0 46 0 47 0 46 0 47 0 46 0 
47 1 46 1 47 3 46 7 47 12 46 25 47 44 46 71 
47 113 46 159 47 206 46 235 47 234 46 190 47 108 46 14 
47 -75 46 -132 47 -162 46 -171 47 -163 46 -151 47 -138 46 -119 
47 -101 46 -80 47 -58 46 -36 47 -20 46 -10 47 -5 46 -1 
47 -1 46 -1 47 1 4127 2157 100 MP stroke
46 0 47 0 46 0 46 -1 3942 2158 5 MP stroke
0.6 sg
46 0 47 0 46 0 47 0 46 0 47 0 46 0 47 0 
46 0 47 0 46 0 47 0 46 0 47 0 46 0 47 0 
46 0 47 0 46 0 47 0 46 0 47 0 46 0 47 0 
46 0 47 0 46 0 47 0 46 0 47 0 46 0 47 0 
46 0 46 0 47 0 46 0 47 1 46 0 47 0 46 0 
47 0 46 0 47 0 46 0 47 0 46 0 47 0 46 0 
47 0 46 0 47 0 46 0 47 0 46 0 47 0 46 0 
47 0 46 0 47 0 46 0 47 0 46 2 47 3 46 6 
47 13 46 24 47 42 46 71 47 110 46 156 47 201 46 231 
47 229 46 185 47 108 46 13 47 -72 46 -131 47 -161 46 -168 
47 -160 46 -148 47 -132 46 -117 47 -99 46 -78 47 -56 46 -36 
47 -20 46 -9 47 -5 46 -1 47 -1 46 -1 47 0 46 1 
47 0 46 0 46 -1 3942 2158 100 MP
47 0 46 0 47 0 46 0 47 0 46 0 47 0 46 0 
47 0 46 0 47 0 46 0 47 0 46 0 47 0 46 0 
47 0 46 0 47 0 46 0 47 0 46 0 47 0 46 0 
47 0 46 0 47 0 46 0 47 0 46 0 47 0 46 0 
47 0 46 0 47 0 46 0 47 0 46 0 47 0 46 0 
47 0 46 0 47 0 46 0 47 0 46 0 47 0 46 0 
47 0 46 0 47 0 46 0 47 0 46 0 47 0 46 0 
47 0 46 0 47 0 46 0 47 0 46 0 47 0 46 0 
47 0 46 0 46 0 47 0 46 0 47 0 46 0 47 0 
46 0 47 0 46 0 47 0 46 0 47 0 46 0 47 0 
46 0 47 0 46 0 47 0 46 0 47 0 46 0 47 0 
46 0 47 0 46 0 47 0 46 0 47 0 46 0 47 0 
46 0 47 0 46 0 47 0 100 AP
-46 0 -47 0 -46 0 -47 0 -46 0 -47 0 -46 0 -47 0 
-46 0 -47 0 -46 0 -47 0 -46 0 -47 0 -46 0 -47 0 
-46 0 -47 0 -46 0 -47 0 -46 0 -47 0 -46 0 -47 0 
-46 0 -47 0 -46 0 -47 0 -46 0 -47 0 -46 0 -47 0 
-46 0 -46 0 -47 0 -46 0 -47 0 -46 0 -47 0 -46 0 
-47 0 -46 0 -47 0 -46 0 -47 0 -46 0 -47 0 -46 0 
-47 0 -46 0 -47 0 -46 0 -47 0 -46 0 -47 0 -46 0 
-47 0 -46 0 -47 0 -46 0 -47 0 -46 0 -47 0 -46 0 
-47 0 -46 0 -47 0 -46 0 -47 0 -46 0 -47 0 -46 0 
-47 0 -46 0 -47 0 -46 0 -47 0 -46 0 -47 0 -46 0 
-47 0 -46 0 -47 0 -46 0 -47 0 -46 0 -47 0 -46 0 
-47 0 -46 0 -47 0 -46 0 -47 0 -46 0 -47 0 -46 0 
-47 0 -46 0 -47 0 0 0 100 AP
-46 1 -46 0 -47 0 -46 -1 -47 0 -46 0 -47 1 -46 2 
-47 4 -46 9 -47 19 -46 34 -47 54 -46 74 -47 94 -46 111 
-47 126 -46 140 -47 153 -46 161 -47 156 -46 128 -47 71 -46 -13 
-47 -105 -46 -180 -47 -220 -46 -221 -47 -191 -46 -149 -47 -104 -46 -67 
-47 -40 -46 -23 -47 -12 -46 -6 -47 -3 -46 -2 -47 0 -46 0 
-47 0 -46 0 -47 0 -46 0 -47 0 -46 0 -47 0 -46 0 
-47 0 -46 0 -47 0 -46 0 -47 0 -46 0 -47 0 -46 0 
-47 0 -46 0 -47 0 -46 0 -47 0 -46 -1 -47 0 -46 0 
-47 0 -46 0 -46 0 -47 0 -46 0 -47 0 -46 0 -47 0 
-46 0 -47 0 -46 0 -47 0 -46 0 -47 0 -46 0 -47 0 
-46 0 -47 0 -46 0 -47 0 -46 0 -47 0 -46 0 -47 0 
-46 0 -47 0 -46 0 -47 0 -46 0 -47 0 -46 0 -47 0 
-46 0 -47 0 -46 0 -47 0 100 AP
PP
0 sg
0 0 -46 1 -46 0 -47 0 -46 -1 -47 0 -46 0 -47 1 
-46 2 -47 4 -46 9 -47 19 -46 34 -47 54 -46 74 -47 94 
-46 111 -47 126 -46 140 -47 153 -46 161 -47 156 -46 128 -47 71 
-46 -13 -47 -105 -46 -180 -47 -220 -46 -221 -47 -191 -46 -149 -47 -104 
-46 -67 -47 -40 -46 -23 -47 -12 -46 -6 -47 -3 -46 -2 -47 0 
-46 0 -47 0 -46 0 -47 0 -46 0 -47 0 -46 0 -47 0 
-46 0 -47 0 -46 0 -47 0 -46 0 -47 0 -46 0 -47 0 
-46 0 -47 0 -46 0 -47 0 -46 0 -47 0 -46 -1 -47 0 
-46 0 -47 0 -46 0 -46 0 -47 0 -46 0 -47 0 -46 0 
-47 0 -46 0 -47 0 -46 0 -47 0 -46 0 -47 0 -46 0 
-47 0 -46 0 -47 0 -46 0 -47 0 -46 0 -47 0 -46 0 
-47 0 -46 0 -47 0 -46 0 -47 0 -46 0 -47 0 -46 0 
-47 0 -46 0 -47 0 8498 2158 100 MP stroke
-46 0 -47 0 -46 0 -47 0 -46 0 -47 0 -46 0 -47 0 
-46 0 -47 0 -46 0 -47 0 -46 0 -47 0 -46 0 -47 0 
-46 0 -47 0 -46 0 -47 0 -46 0 -47 0 -46 0 -47 0 
-46 0 -47 0 -46 0 -47 0 -46 0 -47 0 -46 0 -47 0 
-46 0 -47 0 -46 0 -46 0 -47 0 -46 0 -47 0 -46 0 
-47 0 -46 0 -47 0 -46 0 -47 0 -46 0 -47 0 -46 0 
-47 0 -46 0 -47 0 -46 0 -47 0 -46 0 -47 0 -46 0 
-47 0 -46 0 -47 0 -46 0 -47 0 -46 0 -47 0 -46 0 
-47 0 -46 0 -47 0 -46 0 -47 0 -46 0 -47 0 -46 0 
-47 0 -46 0 -47 0 -46 0 -47 0 -46 0 -47 0 -46 0 
-47 0 -46 0 -47 0 -46 0 -47 0 -46 0 -47 0 -46 0 
-47 0 -46 0 -47 0 -46 0 -47 0 -46 0 -47 0 -46 0 
-47 0 -46 0 -47 0 13101 2158 100 MP stroke
-46 0 -47 0 0 0 47 0 46 0 47 0 46 0 47 0 
46 0 47 0 46 0 47 0 46 0 47 0 46 0 47 0 
46 0 47 0 46 0 47 0 46 0 47 0 46 0 47 0 
46 0 47 0 46 0 47 0 46 0 47 0 46 0 47 0 
46 0 47 0 46 0 47 0 46 0 47 0 46 0 47 0 
46 0 47 0 46 0 47 0 46 0 47 0 46 0 47 0 
46 0 47 0 46 0 47 0 46 0 47 0 46 0 47 0 
46 0 47 0 46 0 47 0 46 0 47 0 46 0 47 0 
46 0 47 0 46 0 47 0 46 0 46 0 47 0 46 0 
47 0 46 0 47 0 46 0 47 0 46 0 47 0 46 0 
47 0 46 0 47 0 46 0 47 0 46 0 47 0 46 0 
47 0 46 0 47 0 46 0 47 0 46 0 47 0 46 0 
47 0 46 0 47 0 8730 2158 100 MP stroke
46 0 47 0 46 0 47 0 46 0 47 0 46 0 47 0 
46 0 47 0 46 0 47 0 46 0 47 0 46 0 47 0 
46 0 47 0 46 0 47 0 46 0 47 0 46 0 47 0 
46 0 47 0 46 0 47 0 46 0 47 0 46 0 47 0 
46 0 47 0 46 0 47 0 46 0 46 0 47 0 46 0 
47 1 46 0 47 0 46 0 47 0 46 0 47 0 46 0 
47 0 46 0 47 0 46 0 47 0 46 0 47 0 46 0 
47 0 46 0 47 0 46 0 47 0 46 0 47 0 46 0 
47 0 46 2 47 3 46 6 47 13 46 24 47 42 46 71 
47 110 46 156 47 201 46 231 47 229 46 185 47 108 46 13 
47 -72 46 -131 47 -161 46 -168 47 -160 46 -148 47 -132 46 -117 
47 -99 46 -78 47 -56 46 -36 47 -20 46 -9 47 -5 46 -1 
47 -1 46 -1 47 0 4127 2158 100 MP stroke
46 1 47 0 46 0 46 -1 3942 2158 5 MP stroke
24 w
36 0 47 0 46 0 47 0 46 0 47 0 46 0 47 0 
46 0 47 0 46 0 47 0 46 2 47 3 46 6 47 12 
46 24 47 41 46 68 47 106 46 152 47 195 46 225 47 224 
46 182 47 106 46 12 47 -71 46 -129 47 -158 46 -163 47 -156 
46 -143 47 -129 46 -113 47 -96 46 -76 47 -54 46 -35 47 -19 
46 -10 47 -4 46 -2 47 -1 46 0 47 0 46 1 47 0 
46 0 46 -1 3942 2158 51 MP stroke
6 w
gr

gs 3821 777 2335 1503 MR c np
0 j
0 -94 -94 0 0 94 94 0 3895 2111 5 MP
gs
PP
gr
DP
0 -94 -94 0 0 94 94 0 4127 2111 5 MP
gs
PP
gr
DP
0 -94 -94 0 0 94 94 0 4359 2095 5 MP
gs
PP
gr
DP
0 -94 -94 0 0 94 94 0 4592 1805 5 MP
gs
PP
gr
DP
0 -94 -94 0 0 94 94 0 4824 1124 5 MP
gs
PP
gr
DP
0 -94 -94 0 0 94 94 0 5057 851 5 MP
gs
PP
gr
DP
0 -94 -94 0 0 94 94 0 5289 1845 5 MP
gs
PP
gr
DP
0 -94 -94 0 0 94 94 0 5522 2099 5 MP
gs
PP
gr
DP
0 -94 -94 0 0 94 94 0 5754 2111 5 MP
gs
PP
gr
DP
0 -94 -94 0 0 94 94 0 5987 2111 5 MP
gs
PP
gr
DP
gr

gs 3942 389 2314 1770 MR c np
gr

4453 2446 mt 
(distance from the center) s
3659 1544 mt  -90 rotate
(tip density) s
90 rotate
4401  294 mt 
(YFH: tip density prediction) s
3925 2201 mt 
( ) s
6239  431 mt 
( ) s
1 sg
0 626 899 0 0 -626 5296 1075 4 MP
PP
-899 0 0 626 899 0 0 -626 5296 1075 5 MP stroke
4 w
DO
SO
6 w
0 sg
5296 1075 mt 6195 1075 L
5296  449 mt 6195  449 L
5296 1075 mt 5296  449 L
6195 1075 mt 6195  449 L
5296 1075 mt 6195 1075 L
5296 1075 mt 5296  449 L
5296 1075 mt 6195 1075 L
5296  449 mt 6195  449 L
5296 1075 mt 5296  449 L
6195 1075 mt 6195  449 L
5755  581 mt 
(95% CI) s
gs 5296 449 900 627 MR c np
0.85 sg
0 111 353 0 0 -111 5366 594 4 MP
PP
0 sg
-353 0 0 111 353 0 0 -111 5366 594 5 MP stroke
gr

5755  730 mt 
(68% CI) s
gs 5296 449 900 627 MR c np
0.6 sg
0 111 353 0 0 -111 5366 743 4 MP
PP
0 sg
-353 0 0 111 353 0 0 -111 5366 743 5 MP stroke
gr

5755  879 mt 
(mean) s
gs 5296 449 900 627 MR c np
24 w
353 0 5366 836 2 MP stroke
gr

24 w
5755 1028 mt 
(data) s
gs 5296 449 900 627 MR c np
6 w
gr

6 w
gs 5422 863 243 243 MR c np
0 j
0 -94 -94 0 0 94 94 0 5496 937 5 MP
gs
PP
gr
DP
gr

gs 5296 449 900 627 MR c np
gr


end %%Color Dict

eplot
%%EndObject

epage
end

showpage

%%Trailer
%%EOF
