%!PS-Adobe-2.0 EPSF-1.2
%%Creator: MATLAB, The MathWorks, Inc. Version 8.1.0.604 (R2013a). Operating System: Linux 3.13.0-40-generic #69-Ubuntu SMP Thu Nov 13 17:53:56 UTC 2014 x86_64.
%%Title: /home/xiaolin/Documents/model_selection/model_selection_log03new/YHD/data_figures/sampleHist.eps
%%CreationDate: 10/25/2015  07:04:51
%%DocumentNeededFonts: Helvetica
%%DocumentProcessColors: Cyan Magenta Yellow Black
%%Pages: 1
%%BoundingBox:    58   194   549   589
%%EndComments

%%BeginProlog
% MathWorks dictionary
/MathWorks 160 dict begin
% definition operators
/bdef {bind def} bind def
/ldef {load def} bind def
/xdef {exch def} bdef
/xstore {exch store} bdef
% operator abbreviations
/c  /clip ldef
/cc /concat ldef
/cp /closepath ldef
/gr /grestore ldef
/gs /gsave ldef
/mt /moveto ldef
/np /newpath ldef
/cm /currentmatrix ldef
/sm /setmatrix ldef
/rm /rmoveto ldef
/rl /rlineto ldef
/s {show newpath} bdef
/sc {setcmykcolor} bdef
/sr /setrgbcolor ldef
/sg /setgray ldef
/w /setlinewidth ldef
/j /setlinejoin ldef
/cap /setlinecap ldef
/rc {rectclip} bdef
/rf {rectfill} bdef
% page state control
/pgsv () def
/bpage {/pgsv save def} bdef
/epage {pgsv restore} bdef
/bplot /gsave ldef
/eplot {stroke grestore} bdef
% orientation switch
/portraitMode 0 def /landscapeMode 1 def /rotateMode 2 def
% coordinate system mappings
/dpi2point 0 def
% font control
/FontSize 0 def
/FMS {/FontSize xstore findfont [FontSize 0 0 FontSize neg 0 0]
  makefont setfont} bdef
/reencode {exch dup where {pop load} {pop StandardEncoding} ifelse
  exch dup 3 1 roll findfont dup length dict begin
  { 1 index /FID ne {def}{pop pop} ifelse } forall
  /Encoding exch def currentdict end definefont pop} bdef
/isroman {findfont /CharStrings get /Agrave known} bdef
/FMSR {3 1 roll 1 index dup isroman {reencode} {pop pop} ifelse
  exch FMS} bdef
/csm {1 dpi2point div -1 dpi2point div scale neg translate
 dup landscapeMode eq {pop -90 rotate}
  {rotateMode eq {90 rotate} if} ifelse} bdef
% line types: solid, dotted, dashed, dotdash
/SO { [] 0 setdash } bdef
/DO { [.5 dpi2point mul 4 dpi2point mul] 0 setdash } bdef
/DA { [6 dpi2point mul] 0 setdash } bdef
/DD { [.5 dpi2point mul 4 dpi2point mul 6 dpi2point mul 4
  dpi2point mul] 0 setdash } bdef
% macros for lines and objects
/L {lineto stroke} bdef
/MP {3 1 roll moveto 1 sub {rlineto} repeat} bdef
/AP {{rlineto} repeat} bdef
/PDlw -1 def
/W {/PDlw currentlinewidth def setlinewidth} def
/PP {closepath eofill} bdef
/DP {closepath stroke} bdef
/MR {4 -2 roll moveto dup  0 exch rlineto exch 0 rlineto
  neg 0 exch rlineto closepath} bdef
/FR {MR stroke} bdef
/PR {MR fill} bdef
/L1i {{currentfile picstr readhexstring pop} image} bdef
/tMatrix matrix def
/MakeOval {newpath tMatrix currentmatrix pop translate scale
0 0 1 0 360 arc tMatrix setmatrix} bdef
/FO {MakeOval stroke} bdef
/PO {MakeOval fill} bdef
/PD {currentlinewidth 2 div 0 360 arc fill
   PDlw -1 eq not {PDlw w /PDlw -1 def} if} def
/FA {newpath tMatrix currentmatrix pop translate scale
  0 0 1 5 -2 roll arc tMatrix setmatrix stroke} bdef
/PA {newpath tMatrix currentmatrix pop	translate 0 0 moveto scale
  0 0 1 5 -2 roll arc closepath tMatrix setmatrix fill} bdef
/FAn {newpath tMatrix currentmatrix pop translate scale
  0 0 1 5 -2 roll arcn tMatrix setmatrix stroke} bdef
/PAn {newpath tMatrix currentmatrix pop translate 0 0 moveto scale
  0 0 1 5 -2 roll arcn closepath tMatrix setmatrix fill} bdef
/vradius 0 def /hradius 0 def /lry 0 def
/lrx 0 def /uly 0 def /ulx 0 def /rad 0 def
/MRR {/vradius xdef /hradius xdef /lry xdef /lrx xdef /uly xdef
  /ulx xdef newpath tMatrix currentmatrix pop ulx hradius add uly
  vradius add translate hradius vradius scale 0 0 1 180 270 arc 
  tMatrix setmatrix lrx hradius sub uly vradius add translate
  hradius vradius scale 0 0 1 270 360 arc tMatrix setmatrix
  lrx hradius sub lry vradius sub translate hradius vradius scale
  0 0 1 0 90 arc tMatrix setmatrix ulx hradius add lry vradius sub
  translate hradius vradius scale 0 0 1 90 180 arc tMatrix setmatrix
  closepath} bdef
/FRR {MRR stroke } bdef
/PRR {MRR fill } bdef
/MlrRR {/lry xdef /lrx xdef /uly xdef /ulx xdef /rad lry uly sub 2 div def
  newpath tMatrix currentmatrix pop ulx rad add uly rad add translate
  rad rad scale 0 0 1 90 270 arc tMatrix setmatrix lrx rad sub lry rad
  sub translate rad rad scale 0 0 1 270 90 arc tMatrix setmatrix
  closepath} bdef
/FlrRR {MlrRR stroke } bdef
/PlrRR {MlrRR fill } bdef
/MtbRR {/lry xdef /lrx xdef /uly xdef /ulx xdef /rad lrx ulx sub 2 div def
  newpath tMatrix currentmatrix pop ulx rad add uly rad add translate
  rad rad scale 0 0 1 180 360 arc tMatrix setmatrix lrx rad sub lry rad
  sub translate rad rad scale 0 0 1 0 180 arc tMatrix setmatrix
  closepath} bdef
/FtbRR {MtbRR stroke } bdef
/PtbRR {MtbRR fill } bdef
/stri 6 array def /dtri 6 array def
/smat 6 array def /dmat 6 array def
/tmat1 6 array def /tmat2 6 array def /dif 3 array def
/asub {/ind2 exch def /ind1 exch def dup dup
  ind1 get exch ind2 get sub exch } bdef
/tri_to_matrix {
  2 0 asub 3 1 asub 4 0 asub 5 1 asub
  dup 0 get exch 1 get 7 -1 roll astore } bdef
/compute_transform {
  dmat dtri tri_to_matrix tmat1 invertmatrix 
  smat stri tri_to_matrix tmat2 concatmatrix } bdef
/ds {stri astore pop} bdef
/dt {dtri astore pop} bdef
/db {2 copy /cols xdef /rows xdef mul dup string
  currentfile exch readhexstring pop
  /bmap xdef pop pop} bdef
/it {gs np dtri aload pop moveto lineto lineto cp c
  cols rows 8 compute_transform 
  {bmap} image gr}bdef
/il {newpath moveto lineto stroke}bdef
currentdict end def
%%EndProlog

%%BeginSetup
MathWorks begin

0 cap

end
%%EndSetup

%%Page: 1 1
%%BeginPageSetup
%%PageBoundingBox:    58   194   549   589
MathWorks begin
bpage
%%EndPageSetup

%%BeginObject: obj1
bplot

/dpi2point 12 def
portraitMode 0216 7344 csm

  488   274  5893  4731 MR c np
85 dict begin %Colortable dictionary
/c0 { 0.000000 0.000000 0.000000 sr} bdef
/c1 { 1.000000 1.000000 1.000000 sr} bdef
/c2 { 0.900000 0.000000 0.000000 sr} bdef
/c3 { 0.000000 0.820000 0.000000 sr} bdef
/c4 { 0.000000 0.000000 0.800000 sr} bdef
/c5 { 0.910000 0.820000 0.320000 sr} bdef
/c6 { 1.000000 0.260000 0.820000 sr} bdef
/c7 { 0.000000 0.820000 0.820000 sr} bdef
c0
1 j
1 sg
   0    0 6913 5186 PR
6 w
0 1770 1392 0 0 -1770 941 2158 4 MP
PP
-1392 0 0 1770 1392 0 0 -1770 941 2158 5 MP stroke
4 w
DO
SO
6 w
0 sg
 941 2158 mt 2333 2158 L
 941  388 mt 2333  388 L
 941 2158 mt  941  388 L
2333 2158 mt 2333  388 L
 941 2158 mt 2333 2158 L
 941 2158 mt  941  388 L
 941 2158 mt  941 2140 L
 941  389 mt  941  406 L
%%IncludeResource: font Helvetica
/Helvetica /ISOLatin1Encoding 120 FMSR

 825 2303 mt 
(0.79) s
1637 2158 mt 1637 2140 L
1637  389 mt 1637  406 L
1554 2303 mt 
(0.8) s
2333 2158 mt 2333 2140 L
2333  389 mt 2333  406 L
2217 2303 mt 
(0.81) s
 941 2158 mt  958 2158 L
2333 2158 mt 2315 2158 L
 840 2202 mt 
(0) s
 941 1804 mt  958 1804 L
2333 1804 mt 2315 1804 L
 706 1848 mt 
(100) s
 941 1450 mt  958 1450 L
2333 1450 mt 2315 1450 L
 706 1494 mt 
(200) s
 941 1096 mt  958 1096 L
2333 1096 mt 2315 1096 L
 706 1140 mt 
(300) s
 941  742 mt  958  742 L
2333  742 mt 2315  742 L
 706  786 mt 
(400) s
 941  389 mt  958  389 L
2333  389 mt 2315  389 L
 706  433 mt 
(500) s
 941 2158 mt 2333 2158 L
 941  388 mt 2333  388 L
 941 2158 mt  941  388 L
2333 2158 mt 2333  388 L
gs 941 389 1393 1770 MR c np
/c8 { 0.000000 0.000000 0.562500 sr} bdef
c8
0 8 32 0 0 -8 984 2158 4 MP
PP
0 sg
-32 0 0 8 32 0 0 -8 984 2158 5 MP stroke
c8
0 8 32 0 0 -8 1016 2158 4 MP
PP
0 sg
-32 0 0 8 32 0 0 -8 1016 2158 5 MP stroke
c8
0 46 32 0 0 -46 1048 2158 4 MP
PP
0 sg
-32 0 0 46 32 0 0 -46 1048 2158 5 MP stroke
c8
0 61 32 0 0 -61 1080 2158 4 MP
PP
0 sg
-32 0 0 61 32 0 0 -61 1080 2158 5 MP stroke
c8
0 103 32 0 0 -103 1112 2158 4 MP
PP
0 sg
-32 0 0 103 32 0 0 -103 1112 2158 5 MP stroke
c8
0 138 32 0 0 -138 1144 2158 4 MP
PP
0 sg
-32 0 0 138 32 0 0 -138 1144 2158 5 MP stroke
c8
0 149 32 0 0 -149 1176 2158 4 MP
PP
0 sg
-32 0 0 149 32 0 0 -149 1176 2158 5 MP stroke
c8
0 326 32 0 0 -326 1208 2158 4 MP
PP
0 sg
-32 0 0 326 32 0 0 -326 1208 2158 5 MP stroke
c8
0 609 32 0 0 -609 1240 2158 4 MP
PP
0 sg
-32 0 0 609 32 0 0 -609 1240 2158 5 MP stroke
c8
0 701 32 0 0 -701 1272 2158 4 MP
PP
0 sg
-32 0 0 701 32 0 0 -701 1272 2158 5 MP stroke
c8
0 963 32 0 0 -963 1304 2158 4 MP
PP
0 sg
-32 0 0 963 32 0 0 -963 1304 2158 5 MP stroke
c8
0 850 32 0 0 -850 1336 2158 4 MP
PP
0 sg
-32 0 0 850 32 0 0 -850 1336 2158 5 MP stroke
c8
0 1218 32 0 0 -1218 1368 2158 4 MP
PP
0 sg
-32 0 0 1218 32 0 0 -1218 1368 2158 5 MP stroke
c8
0 1642 32 0 0 -1642 1400 2158 4 MP
PP
0 sg
-32 0 0 1642 32 0 0 -1642 1400 2158 5 MP stroke
c8
0 1596 32 0 0 -1596 1432 2158 4 MP
PP
0 sg
-32 0 0 1596 32 0 0 -1596 1432 2158 5 MP stroke
c8
0 1607 33 0 0 -1607 1464 2158 4 MP
PP
0 sg
-33 0 0 1607 33 0 0 -1607 1464 2158 5 MP stroke
c8
0 1596 32 0 0 -1596 1497 2158 4 MP
PP
0 sg
-32 0 0 1596 32 0 0 -1596 1497 2158 5 MP stroke
c8
0 1405 32 0 0 -1405 1529 2158 4 MP
PP
0 sg
-32 0 0 1405 32 0 0 -1405 1529 2158 5 MP stroke
c8
0 1133 32 0 0 -1133 1561 2158 4 MP
PP
0 sg
-32 0 0 1133 32 0 0 -1133 1561 2158 5 MP stroke
c8
0 966 32 0 0 -966 1593 2158 4 MP
PP
0 sg
-32 0 0 966 32 0 0 -966 1593 2158 5 MP stroke
c8
0 818 32 0 0 -818 1625 2158 4 MP
PP
0 sg
-32 0 0 818 32 0 0 -818 1625 2158 5 MP stroke
c8
0 517 32 0 0 -517 1657 2158 4 MP
PP
0 sg
-32 0 0 517 32 0 0 -517 1657 2158 5 MP stroke
c8
0 460 32 0 0 -460 1689 2158 4 MP
PP
0 sg
-32 0 0 460 32 0 0 -460 1689 2158 5 MP stroke
c8
0 354 32 0 0 -354 1721 2158 4 MP
PP
0 sg
-32 0 0 354 32 0 0 -354 1721 2158 5 MP stroke
c8
0 167 32 0 0 -167 1753 2158 4 MP
PP
0 sg
-32 0 0 167 32 0 0 -167 1753 2158 5 MP stroke
c8
0 103 32 0 0 -103 1785 2158 4 MP
PP
0 sg
-32 0 0 103 32 0 0 -103 1785 2158 5 MP stroke
c8
0 78 32 0 0 -78 1817 2158 4 MP
PP
0 sg
-32 0 0 78 32 0 0 -78 1817 2158 5 MP stroke
c8
0 46 32 0 0 -46 1849 2158 4 MP
PP
0 sg
-32 0 0 46 32 0 0 -46 1849 2158 5 MP stroke
c8
0 18 32 0 0 -18 1881 2158 4 MP
PP
0 sg
-32 0 0 18 32 0 0 -18 1881 2158 5 MP stroke
c8
0 18 32 0 0 -18 1913 2158 4 MP
PP
0 sg
-32 0 0 18 32 0 0 -18 1913 2158 5 MP stroke
gr

%%IncludeResource: font Symbol
/Symbol /ISOLatin1Encoding 120 FMSR

1601 2440 mt 
(u) s
%%IncludeResource: font Helvetica
/Helvetica /ISOLatin1Encoding 120 FMSR

 624 1537 mt  -90 rotate
(frequency) s
90 rotate
1 sg
0 1769 1392 0 0 -1769 2882 2158 4 MP
PP
-1392 0 0 1769 1392 0 0 -1769 2882 2158 5 MP stroke
4 w
DO
SO
6 w
0 sg
2882 2158 mt 4274 2158 L
2882  389 mt 4274  389 L
2882 2158 mt 2882  389 L
4274 2158 mt 4274  389 L
2882 2158 mt 4274 2158 L
2882 2158 mt 2882  389 L
2882 2158 mt 2882 2140 L
2882  389 mt 2882  406 L
2799 2303 mt 
(0.2) s
3578 2158 mt 3578 2140 L
3578  389 mt 3578  406 L
3495 2303 mt 
(0.3) s
4274 2158 mt 4274 2140 L
4274  389 mt 4274  406 L
4191 2303 mt 
(0.4) s
2882 2158 mt 2899 2158 L
4274 2158 mt 4256 2158 L
2781 2202 mt 
(0) s
2882 1905 mt 2899 1905 L
4274 1905 mt 4256 1905 L
2647 1949 mt 
(100) s
2882 1652 mt 2899 1652 L
4274 1652 mt 4256 1652 L
2647 1696 mt 
(200) s
2882 1399 mt 2899 1399 L
4274 1399 mt 4256 1399 L
2647 1443 mt 
(300) s
2882 1147 mt 2899 1147 L
4274 1147 mt 4256 1147 L
2647 1191 mt 
(400) s
2882  894 mt 2899  894 L
4274  894 mt 4256  894 L
2647  938 mt 
(500) s
2882  641 mt 2899  641 L
4274  641 mt 4256  641 L
2647  685 mt 
(600) s
2882  389 mt 2899  389 L
4274  389 mt 4256  389 L
2647  433 mt 
(700) s
2882 2158 mt 4274 2158 L
2882  389 mt 4274  389 L
2882 2158 mt 2882  389 L
4274 2158 mt 4274  389 L
gs 2882 389 1393 1770 MR c np
c8
0 3 22 0 0 -3 3288 2158 4 MP
PP
0 sg
-22 0 0 3 22 0 0 -3 3288 2158 5 MP stroke
c8
0 3 22 0 0 -3 3310 2158 4 MP
PP
0 sg
-22 0 0 3 22 0 0 -3 3310 2158 5 MP stroke
c8
0 3 21 0 0 -3 3332 2158 4 MP
PP
0 sg
-21 0 0 3 21 0 0 -3 3332 2158 5 MP stroke
c8
0 0 22 0 0 0 3353 2158 4 MP
PP
0 sg
-22 0 0 0 22 0 0 0 3353 2158 5 MP stroke
c8
0 6 22 0 0 -6 3375 2158 4 MP
PP
0 sg
-22 0 0 6 22 0 0 -6 3375 2158 5 MP stroke
c8
0 11 21 0 0 -11 3397 2158 4 MP
PP
0 sg
-21 0 0 11 21 0 0 -11 3397 2158 5 MP stroke
c8
0 11 22 0 0 -11 3418 2158 4 MP
PP
0 sg
-22 0 0 11 22 0 0 -11 3418 2158 5 MP stroke
c8
0 38 22 0 0 -38 3440 2158 4 MP
PP
0 sg
-22 0 0 38 22 0 0 -38 3440 2158 5 MP stroke
c8
0 46 22 0 0 -46 3462 2158 4 MP
PP
0 sg
-22 0 0 46 22 0 0 -46 3462 2158 5 MP stroke
c8
0 119 21 0 0 -119 3484 2158 4 MP
PP
0 sg
-21 0 0 119 21 0 0 -119 3484 2158 5 MP stroke
c8
0 180 22 0 0 -180 3505 2158 4 MP
PP
0 sg
-22 0 0 180 22 0 0 -180 3505 2158 5 MP stroke
c8
0 210 22 0 0 -210 3527 2158 4 MP
PP
0 sg
-22 0 0 210 22 0 0 -210 3527 2158 5 MP stroke
c8
0 435 22 0 0 -435 3549 2158 4 MP
PP
0 sg
-22 0 0 435 22 0 0 -435 3549 2158 5 MP stroke
c8
0 604 21 0 0 -604 3571 2158 4 MP
PP
0 sg
-21 0 0 604 21 0 0 -604 3571 2158 5 MP stroke
c8
0 824 22 0 0 -824 3592 2158 4 MP
PP
0 sg
-22 0 0 824 22 0 0 -824 3592 2158 5 MP stroke
c8
0 999 22 0 0 -999 3614 2158 4 MP
PP
0 sg
-22 0 0 999 22 0 0 -999 3614 2158 5 MP stroke
c8
0 1383 22 0 0 -1383 3636 2158 4 MP
PP
0 sg
-22 0 0 1383 22 0 0 -1383 3636 2158 5 MP stroke
c8
0 1699 21 0 0 -1699 3658 2158 4 MP
PP
0 sg
-21 0 0 1699 21 0 0 -1699 3658 2158 5 MP stroke
c8
0 1398 22 0 0 -1398 3679 2158 4 MP
PP
0 sg
-22 0 0 1398 22 0 0 -1398 3679 2158 5 MP stroke
c8
0 1125 22 0 0 -1125 3701 2158 4 MP
PP
0 sg
-22 0 0 1125 22 0 0 -1125 3701 2158 5 MP stroke
c8
0 1221 22 0 0 -1221 3723 2158 4 MP
PP
0 sg
-22 0 0 1221 22 0 0 -1221 3723 2158 5 MP stroke
c8
0 794 21 0 0 -794 3745 2158 4 MP
PP
0 sg
-21 0 0 794 21 0 0 -794 3745 2158 5 MP stroke
c8
0 736 22 0 0 -736 3766 2158 4 MP
PP
0 sg
-22 0 0 736 22 0 0 -736 3766 2158 5 MP stroke
c8
0 354 22 0 0 -354 3788 2158 4 MP
PP
0 sg
-22 0 0 354 22 0 0 -354 3788 2158 5 MP stroke
c8
0 263 21 0 0 -263 3810 2158 4 MP
PP
0 sg
-21 0 0 263 21 0 0 -263 3810 2158 5 MP stroke
c8
0 99 22 0 0 -99 3831 2158 4 MP
PP
0 sg
-22 0 0 99 22 0 0 -99 3831 2158 5 MP stroke
c8
0 33 22 0 0 -33 3853 2158 4 MP
PP
0 sg
-22 0 0 33 22 0 0 -33 3853 2158 5 MP stroke
c8
0 23 22 0 0 -23 3875 2158 4 MP
PP
0 sg
-22 0 0 23 22 0 0 -23 3875 2158 5 MP stroke
c8
0 23 21 0 0 -23 3897 2158 4 MP
PP
0 sg
-21 0 0 23 21 0 0 -23 3897 2158 5 MP stroke
c8
0 6 22 0 0 -6 3918 2158 4 MP
PP
0 sg
-22 0 0 6 22 0 0 -6 3918 2158 5 MP stroke
gr

%%IncludeResource: font Symbol
/Symbol /ISOLatin1Encoding 120 FMSR

3526 2408 mt 
(g) s
%%IncludeResource: font Helvetica
/Helvetica /ISOLatin1Encoding 96 FMSR

3575 2468 mt 
(1) s
%%IncludeResource: font Helvetica
/Helvetica /ISOLatin1Encoding 120 FMSR

2565 1537 mt  -90 rotate
(frequency) s
90 rotate
1 sg
0 1770 1392 0 0 -1770 4823 2158 4 MP
PP
-1392 0 0 1770 1392 0 0 -1770 4823 2158 5 MP stroke
4 w
DO
SO
6 w
0 sg
4823 2158 mt 6215 2158 L
4823  388 mt 6215  388 L
4823 2158 mt 4823  388 L
6215 2158 mt 6215  388 L
4823 2158 mt 6215 2158 L
4823 2158 mt 4823  388 L
4823 2158 mt 4823 2140 L
4823  389 mt 4823  406 L
4707 2303 mt 
(0.08) s
5519 2158 mt 5519 2140 L
5519  389 mt 5519  406 L
5436 2303 mt 
(0.1) s
6215 2158 mt 6215 2140 L
6215  389 mt 6215  406 L
6099 2303 mt 
(0.12) s
4823 2158 mt 4840 2158 L
6215 2158 mt 6197 2158 L
4722 2202 mt 
(0) s
4823 1863 mt 4840 1863 L
6215 1863 mt 6197 1863 L
4588 1907 mt 
(100) s
4823 1568 mt 4840 1568 L
6215 1568 mt 6197 1568 L
4588 1612 mt 
(200) s
4823 1273 mt 4840 1273 L
6215 1273 mt 6197 1273 L
4588 1317 mt 
(300) s
4823  978 mt 4840  978 L
6215  978 mt 6197  978 L
4588 1022 mt 
(400) s
4823  683 mt 4840  683 L
6215  683 mt 6197  683 L
4588  727 mt 
(500) s
4823  389 mt 4840  389 L
6215  389 mt 6197  389 L
4588  433 mt 
(600) s
4823 2158 mt 6215 2158 L
4823  388 mt 6215  388 L
4823 2158 mt 4823  388 L
6215 2158 mt 6215  388 L
gs 4823 389 1393 1770 MR c np
c8
0 12 35 0 0 -12 4978 2158 4 MP
PP
0 sg
-35 0 0 12 35 0 0 -12 4978 2158 5 MP stroke
c8
0 6 35 0 0 -6 5013 2158 4 MP
PP
0 sg
-35 0 0 6 35 0 0 -6 5013 2158 5 MP stroke
c8
0 24 36 0 0 -24 5048 2158 4 MP
PP
0 sg
-36 0 0 24 36 0 0 -24 5048 2158 5 MP stroke
c8
0 39 35 0 0 -39 5084 2158 4 MP
PP
0 sg
-35 0 0 39 35 0 0 -39 5084 2158 5 MP stroke
c8
0 71 36 0 0 -71 5119 2158 4 MP
PP
0 sg
-36 0 0 71 36 0 0 -71 5119 2158 5 MP stroke
c8
0 133 35 0 0 -133 5155 2158 4 MP
PP
0 sg
-35 0 0 133 35 0 0 -133 5155 2158 5 MP stroke
c8
0 225 36 0 0 -225 5190 2158 4 MP
PP
0 sg
-36 0 0 225 36 0 0 -225 5190 2158 5 MP stroke
c8
0 340 35 0 0 -340 5226 2158 4 MP
PP
0 sg
-35 0 0 340 35 0 0 -340 5226 2158 5 MP stroke
c8
0 676 35 0 0 -676 5261 2158 4 MP
PP
0 sg
-35 0 0 676 35 0 0 -676 5261 2158 5 MP stroke
c8
0 658 36 0 0 -658 5296 2158 4 MP
PP
0 sg
-36 0 0 658 36 0 0 -658 5296 2158 5 MP stroke
c8
0 808 35 0 0 -808 5332 2158 4 MP
PP
0 sg
-35 0 0 808 35 0 0 -808 5332 2158 5 MP stroke
c8
0 1142 36 0 0 -1142 5367 2158 4 MP
PP
0 sg
-36 0 0 1142 36 0 0 -1142 5367 2158 5 MP stroke
c8
0 1177 35 0 0 -1177 5403 2158 4 MP
PP
0 sg
-35 0 0 1177 35 0 0 -1177 5403 2158 5 MP stroke
c8
0 1271 35 0 0 -1271 5438 2158 4 MP
PP
0 sg
-35 0 0 1271 35 0 0 -1271 5438 2158 5 MP stroke
c8
0 1504 36 0 0 -1504 5473 2158 4 MP
PP
0 sg
-36 0 0 1504 36 0 0 -1504 5473 2158 5 MP stroke
c8
0 1133 35 0 0 -1133 5509 2158 4 MP
PP
0 sg
-35 0 0 1133 35 0 0 -1133 5509 2158 5 MP stroke
c8
0 1413 36 0 0 -1413 5544 2158 4 MP
PP
0 sg
-36 0 0 1413 36 0 0 -1413 5544 2158 5 MP stroke
c8
0 971 35 0 0 -971 5580 2158 4 MP
PP
0 sg
-35 0 0 971 35 0 0 -971 5580 2158 5 MP stroke
c8
0 847 35 0 0 -847 5615 2158 4 MP
PP
0 sg
-35 0 0 847 35 0 0 -847 5615 2158 5 MP stroke
c8
0 749 36 0 0 -749 5650 2158 4 MP
PP
0 sg
-36 0 0 749 36 0 0 -749 5650 2158 5 MP stroke
c8
0 519 35 0 0 -519 5686 2158 4 MP
PP
0 sg
-35 0 0 519 35 0 0 -519 5686 2158 5 MP stroke
c8
0 360 36 0 0 -360 5721 2158 4 MP
PP
0 sg
-36 0 0 360 36 0 0 -360 5721 2158 5 MP stroke
c8
0 263 35 0 0 -263 5757 2158 4 MP
PP
0 sg
-35 0 0 263 35 0 0 -263 5757 2158 5 MP stroke
c8
0 192 36 0 0 -192 5792 2158 4 MP
PP
0 sg
-36 0 0 192 36 0 0 -192 5792 2158 5 MP stroke
c8
0 92 35 0 0 -92 5828 2158 4 MP
PP
0 sg
-35 0 0 92 35 0 0 -92 5828 2158 5 MP stroke
c8
0 68 35 0 0 -68 5863 2158 4 MP
PP
0 sg
-35 0 0 68 35 0 0 -68 5863 2158 5 MP stroke
c8
0 24 36 0 0 -24 5898 2158 4 MP
PP
0 sg
-36 0 0 24 36 0 0 -24 5898 2158 5 MP stroke
c8
0 24 35 0 0 -24 5934 2158 4 MP
PP
0 sg
-35 0 0 24 35 0 0 -24 5934 2158 5 MP stroke
c8
0 9 36 0 0 -9 5969 2158 4 MP
PP
0 sg
-36 0 0 9 36 0 0 -9 5969 2158 5 MP stroke
c8
0 6 35 0 0 -6 6005 2158 4 MP
PP
0 sg
-35 0 0 6 35 0 0 -6 6005 2158 5 MP stroke
gr

%%IncludeResource: font Symbol
/Symbol /ISOLatin1Encoding 120 FMSR

5454 2408 mt 
(a) s
%%IncludeResource: font Helvetica
/Helvetica /ISOLatin1Encoding 96 FMSR

5529 2468 mt 
(1) s
%%IncludeResource: font Helvetica
/Helvetica /ISOLatin1Encoding 120 FMSR

4506 1537 mt  -90 rotate
(frequency) s
90 rotate
1 sg
0 1769 1393 0 0 -1769 940 4615 4 MP
PP
-1393 0 0 1769 1393 0 0 -1769 940 4615 5 MP stroke
4 w
DO
SO
6 w
0 sg
 940 4615 mt 2333 4615 L
 940 2846 mt 2333 2846 L
 940 4615 mt  940 2846 L
2333 4615 mt 2333 2846 L
 940 4615 mt 2333 4615 L
 940 4615 mt  940 2846 L
 940 4615 mt  940 4597 L
 940 2846 mt  940 2863 L
 857 4760 mt 
(0.2) s
1637 4615 mt 1637 4597 L
1637 2846 mt 1637 2863 L
1554 4760 mt 
(0.3) s
2333 4615 mt 2333 4597 L
2333 2846 mt 2333 2863 L
2250 4760 mt 
(0.4) s
 940 4615 mt  958 4615 L
2333 4615 mt 2315 4615 L
 840 4659 mt 
(0) s
 940 4261 mt  958 4261 L
2333 4261 mt 2315 4261 L
 706 4305 mt 
(100) s
 940 3907 mt  958 3907 L
2333 3907 mt 2315 3907 L
 706 3951 mt 
(200) s
 940 3553 mt  958 3553 L
2333 3553 mt 2315 3553 L
 706 3597 mt 
(300) s
 940 3199 mt  958 3199 L
2333 3199 mt 2315 3199 L
 706 3243 mt 
(400) s
 940 2846 mt  958 2846 L
2333 2846 mt 2315 2846 L
 706 2890 mt 
(500) s
 940 4615 mt 2333 4615 L
 940 2846 mt 2333 2846 L
 940 4615 mt  940 2846 L
2333 4615 mt 2333 2846 L
gs 940 2846 1394 1770 MR c np
c8
0 8 20 0 0 -8 1408 4615 4 MP
PP
0 sg
-20 0 0 8 20 0 0 -8 1408 4615 5 MP stroke
c8
0 22 21 0 0 -22 1428 4615 4 MP
PP
0 sg
-21 0 0 22 21 0 0 -22 1428 4615 5 MP stroke
c8
0 32 20 0 0 -32 1449 4615 4 MP
PP
0 sg
-20 0 0 32 20 0 0 -32 1449 4615 5 MP stroke
c8
0 18 21 0 0 -18 1469 4615 4 MP
PP
0 sg
-21 0 0 18 21 0 0 -18 1469 4615 5 MP stroke
c8
0 96 20 0 0 -96 1490 4615 4 MP
PP
0 sg
-20 0 0 96 20 0 0 -96 1490 4615 5 MP stroke
c8
0 78 21 0 0 -78 1510 4615 4 MP
PP
0 sg
-21 0 0 78 21 0 0 -78 1510 4615 5 MP stroke
c8
0 202 21 0 0 -202 1531 4615 4 MP
PP
0 sg
-21 0 0 202 21 0 0 -202 1531 4615 5 MP stroke
c8
0 287 20 0 0 -287 1552 4615 4 MP
PP
0 sg
-20 0 0 287 20 0 0 -287 1552 4615 5 MP stroke
c8
0 641 21 0 0 -641 1572 4615 4 MP
PP
0 sg
-21 0 0 641 21 0 0 -641 1572 4615 5 MP stroke
c8
0 899 20 0 0 -899 1593 4615 4 MP
PP
0 sg
-20 0 0 899 20 0 0 -899 1593 4615 5 MP stroke
c8
0 1069 21 0 0 -1069 1613 4615 4 MP
PP
0 sg
-21 0 0 1069 21 0 0 -1069 1613 4615 5 MP stroke
c8
0 1274 20 0 0 -1274 1634 4615 4 MP
PP
0 sg
-20 0 0 1274 20 0 0 -1274 1634 4615 5 MP stroke
c8
0 1458 21 0 0 -1458 1654 4615 4 MP
PP
0 sg
-21 0 0 1458 21 0 0 -1458 1654 4615 5 MP stroke
c8
0 1465 20 0 0 -1465 1675 4615 4 MP
PP
0 sg
-20 0 0 1465 20 0 0 -1465 1675 4615 5 MP stroke
c8
0 1731 21 0 0 -1731 1695 4615 4 MP
PP
0 sg
-21 0 0 1731 21 0 0 -1731 1695 4615 5 MP stroke
c8
0 1688 20 0 0 -1688 1716 4615 4 MP
PP
0 sg
-20 0 0 1688 20 0 0 -1688 1716 4615 5 MP stroke
c8
0 1532 21 0 0 -1532 1736 4615 4 MP
PP
0 sg
-21 0 0 1532 21 0 0 -1532 1736 4615 5 MP stroke
c8
0 1271 20 0 0 -1271 1757 4615 4 MP
PP
0 sg
-20 0 0 1271 20 0 0 -1271 1757 4615 5 MP stroke
c8
0 1119 21 0 0 -1119 1777 4615 4 MP
PP
0 sg
-21 0 0 1119 21 0 0 -1119 1777 4615 5 MP stroke
c8
0 917 20 0 0 -917 1798 4615 4 MP
PP
0 sg
-20 0 0 917 20 0 0 -917 1798 4615 5 MP stroke
c8
0 574 21 0 0 -574 1818 4615 4 MP
PP
0 sg
-21 0 0 574 21 0 0 -574 1818 4615 5 MP stroke
c8
0 521 20 0 0 -521 1839 4615 4 MP
PP
0 sg
-20 0 0 521 20 0 0 -521 1839 4615 5 MP stroke
c8
0 344 21 0 0 -344 1859 4615 4 MP
PP
0 sg
-21 0 0 344 21 0 0 -344 1859 4615 5 MP stroke
c8
0 216 20 0 0 -216 1880 4615 4 MP
PP
0 sg
-20 0 0 216 20 0 0 -216 1880 4615 5 MP stroke
c8
0 107 21 0 0 -107 1900 4615 4 MP
PP
0 sg
-21 0 0 107 21 0 0 -107 1900 4615 5 MP stroke
c8
0 54 20 0 0 -54 1921 4615 4 MP
PP
0 sg
-20 0 0 54 20 0 0 -54 1921 4615 5 MP stroke
c8
0 46 21 0 0 -46 1941 4615 4 MP
PP
0 sg
-21 0 0 46 21 0 0 -46 1941 4615 5 MP stroke
c8
0 15 21 0 0 -15 1962 4615 4 MP
PP
0 sg
-21 0 0 15 21 0 0 -15 1962 4615 5 MP stroke
c8
0 8 20 0 0 -8 1983 4615 4 MP
PP
0 sg
-20 0 0 8 20 0 0 -8 1983 4615 5 MP stroke
c8
0 15 21 0 0 -15 2003 4615 4 MP
PP
0 sg
-21 0 0 15 21 0 0 -15 2003 4615 5 MP stroke
gr

%%IncludeResource: font Symbol
/Symbol /ISOLatin1Encoding 120 FMSR

1577 4865 mt 
(b) s
%%IncludeResource: font Helvetica
/Helvetica /ISOLatin1Encoding 96 FMSR

1642 4925 mt 
(2) s
%%IncludeResource: font Helvetica
/Helvetica /ISOLatin1Encoding 120 FMSR

 624 3994 mt  -90 rotate
(frequency) s
90 rotate
1 sg
0 1769 1392 0 0 -1769 2882 4615 4 MP
PP
-1392 0 0 1769 1392 0 0 -1769 2882 4615 5 MP stroke
4 w
DO
SO
6 w
0 sg
2882 4615 mt 4274 4615 L
2882 2846 mt 4274 2846 L
2882 4615 mt 2882 2846 L
4274 4615 mt 4274 2846 L
2882 4615 mt 4274 4615 L
2882 4615 mt 2882 2846 L
2882 4615 mt 2882 4597 L
2882 2846 mt 2882 2863 L
2849 4760 mt 
(0) s
3346 4615 mt 3346 4597 L
3346 2846 mt 3346 2863 L
3196 4760 mt 
(0.005) s
3810 4615 mt 3810 4597 L
3810 2846 mt 3810 2863 L
3694 4760 mt 
(0.01) s
4274 4615 mt 4274 4597 L
4274 2846 mt 4274 2863 L
4124 4760 mt 
(0.015) s
2882 4615 mt 2899 4615 L
4274 4615 mt 4256 4615 L
2781 4659 mt 
(0) s
2882 4362 mt 2899 4362 L
4274 4362 mt 4256 4362 L
2647 4406 mt 
(100) s
2882 4109 mt 2899 4109 L
4274 4109 mt 4256 4109 L
2647 4153 mt 
(200) s
2882 3856 mt 2899 3856 L
4274 3856 mt 4256 3856 L
2647 3900 mt 
(300) s
2882 3604 mt 2899 3604 L
4274 3604 mt 4256 3604 L
2647 3648 mt 
(400) s
2882 3351 mt 2899 3351 L
4274 3351 mt 4256 3351 L
2647 3395 mt 
(500) s
2882 3098 mt 2899 3098 L
4274 3098 mt 4256 3098 L
2647 3142 mt 
(600) s
2882 2846 mt 2899 2846 L
4274 2846 mt 4256 2846 L
2647 2890 mt 
(700) s
2882 4615 mt 4274 4615 L
2882 2846 mt 4274 2846 L
2882 4615 mt 2882 2846 L
4274 4615 mt 4274 2846 L
gs 2882 2846 1393 1770 MR c np
c8
0 33 38 0 0 -33 3102 4615 4 MP
PP
0 sg
-38 0 0 33 38 0 0 -33 3102 4615 5 MP stroke
c8
0 253 39 0 0 -253 3140 4615 4 MP
PP
0 sg
-39 0 0 253 39 0 0 -253 3140 4615 5 MP stroke
c8
0 438 38 0 0 -438 3179 4615 4 MP
PP
0 sg
-38 0 0 438 38 0 0 -438 3179 4615 5 MP stroke
c8
0 1191 39 0 0 -1191 3217 4615 4 MP
PP
0 sg
-39 0 0 1191 39 0 0 -1191 3217 4615 5 MP stroke
c8
0 1507 38 0 0 -1507 3256 4615 4 MP
PP
0 sg
-38 0 0 1507 38 0 0 -1507 3256 4615 5 MP stroke
c8
0 1388 38 0 0 -1388 3294 4615 4 MP
PP
0 sg
-38 0 0 1388 38 0 0 -1388 3294 4615 5 MP stroke
c8
0 1575 39 0 0 -1575 3332 4615 4 MP
PP
0 sg
-39 0 0 1575 39 0 0 -1575 3332 4615 5 MP stroke
c8
0 1340 38 0 0 -1340 3371 4615 4 MP
PP
0 sg
-38 0 0 1340 38 0 0 -1340 3371 4615 5 MP stroke
c8
0 1110 39 0 0 -1110 3409 4615 4 MP
PP
0 sg
-39 0 0 1110 39 0 0 -1110 3409 4615 5 MP stroke
c8
0 948 38 0 0 -948 3448 4615 4 MP
PP
0 sg
-38 0 0 948 38 0 0 -948 3448 4615 5 MP stroke
c8
0 627 39 0 0 -627 3486 4615 4 MP
PP
0 sg
-39 0 0 627 39 0 0 -627 3486 4615 5 MP stroke
c8
0 546 38 0 0 -546 3525 4615 4 MP
PP
0 sg
-38 0 0 546 38 0 0 -546 3525 4615 5 MP stroke
c8
0 455 39 0 0 -455 3563 4615 4 MP
PP
0 sg
-39 0 0 455 39 0 0 -455 3563 4615 5 MP stroke
c8
0 284 38 0 0 -284 3602 4615 4 MP
PP
0 sg
-38 0 0 284 38 0 0 -284 3602 4615 5 MP stroke
c8
0 238 38 0 0 -238 3640 4615 4 MP
PP
0 sg
-38 0 0 238 38 0 0 -238 3640 4615 5 MP stroke
c8
0 193 39 0 0 -193 3678 4615 4 MP
PP
0 sg
-39 0 0 193 39 0 0 -193 3678 4615 5 MP stroke
c8
0 102 38 0 0 -102 3717 4615 4 MP
PP
0 sg
-38 0 0 102 38 0 0 -102 3717 4615 5 MP stroke
c8
0 117 39 0 0 -117 3755 4615 4 MP
PP
0 sg
-39 0 0 117 39 0 0 -117 3755 4615 5 MP stroke
c8
0 97 38 0 0 -97 3794 4615 4 MP
PP
0 sg
-38 0 0 97 38 0 0 -97 3794 4615 5 MP stroke
c8
0 43 39 0 0 -43 3832 4615 4 MP
PP
0 sg
-39 0 0 43 39 0 0 -43 3832 4615 5 MP stroke
c8
0 59 38 0 0 -59 3871 4615 4 MP
PP
0 sg
-38 0 0 59 38 0 0 -59 3871 4615 5 MP stroke
c8
0 21 39 0 0 -21 3909 4615 4 MP
PP
0 sg
-39 0 0 21 39 0 0 -21 3909 4615 5 MP stroke
c8
0 28 38 0 0 -28 3948 4615 4 MP
PP
0 sg
-38 0 0 28 38 0 0 -28 3948 4615 5 MP stroke
c8
0 3 38 0 0 -3 3986 4615 4 MP
PP
0 sg
-38 0 0 3 38 0 0 -3 3986 4615 5 MP stroke
c8
0 21 39 0 0 -21 4024 4615 4 MP
PP
0 sg
-39 0 0 21 39 0 0 -21 4024 4615 5 MP stroke
c8
0 16 38 0 0 -16 4063 4615 4 MP
PP
0 sg
-38 0 0 16 38 0 0 -16 4063 4615 5 MP stroke
c8
0 3 39 0 0 -3 4101 4615 4 MP
PP
0 sg
-39 0 0 3 39 0 0 -3 4101 4615 5 MP stroke
c8
0 8 38 0 0 -8 4140 4615 4 MP
PP
0 sg
-38 0 0 8 38 0 0 -8 4140 4615 5 MP stroke
c8
0 6 39 0 0 -6 4178 4615 4 MP
PP
0 sg
-39 0 0 6 39 0 0 -6 4178 4615 5 MP stroke
c8
0 3 38 0 0 -3 4217 4615 4 MP
PP
0 sg
-38 0 0 3 38 0 0 -3 4217 4615 5 MP stroke
gr

%%IncludeResource: font Symbol
/Symbol /ISOLatin1Encoding 120 FMSR

3514 4892 mt 
(s) s
%%IncludeResource: font Symbol
/Symbol /ISOLatin1Encoding 96 FMSR

3586 4952 mt 
(r) s
%%IncludeResource: font Helvetica
/Helvetica /ISOLatin1Encoding 96 FMSR

3586 4832 mt 
(2) s
%%IncludeResource: font Helvetica
/Helvetica /ISOLatin1Encoding 120 FMSR

2565 3994 mt  -90 rotate
(frequency) s
90 rotate
1 sg
0 1769 1392 0 0 -1769 4823 4615 4 MP
PP
-1392 0 0 1769 1392 0 0 -1769 4823 4615 5 MP stroke
4 w
DO
SO
6 w
0 sg
4823 4615 mt 6215 4615 L
4823 2846 mt 6215 2846 L
4823 4615 mt 4823 2846 L
6215 4615 mt 6215 2846 L
4823 4615 mt 6215 4615 L
4823 4615 mt 4823 2846 L
4823 4615 mt 4823 4597 L
4823 2846 mt 4823 2863 L
4790 4760 mt 
(0) s
5519 4615 mt 5519 4597 L
5519 2846 mt 5519 2863 L
5436 4760 mt 
(0.5) s
6215 4615 mt 6215 4597 L
6215 2846 mt 6215 2863 L
6182 4760 mt 
(1) s
5898 4962 mt 
(x 10) s
%%IncludeResource: font Helvetica
/Helvetica /ISOLatin1Encoding 80 FMSR

6124 4888 mt 
(-3) s
4823 4615 mt 4840 4615 L
6215 4615 mt 6197 4615 L
%%IncludeResource: font Helvetica
/Helvetica /ISOLatin1Encoding 120 FMSR

4722 4659 mt 
(0) s
4823 4362 mt 4840 4362 L
6215 4362 mt 6197 4362 L
4588 4406 mt 
(100) s
4823 4109 mt 4840 4109 L
6215 4109 mt 6197 4109 L
4588 4153 mt 
(200) s
4823 3856 mt 4840 3856 L
6215 3856 mt 6197 3856 L
4588 3900 mt 
(300) s
4823 3604 mt 4840 3604 L
6215 3604 mt 6197 3604 L
4588 3648 mt 
(400) s
4823 3351 mt 4840 3351 L
6215 3351 mt 6197 3351 L
4588 3395 mt 
(500) s
4823 3098 mt 4840 3098 L
6215 3098 mt 6197 3098 L
4588 3142 mt 
(600) s
4823 2846 mt 4840 2846 L
6215 2846 mt 6197 2846 L
4588 2890 mt 
(700) s
4823 4615 mt 6215 4615 L
4823 2846 mt 6215 2846 L
4823 4615 mt 4823 2846 L
6215 4615 mt 6215 2846 L
gs 4823 2846 1393 1770 MR c np
c8
0 21 30 0 0 -21 4969 4615 4 MP
PP
0 sg
-30 0 0 21 30 0 0 -21 4969 4615 5 MP stroke
c8
0 160 30 0 0 -160 4999 4615 4 MP
PP
0 sg
-30 0 0 160 30 0 0 -160 4999 4615 5 MP stroke
c8
0 556 29 0 0 -556 5029 4615 4 MP
PP
0 sg
-29 0 0 556 29 0 0 -556 5029 4615 5 MP stroke
c8
0 1049 30 0 0 -1049 5058 4615 4 MP
PP
0 sg
-30 0 0 1049 30 0 0 -1049 5058 4615 5 MP stroke
c8
0 1317 30 0 0 -1317 5088 4615 4 MP
PP
0 sg
-30 0 0 1317 30 0 0 -1317 5088 4615 5 MP stroke
c8
0 1732 29 0 0 -1732 5118 4615 4 MP
PP
0 sg
-29 0 0 1732 29 0 0 -1732 5118 4615 5 MP stroke
c8
0 1633 30 0 0 -1633 5147 4615 4 MP
PP
0 sg
-30 0 0 1633 30 0 0 -1633 5147 4615 5 MP stroke
c8
0 1582 30 0 0 -1582 5177 4615 4 MP
PP
0 sg
-30 0 0 1582 30 0 0 -1582 5177 4615 5 MP stroke
c8
0 1264 29 0 0 -1264 5207 4615 4 MP
PP
0 sg
-29 0 0 1264 29 0 0 -1264 5207 4615 5 MP stroke
c8
0 1080 30 0 0 -1080 5236 4615 4 MP
PP
0 sg
-30 0 0 1080 30 0 0 -1080 5236 4615 5 MP stroke
c8
0 827 30 0 0 -827 5266 4615 4 MP
PP
0 sg
-30 0 0 827 30 0 0 -827 5266 4615 5 MP stroke
c8
0 516 29 0 0 -516 5296 4615 4 MP
PP
0 sg
-29 0 0 516 29 0 0 -516 5296 4615 5 MP stroke
c8
0 349 30 0 0 -349 5325 4615 4 MP
PP
0 sg
-30 0 0 349 30 0 0 -349 5325 4615 5 MP stroke
c8
0 258 30 0 0 -258 5355 4615 4 MP
PP
0 sg
-30 0 0 258 30 0 0 -258 5355 4615 5 MP stroke
c8
0 109 29 0 0 -109 5385 4615 4 MP
PP
0 sg
-29 0 0 109 29 0 0 -109 5385 4615 5 MP stroke
c8
0 76 30 0 0 -76 5414 4615 4 MP
PP
0 sg
-30 0 0 76 30 0 0 -76 5414 4615 5 MP stroke
c8
0 43 30 0 0 -43 5444 4615 4 MP
PP
0 sg
-30 0 0 43 30 0 0 -43 5444 4615 5 MP stroke
c8
0 43 29 0 0 -43 5474 4615 4 MP
PP
0 sg
-29 0 0 43 29 0 0 -43 5474 4615 5 MP stroke
c8
0 3 30 0 0 -3 5503 4615 4 MP
PP
0 sg
-30 0 0 3 30 0 0 -3 5503 4615 5 MP stroke
c8
0 0 30 0 0 0 5533 4615 4 MP
PP
0 sg
-30 0 0 0 30 0 0 0 5533 4615 5 MP stroke
c8
0 0 29 0 0 0 5563 4615 4 MP
PP
0 sg
-29 0 0 0 29 0 0 0 5563 4615 5 MP stroke
c8
0 3 30 0 0 -3 5592 4615 4 MP
PP
0 sg
-30 0 0 3 30 0 0 -3 5592 4615 5 MP stroke
c8
0 8 30 0 0 -8 5622 4615 4 MP
PP
0 sg
-30 0 0 8 30 0 0 -8 5622 4615 5 MP stroke
c8
0 6 29 0 0 -6 5652 4615 4 MP
PP
0 sg
-29 0 0 6 29 0 0 -6 5652 4615 5 MP stroke
c8
0 6 30 0 0 -6 5681 4615 4 MP
PP
0 sg
-30 0 0 6 30 0 0 -6 5681 4615 5 MP stroke
c8
0 0 30 0 0 0 5711 4615 4 MP
PP
0 sg
-30 0 0 0 30 0 0 0 5711 4615 5 MP stroke
c8
0 0 29 0 0 0 5741 4615 4 MP
PP
0 sg
-29 0 0 0 29 0 0 0 5741 4615 5 MP stroke
c8
0 3 30 0 0 -3 5770 4615 4 MP
PP
0 sg
-30 0 0 3 30 0 0 -3 5770 4615 5 MP stroke
c8
0 0 30 0 0 0 5800 4615 4 MP
PP
0 sg
-30 0 0 0 30 0 0 0 5800 4615 5 MP stroke
c8
0 3 29 0 0 -3 5830 4615 4 MP
PP
0 sg
-29 0 0 3 29 0 0 -3 5830 4615 5 MP stroke
gr

%%IncludeResource: font Symbol
/Symbol /ISOLatin1Encoding 120 FMSR

5455 4885 mt 
(s) s
%%IncludeResource: font Helvetica
/Helvetica /ISOLatin1Encoding 96 FMSR

5527 4945 mt 
(n) s
5527 4825 mt 
(2) s
%%IncludeResource: font Helvetica
/Helvetica /ISOLatin1Encoding 120 FMSR

4506 3994 mt  -90 rotate
(frequency) s
90 rotate

end %%Color Dict

eplot
%%EndObject

epage
end

showpage

%%Trailer
%%EOF
