%!PS-Adobe-2.0 EPSF-1.2
%%Creator: MATLAB, The MathWorks, Inc. Version 8.1.0.604 (R2013a). Operating System: Linux 3.13.0-40-generic #69-Ubuntu SMP Thu Nov 13 17:53:56 UTC 2014 x86_64.
%%Title: /home/xiaolin/Documents/model_selection/model_selection_log003new/YH/data_figures/sampleHist.eps
%%CreationDate: 10/25/2015  06:52:24
%%DocumentNeededFonts: Helvetica
%%DocumentProcessColors: Cyan Magenta Yellow Black
%%Pages: 1
%%BoundingBox:    58   194   549   589
%%EndComments

%%BeginProlog
% MathWorks dictionary
/MathWorks 160 dict begin
% definition operators
/bdef {bind def} bind def
/ldef {load def} bind def
/xdef {exch def} bdef
/xstore {exch store} bdef
% operator abbreviations
/c  /clip ldef
/cc /concat ldef
/cp /closepath ldef
/gr /grestore ldef
/gs /gsave ldef
/mt /moveto ldef
/np /newpath ldef
/cm /currentmatrix ldef
/sm /setmatrix ldef
/rm /rmoveto ldef
/rl /rlineto ldef
/s {show newpath} bdef
/sc {setcmykcolor} bdef
/sr /setrgbcolor ldef
/sg /setgray ldef
/w /setlinewidth ldef
/j /setlinejoin ldef
/cap /setlinecap ldef
/rc {rectclip} bdef
/rf {rectfill} bdef
% page state control
/pgsv () def
/bpage {/pgsv save def} bdef
/epage {pgsv restore} bdef
/bplot /gsave ldef
/eplot {stroke grestore} bdef
% orientation switch
/portraitMode 0 def /landscapeMode 1 def /rotateMode 2 def
% coordinate system mappings
/dpi2point 0 def
% font control
/FontSize 0 def
/FMS {/FontSize xstore findfont [FontSize 0 0 FontSize neg 0 0]
  makefont setfont} bdef
/reencode {exch dup where {pop load} {pop StandardEncoding} ifelse
  exch dup 3 1 roll findfont dup length dict begin
  { 1 index /FID ne {def}{pop pop} ifelse } forall
  /Encoding exch def currentdict end definefont pop} bdef
/isroman {findfont /CharStrings get /Agrave known} bdef
/FMSR {3 1 roll 1 index dup isroman {reencode} {pop pop} ifelse
  exch FMS} bdef
/csm {1 dpi2point div -1 dpi2point div scale neg translate
 dup landscapeMode eq {pop -90 rotate}
  {rotateMode eq {90 rotate} if} ifelse} bdef
% line types: solid, dotted, dashed, dotdash
/SO { [] 0 setdash } bdef
/DO { [.5 dpi2point mul 4 dpi2point mul] 0 setdash } bdef
/DA { [6 dpi2point mul] 0 setdash } bdef
/DD { [.5 dpi2point mul 4 dpi2point mul 6 dpi2point mul 4
  dpi2point mul] 0 setdash } bdef
% macros for lines and objects
/L {lineto stroke} bdef
/MP {3 1 roll moveto 1 sub {rlineto} repeat} bdef
/AP {{rlineto} repeat} bdef
/PDlw -1 def
/W {/PDlw currentlinewidth def setlinewidth} def
/PP {closepath eofill} bdef
/DP {closepath stroke} bdef
/MR {4 -2 roll moveto dup  0 exch rlineto exch 0 rlineto
  neg 0 exch rlineto closepath} bdef
/FR {MR stroke} bdef
/PR {MR fill} bdef
/L1i {{currentfile picstr readhexstring pop} image} bdef
/tMatrix matrix def
/MakeOval {newpath tMatrix currentmatrix pop translate scale
0 0 1 0 360 arc tMatrix setmatrix} bdef
/FO {MakeOval stroke} bdef
/PO {MakeOval fill} bdef
/PD {currentlinewidth 2 div 0 360 arc fill
   PDlw -1 eq not {PDlw w /PDlw -1 def} if} def
/FA {newpath tMatrix currentmatrix pop translate scale
  0 0 1 5 -2 roll arc tMatrix setmatrix stroke} bdef
/PA {newpath tMatrix currentmatrix pop	translate 0 0 moveto scale
  0 0 1 5 -2 roll arc closepath tMatrix setmatrix fill} bdef
/FAn {newpath tMatrix currentmatrix pop translate scale
  0 0 1 5 -2 roll arcn tMatrix setmatrix stroke} bdef
/PAn {newpath tMatrix currentmatrix pop translate 0 0 moveto scale
  0 0 1 5 -2 roll arcn closepath tMatrix setmatrix fill} bdef
/vradius 0 def /hradius 0 def /lry 0 def
/lrx 0 def /uly 0 def /ulx 0 def /rad 0 def
/MRR {/vradius xdef /hradius xdef /lry xdef /lrx xdef /uly xdef
  /ulx xdef newpath tMatrix currentmatrix pop ulx hradius add uly
  vradius add translate hradius vradius scale 0 0 1 180 270 arc 
  tMatrix setmatrix lrx hradius sub uly vradius add translate
  hradius vradius scale 0 0 1 270 360 arc tMatrix setmatrix
  lrx hradius sub lry vradius sub translate hradius vradius scale
  0 0 1 0 90 arc tMatrix setmatrix ulx hradius add lry vradius sub
  translate hradius vradius scale 0 0 1 90 180 arc tMatrix setmatrix
  closepath} bdef
/FRR {MRR stroke } bdef
/PRR {MRR fill } bdef
/MlrRR {/lry xdef /lrx xdef /uly xdef /ulx xdef /rad lry uly sub 2 div def
  newpath tMatrix currentmatrix pop ulx rad add uly rad add translate
  rad rad scale 0 0 1 90 270 arc tMatrix setmatrix lrx rad sub lry rad
  sub translate rad rad scale 0 0 1 270 90 arc tMatrix setmatrix
  closepath} bdef
/FlrRR {MlrRR stroke } bdef
/PlrRR {MlrRR fill } bdef
/MtbRR {/lry xdef /lrx xdef /uly xdef /ulx xdef /rad lrx ulx sub 2 div def
  newpath tMatrix currentmatrix pop ulx rad add uly rad add translate
  rad rad scale 0 0 1 180 360 arc tMatrix setmatrix lrx rad sub lry rad
  sub translate rad rad scale 0 0 1 0 180 arc tMatrix setmatrix
  closepath} bdef
/FtbRR {MtbRR stroke } bdef
/PtbRR {MtbRR fill } bdef
/stri 6 array def /dtri 6 array def
/smat 6 array def /dmat 6 array def
/tmat1 6 array def /tmat2 6 array def /dif 3 array def
/asub {/ind2 exch def /ind1 exch def dup dup
  ind1 get exch ind2 get sub exch } bdef
/tri_to_matrix {
  2 0 asub 3 1 asub 4 0 asub 5 1 asub
  dup 0 get exch 1 get 7 -1 roll astore } bdef
/compute_transform {
  dmat dtri tri_to_matrix tmat1 invertmatrix 
  smat stri tri_to_matrix tmat2 concatmatrix } bdef
/ds {stri astore pop} bdef
/dt {dtri astore pop} bdef
/db {2 copy /cols xdef /rows xdef mul dup string
  currentfile exch readhexstring pop
  /bmap xdef pop pop} bdef
/it {gs np dtri aload pop moveto lineto lineto cp c
  cols rows 8 compute_transform 
  {bmap} image gr}bdef
/il {newpath moveto lineto stroke}bdef
currentdict end def
%%EndProlog

%%BeginSetup
MathWorks begin

0 cap

end
%%EndSetup

%%Page: 1 1
%%BeginPageSetup
%%PageBoundingBox:    58   194   549   589
MathWorks begin
bpage
%%EndPageSetup

%%BeginObject: obj1
bplot

/dpi2point 12 def
portraitMode 0216 7344 csm

  488   274  5893  4731 MR c np
85 dict begin %Colortable dictionary
/c0 { 0.000000 0.000000 0.000000 sr} bdef
/c1 { 1.000000 1.000000 1.000000 sr} bdef
/c2 { 0.900000 0.000000 0.000000 sr} bdef
/c3 { 0.000000 0.820000 0.000000 sr} bdef
/c4 { 0.000000 0.000000 0.800000 sr} bdef
/c5 { 0.910000 0.820000 0.320000 sr} bdef
/c6 { 1.000000 0.260000 0.820000 sr} bdef
/c7 { 0.000000 0.820000 0.820000 sr} bdef
c0
1 j
1 sg
   0    0 6913 5186 PR
6 w
0 1770 1392 0 0 -1770 941 2158 4 MP
PP
-1392 0 0 1770 1392 0 0 -1770 941 2158 5 MP stroke
4 w
DO
SO
6 w
0 sg
 941 2158 mt 2333 2158 L
 941  388 mt 2333  388 L
 941 2158 mt  941  388 L
2333 2158 mt 2333  388 L
 941 2158 mt 2333 2158 L
 941 2158 mt  941  388 L
 941 2158 mt  941 2140 L
 941  389 mt  941  406 L
%%IncludeResource: font Helvetica
/Helvetica /ISOLatin1Encoding 120 FMSR

 825 2303 mt 
(0.78) s
1637 2158 mt 1637 2140 L
1637  389 mt 1637  406 L
1554 2303 mt 
(0.8) s
2333 2158 mt 2333 2140 L
2333  389 mt 2333  406 L
2217 2303 mt 
(0.82) s
 941 2158 mt  958 2158 L
2333 2158 mt 2315 2158 L
 840 2202 mt 
(0) s
 941 1804 mt  958 1804 L
2333 1804 mt 2315 1804 L
 706 1848 mt 
(100) s
 941 1450 mt  958 1450 L
2333 1450 mt 2315 1450 L
 706 1494 mt 
(200) s
 941 1096 mt  958 1096 L
2333 1096 mt 2315 1096 L
 706 1140 mt 
(300) s
 941  742 mt  958  742 L
2333  742 mt 2315  742 L
 706  786 mt 
(400) s
 941  389 mt  958  389 L
2333  389 mt 2315  389 L
 706  433 mt 
(500) s
 941 2158 mt 2333 2158 L
 941  388 mt 2333  388 L
 941 2158 mt  941  388 L
2333 2158 mt 2333  388 L
gs 941 389 1393 1770 MR c np
/c8 { 0.000000 0.000000 0.562500 sr} bdef
c8
0 29 18 0 0 -29 1153 2158 4 MP
PP
0 sg
-18 0 0 29 18 0 0 -29 1153 2158 5 MP stroke
c8
0 25 17 0 0 -25 1171 2158 4 MP
PP
0 sg
-17 0 0 25 17 0 0 -25 1171 2158 5 MP stroke
c8
0 78 18 0 0 -78 1188 2158 4 MP
PP
0 sg
-18 0 0 78 18 0 0 -78 1188 2158 5 MP stroke
c8
0 75 18 0 0 -75 1206 2158 4 MP
PP
0 sg
-18 0 0 75 18 0 0 -75 1206 2158 5 MP stroke
c8
0 135 17 0 0 -135 1224 2158 4 MP
PP
0 sg
-17 0 0 135 17 0 0 -135 1224 2158 5 MP stroke
c8
0 223 18 0 0 -223 1241 2158 4 MP
PP
0 sg
-18 0 0 223 18 0 0 -223 1241 2158 5 MP stroke
c8
0 376 18 0 0 -376 1259 2158 4 MP
PP
0 sg
-18 0 0 376 18 0 0 -376 1259 2158 5 MP stroke
c8
0 662 18 0 0 -662 1277 2158 4 MP
PP
0 sg
-18 0 0 662 18 0 0 -662 1277 2158 5 MP stroke
c8
0 903 17 0 0 -903 1295 2158 4 MP
PP
0 sg
-17 0 0 903 17 0 0 -903 1295 2158 5 MP stroke
c8
0 1497 18 0 0 -1497 1312 2158 4 MP
PP
0 sg
-18 0 0 1497 18 0 0 -1497 1312 2158 5 MP stroke
c8
0 1501 18 0 0 -1501 1330 2158 4 MP
PP
0 sg
-18 0 0 1501 18 0 0 -1501 1330 2158 5 MP stroke
c8
0 1571 17 0 0 -1571 1348 2158 4 MP
PP
0 sg
-17 0 0 1571 17 0 0 -1571 1348 2158 5 MP stroke
c8
0 1536 18 0 0 -1536 1365 2158 4 MP
PP
0 sg
-18 0 0 1536 18 0 0 -1536 1365 2158 5 MP stroke
c8
0 1713 18 0 0 -1713 1383 2158 4 MP
PP
0 sg
-18 0 0 1713 18 0 0 -1713 1383 2158 5 MP stroke
c8
0 1515 17 0 0 -1515 1401 2158 4 MP
PP
0 sg
-17 0 0 1515 17 0 0 -1515 1401 2158 5 MP stroke
c8
0 1522 18 0 0 -1522 1418 2158 4 MP
PP
0 sg
-18 0 0 1522 18 0 0 -1522 1418 2158 5 MP stroke
c8
0 1302 18 0 0 -1302 1436 2158 4 MP
PP
0 sg
-18 0 0 1302 18 0 0 -1302 1436 2158 5 MP stroke
c8
0 942 18 0 0 -942 1454 2158 4 MP
PP
0 sg
-18 0 0 942 18 0 0 -942 1454 2158 5 MP stroke
c8
0 623 17 0 0 -623 1472 2158 4 MP
PP
0 sg
-17 0 0 623 17 0 0 -623 1472 2158 5 MP stroke
c8
0 503 18 0 0 -503 1489 2158 4 MP
PP
0 sg
-18 0 0 503 18 0 0 -503 1489 2158 5 MP stroke
c8
0 322 18 0 0 -322 1507 2158 4 MP
PP
0 sg
-18 0 0 322 18 0 0 -322 1507 2158 5 MP stroke
c8
0 227 17 0 0 -227 1525 2158 4 MP
PP
0 sg
-17 0 0 227 17 0 0 -227 1525 2158 5 MP stroke
c8
0 184 18 0 0 -184 1542 2158 4 MP
PP
0 sg
-18 0 0 184 18 0 0 -184 1542 2158 5 MP stroke
c8
0 96 18 0 0 -96 1560 2158 4 MP
PP
0 sg
-18 0 0 96 18 0 0 -96 1560 2158 5 MP stroke
c8
0 100 17 0 0 -100 1578 2158 4 MP
PP
0 sg
-17 0 0 100 17 0 0 -100 1578 2158 5 MP stroke
c8
0 18 18 0 0 -18 1595 2158 4 MP
PP
0 sg
-18 0 0 18 18 0 0 -18 1595 2158 5 MP stroke
c8
0 8 18 0 0 -8 1613 2158 4 MP
PP
0 sg
-18 0 0 8 18 0 0 -8 1613 2158 5 MP stroke
c8
0 15 18 0 0 -15 1631 2158 4 MP
PP
0 sg
-18 0 0 15 18 0 0 -15 1631 2158 5 MP stroke
c8
0 0 17 0 0 0 1649 2158 4 MP
PP
0 sg
-17 0 0 0 17 0 0 0 1649 2158 5 MP stroke
c8
0 4 18 0 0 -4 1666 2158 4 MP
PP
0 sg
-18 0 0 4 18 0 0 -4 1666 2158 5 MP stroke
gr

%%IncludeResource: font Symbol
/Symbol /ISOLatin1Encoding 120 FMSR

1601 2440 mt 
(u) s
%%IncludeResource: font Helvetica
/Helvetica /ISOLatin1Encoding 120 FMSR

 624 1537 mt  -90 rotate
(frequency) s
90 rotate
1 sg
0 1770 1392 0 0 -1770 2882 2158 4 MP
PP
-1392 0 0 1770 1392 0 0 -1770 2882 2158 5 MP stroke
4 w
DO
SO
6 w
0 sg
2882 2158 mt 4274 2158 L
2882  388 mt 4274  388 L
2882 2158 mt 2882  388 L
4274 2158 mt 4274  388 L
2882 2158 mt 4274 2158 L
2882 2158 mt 2882  388 L
2882 2158 mt 2882 2140 L
2882  389 mt 2882  406 L
2766 2303 mt 
(0.05) s
3578 2158 mt 3578 2140 L
3578  389 mt 3578  406 L
3495 2303 mt 
(0.1) s
4274 2158 mt 4274 2140 L
4274  389 mt 4274  406 L
4158 2303 mt 
(0.15) s
2882 2158 mt 2899 2158 L
4274 2158 mt 4256 2158 L
2781 2202 mt 
(0) s
2882 1804 mt 2899 1804 L
4274 1804 mt 4256 1804 L
2647 1848 mt 
(100) s
2882 1450 mt 2899 1450 L
4274 1450 mt 4256 1450 L
2647 1494 mt 
(200) s
2882 1096 mt 2899 1096 L
4274 1096 mt 4256 1096 L
2647 1140 mt 
(300) s
2882  742 mt 2899  742 L
4274  742 mt 4256  742 L
2647  786 mt 
(400) s
2882  389 mt 2899  389 L
4274  389 mt 4256  389 L
2647  433 mt 
(500) s
2882 2158 mt 4274 2158 L
2882  388 mt 4274  388 L
2882 2158 mt 2882  388 L
4274 2158 mt 4274  388 L
gs 2882 389 1393 1770 MR c np
c8
0 8 15 0 0 -8 3447 2158 4 MP
PP
0 sg
-15 0 0 8 15 0 0 -8 3447 2158 5 MP stroke
c8
0 18 14 0 0 -18 3462 2158 4 MP
PP
0 sg
-14 0 0 18 14 0 0 -18 3462 2158 5 MP stroke
c8
0 8 15 0 0 -8 3476 2158 4 MP
PP
0 sg
-15 0 0 8 15 0 0 -8 3476 2158 5 MP stroke
c8
0 29 15 0 0 -29 3491 2158 4 MP
PP
0 sg
-15 0 0 29 15 0 0 -29 3491 2158 5 MP stroke
c8
0 43 15 0 0 -43 3506 2158 4 MP
PP
0 sg
-15 0 0 43 15 0 0 -43 3506 2158 5 MP stroke
c8
0 82 15 0 0 -82 3521 2158 4 MP
PP
0 sg
-15 0 0 82 15 0 0 -82 3521 2158 5 MP stroke
c8
0 124 14 0 0 -124 3536 2158 4 MP
PP
0 sg
-14 0 0 124 14 0 0 -124 3536 2158 5 MP stroke
c8
0 167 15 0 0 -167 3550 2158 4 MP
PP
0 sg
-15 0 0 167 15 0 0 -167 3550 2158 5 MP stroke
c8
0 308 15 0 0 -308 3565 2158 4 MP
PP
0 sg
-15 0 0 308 15 0 0 -308 3565 2158 5 MP stroke
c8
0 492 15 0 0 -492 3580 2158 4 MP
PP
0 sg
-15 0 0 492 15 0 0 -492 3580 2158 5 MP stroke
c8
0 563 15 0 0 -563 3595 2158 4 MP
PP
0 sg
-15 0 0 563 15 0 0 -563 3595 2158 5 MP stroke
c8
0 758 14 0 0 -758 3610 2158 4 MP
PP
0 sg
-14 0 0 758 14 0 0 -758 3610 2158 5 MP stroke
c8
0 1165 15 0 0 -1165 3624 2158 4 MP
PP
0 sg
-15 0 0 1165 15 0 0 -1165 3624 2158 5 MP stroke
c8
0 1508 15 0 0 -1508 3639 2158 4 MP
PP
0 sg
-15 0 0 1508 15 0 0 -1508 3639 2158 5 MP stroke
c8
0 1607 15 0 0 -1607 3654 2158 4 MP
PP
0 sg
-15 0 0 1607 15 0 0 -1607 3654 2158 5 MP stroke
c8
0 1741 15 0 0 -1741 3669 2158 4 MP
PP
0 sg
-15 0 0 1741 15 0 0 -1741 3669 2158 5 MP stroke
c8
0 1752 14 0 0 -1752 3684 2158 4 MP
PP
0 sg
-14 0 0 1752 14 0 0 -1752 3684 2158 5 MP stroke
c8
0 1660 15 0 0 -1660 3698 2158 4 MP
PP
0 sg
-15 0 0 1660 15 0 0 -1660 3698 2158 5 MP stroke
c8
0 1607 15 0 0 -1607 3713 2158 4 MP
PP
0 sg
-15 0 0 1607 15 0 0 -1607 3713 2158 5 MP stroke
c8
0 1281 15 0 0 -1281 3728 2158 4 MP
PP
0 sg
-15 0 0 1281 15 0 0 -1281 3728 2158 5 MP stroke
c8
0 1037 15 0 0 -1037 3743 2158 4 MP
PP
0 sg
-15 0 0 1037 15 0 0 -1037 3743 2158 5 MP stroke
c8
0 800 14 0 0 -800 3758 2158 4 MP
PP
0 sg
-14 0 0 800 14 0 0 -800 3758 2158 5 MP stroke
c8
0 404 15 0 0 -404 3772 2158 4 MP
PP
0 sg
-15 0 0 404 15 0 0 -404 3772 2158 5 MP stroke
c8
0 195 15 0 0 -195 3787 2158 4 MP
PP
0 sg
-15 0 0 195 15 0 0 -195 3787 2158 5 MP stroke
c8
0 124 15 0 0 -124 3802 2158 4 MP
PP
0 sg
-15 0 0 124 15 0 0 -124 3802 2158 5 MP stroke
c8
0 100 15 0 0 -100 3817 2158 4 MP
PP
0 sg
-15 0 0 100 15 0 0 -100 3817 2158 5 MP stroke
c8
0 43 14 0 0 -43 3832 2158 4 MP
PP
0 sg
-14 0 0 43 14 0 0 -43 3832 2158 5 MP stroke
c8
0 61 15 0 0 -61 3846 2158 4 MP
PP
0 sg
-15 0 0 61 15 0 0 -61 3846 2158 5 MP stroke
c8
0 11 15 0 0 -11 3861 2158 4 MP
PP
0 sg
-15 0 0 11 15 0 0 -11 3861 2158 5 MP stroke
c8
0 11 15 0 0 -11 3876 2158 4 MP
PP
0 sg
-15 0 0 11 15 0 0 -11 3876 2158 5 MP stroke
gr

%%IncludeResource: font Symbol
/Symbol /ISOLatin1Encoding 120 FMSR

3513 2408 mt 
(a) s
%%IncludeResource: font Helvetica
/Helvetica /ISOLatin1Encoding 96 FMSR

3588 2468 mt 
(1) s
%%IncludeResource: font Helvetica
/Helvetica /ISOLatin1Encoding 120 FMSR

2565 1537 mt  -90 rotate
(frequency) s
90 rotate
1 sg
0 1770 1392 0 0 -1770 4823 2158 4 MP
PP
-1392 0 0 1770 1392 0 0 -1770 4823 2158 5 MP stroke
4 w
DO
SO
6 w
0 sg
4823 2158 mt 6215 2158 L
4823  388 mt 6215  388 L
4823 2158 mt 4823  388 L
6215 2158 mt 6215  388 L
4823 2158 mt 6215 2158 L
4823 2158 mt 4823  388 L
4823 2158 mt 4823 2140 L
4823  389 mt 4823  406 L
4707 2303 mt 
(0.25) s
5519 2158 mt 5519 2140 L
5519  389 mt 5519  406 L
5436 2303 mt 
(0.3) s
6215 2158 mt 6215 2140 L
6215  389 mt 6215  406 L
6099 2303 mt 
(0.35) s
4823 2158 mt 4840 2158 L
6215 2158 mt 6197 2158 L
4722 2202 mt 
(0) s
4823 1863 mt 4840 1863 L
6215 1863 mt 6197 1863 L
4588 1907 mt 
(100) s
4823 1568 mt 4840 1568 L
6215 1568 mt 6197 1568 L
4588 1612 mt 
(200) s
4823 1273 mt 4840 1273 L
6215 1273 mt 6197 1273 L
4588 1317 mt 
(300) s
4823  978 mt 4840  978 L
6215  978 mt 6197  978 L
4588 1022 mt 
(400) s
4823  683 mt 4840  683 L
6215  683 mt 6197  683 L
4588  727 mt 
(500) s
4823  389 mt 4840  389 L
6215  389 mt 6197  389 L
4588  433 mt 
(600) s
4823 2158 mt 6215 2158 L
4823  388 mt 6215  388 L
4823 2158 mt 4823  388 L
6215 2158 mt 6215  388 L
gs 4823 389 1393 1770 MR c np
c8
0 3 27 0 0 -3 5228 2158 4 MP
PP
0 sg
-27 0 0 3 27 0 0 -3 5228 2158 5 MP stroke
c8
0 3 28 0 0 -3 5255 2158 4 MP
PP
0 sg
-28 0 0 3 28 0 0 -3 5255 2158 5 MP stroke
c8
0 21 27 0 0 -21 5283 2158 4 MP
PP
0 sg
-27 0 0 21 27 0 0 -21 5283 2158 5 MP stroke
c8
0 3 28 0 0 -3 5310 2158 4 MP
PP
0 sg
-28 0 0 3 28 0 0 -3 5310 2158 5 MP stroke
c8
0 42 27 0 0 -42 5338 2158 4 MP
PP
0 sg
-27 0 0 42 27 0 0 -42 5338 2158 5 MP stroke
c8
0 59 28 0 0 -59 5365 2158 4 MP
PP
0 sg
-28 0 0 59 28 0 0 -59 5365 2158 5 MP stroke
c8
0 80 27 0 0 -80 5393 2158 4 MP
PP
0 sg
-27 0 0 80 27 0 0 -80 5393 2158 5 MP stroke
c8
0 115 28 0 0 -115 5420 2158 4 MP
PP
0 sg
-28 0 0 115 28 0 0 -115 5420 2158 5 MP stroke
c8
0 275 27 0 0 -275 5448 2158 4 MP
PP
0 sg
-27 0 0 275 27 0 0 -275 5448 2158 5 MP stroke
c8
0 351 28 0 0 -351 5475 2158 4 MP
PP
0 sg
-28 0 0 351 28 0 0 -351 5475 2158 5 MP stroke
c8
0 555 27 0 0 -555 5503 2158 4 MP
PP
0 sg
-27 0 0 555 27 0 0 -555 5503 2158 5 MP stroke
c8
0 779 28 0 0 -779 5530 2158 4 MP
PP
0 sg
-28 0 0 779 28 0 0 -779 5530 2158 5 MP stroke
c8
0 1103 27 0 0 -1103 5558 2158 4 MP
PP
0 sg
-27 0 0 1103 27 0 0 -1103 5558 2158 5 MP stroke
c8
0 1336 28 0 0 -1336 5585 2158 4 MP
PP
0 sg
-28 0 0 1336 28 0 0 -1336 5585 2158 5 MP stroke
c8
0 1596 27 0 0 -1596 5613 2158 4 MP
PP
0 sg
-27 0 0 1596 27 0 0 -1596 5613 2158 5 MP stroke
c8
0 1540 28 0 0 -1540 5640 2158 4 MP
PP
0 sg
-28 0 0 1540 28 0 0 -1540 5640 2158 5 MP stroke
c8
0 1454 27 0 0 -1454 5668 2158 4 MP
PP
0 sg
-27 0 0 1454 27 0 0 -1454 5668 2158 5 MP stroke
c8
0 1569 28 0 0 -1569 5695 2158 4 MP
PP
0 sg
-28 0 0 1569 28 0 0 -1569 5695 2158 5 MP stroke
c8
0 1292 27 0 0 -1292 5723 2158 4 MP
PP
0 sg
-27 0 0 1292 27 0 0 -1292 5723 2158 5 MP stroke
c8
0 1091 28 0 0 -1091 5750 2158 4 MP
PP
0 sg
-28 0 0 1091 28 0 0 -1091 5750 2158 5 MP stroke
c8
0 628 27 0 0 -628 5778 2158 4 MP
PP
0 sg
-27 0 0 628 27 0 0 -628 5778 2158 5 MP stroke
c8
0 401 28 0 0 -401 5805 2158 4 MP
PP
0 sg
-28 0 0 401 28 0 0 -401 5805 2158 5 MP stroke
c8
0 213 27 0 0 -213 5833 2158 4 MP
PP
0 sg
-27 0 0 213 27 0 0 -213 5833 2158 5 MP stroke
c8
0 89 28 0 0 -89 5860 2158 4 MP
PP
0 sg
-28 0 0 89 28 0 0 -89 5860 2158 5 MP stroke
c8
0 83 27 0 0 -83 5888 2158 4 MP
PP
0 sg
-27 0 0 83 27 0 0 -83 5888 2158 5 MP stroke
c8
0 24 28 0 0 -24 5915 2158 4 MP
PP
0 sg
-28 0 0 24 28 0 0 -24 5915 2158 5 MP stroke
c8
0 27 27 0 0 -27 5943 2158 4 MP
PP
0 sg
-27 0 0 27 27 0 0 -27 5943 2158 5 MP stroke
c8
0 9 28 0 0 -9 5970 2158 4 MP
PP
0 sg
-28 0 0 9 28 0 0 -9 5970 2158 5 MP stroke
c8
0 6 27 0 0 -6 5998 2158 4 MP
PP
0 sg
-27 0 0 6 27 0 0 -6 5998 2158 5 MP stroke
c8
0 6 28 0 0 -6 6025 2158 4 MP
PP
0 sg
-28 0 0 6 28 0 0 -6 6025 2158 5 MP stroke
gr

%%IncludeResource: font Symbol
/Symbol /ISOLatin1Encoding 120 FMSR

5459 2408 mt 
(b) s
%%IncludeResource: font Helvetica
/Helvetica /ISOLatin1Encoding 96 FMSR

5524 2468 mt 
(2) s
%%IncludeResource: font Helvetica
/Helvetica /ISOLatin1Encoding 120 FMSR

4506 1537 mt  -90 rotate
(frequency) s
90 rotate
1 sg
0 1769 1392 0 0 -1769 941 4615 4 MP
PP
-1392 0 0 1769 1392 0 0 -1769 941 4615 5 MP stroke
4 w
DO
SO
6 w
0 sg
 941 4615 mt 2333 4615 L
 941 2846 mt 2333 2846 L
 941 4615 mt  941 2846 L
2333 4615 mt 2333 2846 L
 941 4615 mt 2333 4615 L
 941 4615 mt  941 2846 L
 941 4615 mt  941 4597 L
 941 2846 mt  941 2863 L
 908 4760 mt 
(0) s
1637 4615 mt 1637 4597 L
1637 2846 mt 1637 2863 L
1521 4760 mt 
(0.01) s
2333 4615 mt 2333 4597 L
2333 2846 mt 2333 2863 L
2217 4760 mt 
(0.02) s
 941 4615 mt  958 4615 L
2333 4615 mt 2315 4615 L
 840 4659 mt 
(0) s
 941 4362 mt  958 4362 L
2333 4362 mt 2315 4362 L
 706 4406 mt 
(100) s
 941 4109 mt  958 4109 L
2333 4109 mt 2315 4109 L
 706 4153 mt 
(200) s
 941 3856 mt  958 3856 L
2333 3856 mt 2315 3856 L
 706 3900 mt 
(300) s
 941 3604 mt  958 3604 L
2333 3604 mt 2315 3604 L
 706 3648 mt 
(400) s
 941 3351 mt  958 3351 L
2333 3351 mt 2315 3351 L
 706 3395 mt 
(500) s
 941 3098 mt  958 3098 L
2333 3098 mt 2315 3098 L
 706 3142 mt 
(600) s
 941 2846 mt  958 2846 L
2333 2846 mt 2315 2846 L
 706 2890 mt 
(700) s
 941 4615 mt 2333 4615 L
 941 2846 mt 2333 2846 L
 941 4615 mt  941 2846 L
2333 4615 mt 2333 2846 L
gs 941 2846 1393 1770 MR c np
c8
0 38 34 0 0 -38 1144 4615 4 MP
PP
0 sg
-34 0 0 38 34 0 0 -38 1144 4615 5 MP stroke
c8
0 129 35 0 0 -129 1178 4615 4 MP
PP
0 sg
-35 0 0 129 35 0 0 -129 1178 4615 5 MP stroke
c8
0 435 35 0 0 -435 1213 4615 4 MP
PP
0 sg
-35 0 0 435 35 0 0 -435 1213 4615 5 MP stroke
c8
0 819 34 0 0 -819 1248 4615 4 MP
PP
0 sg
-34 0 0 819 34 0 0 -819 1248 4615 5 MP stroke
c8
0 1201 35 0 0 -1201 1282 4615 4 MP
PP
0 sg
-35 0 0 1201 35 0 0 -1201 1282 4615 5 MP stroke
c8
0 1342 35 0 0 -1342 1317 4615 4 MP
PP
0 sg
-35 0 0 1342 35 0 0 -1342 1317 4615 5 MP stroke
c8
0 1519 34 0 0 -1519 1352 4615 4 MP
PP
0 sg
-34 0 0 1519 34 0 0 -1519 1352 4615 5 MP stroke
c8
0 1545 35 0 0 -1545 1386 4615 4 MP
PP
0 sg
-35 0 0 1545 35 0 0 -1545 1386 4615 5 MP stroke
c8
0 1133 34 0 0 -1133 1421 4615 4 MP
PP
0 sg
-34 0 0 1133 34 0 0 -1133 1421 4615 5 MP stroke
c8
0 1128 35 0 0 -1128 1455 4615 4 MP
PP
0 sg
-35 0 0 1128 35 0 0 -1128 1455 4615 5 MP stroke
c8
0 804 35 0 0 -804 1490 4615 4 MP
PP
0 sg
-35 0 0 804 35 0 0 -804 1490 4615 5 MP stroke
c8
0 597 34 0 0 -597 1525 4615 4 MP
PP
0 sg
-34 0 0 597 34 0 0 -597 1525 4615 5 MP stroke
c8
0 514 35 0 0 -514 1559 4615 4 MP
PP
0 sg
-35 0 0 514 35 0 0 -514 1559 4615 5 MP stroke
c8
0 367 35 0 0 -367 1594 4615 4 MP
PP
0 sg
-35 0 0 367 35 0 0 -367 1594 4615 5 MP stroke
c8
0 271 34 0 0 -271 1629 4615 4 MP
PP
0 sg
-34 0 0 271 34 0 0 -271 1629 4615 5 MP stroke
c8
0 142 35 0 0 -142 1663 4615 4 MP
PP
0 sg
-35 0 0 142 35 0 0 -142 1663 4615 5 MP stroke
c8
0 177 34 0 0 -177 1698 4615 4 MP
PP
0 sg
-34 0 0 177 34 0 0 -177 1698 4615 5 MP stroke
c8
0 162 35 0 0 -162 1732 4615 4 MP
PP
0 sg
-35 0 0 162 35 0 0 -162 1732 4615 5 MP stroke
c8
0 71 35 0 0 -71 1767 4615 4 MP
PP
0 sg
-35 0 0 71 35 0 0 -71 1767 4615 5 MP stroke
c8
0 112 34 0 0 -112 1802 4615 4 MP
PP
0 sg
-34 0 0 112 34 0 0 -112 1802 4615 5 MP stroke
c8
0 49 35 0 0 -49 1836 4615 4 MP
PP
0 sg
-35 0 0 49 35 0 0 -49 1836 4615 5 MP stroke
c8
0 13 35 0 0 -13 1871 4615 4 MP
PP
0 sg
-35 0 0 13 35 0 0 -13 1871 4615 5 MP stroke
c8
0 36 34 0 0 -36 1906 4615 4 MP
PP
0 sg
-34 0 0 36 34 0 0 -36 1906 4615 5 MP stroke
c8
0 6 35 0 0 -6 1940 4615 4 MP
PP
0 sg
-35 0 0 6 35 0 0 -6 1940 4615 5 MP stroke
c8
0 13 35 0 0 -13 1975 4615 4 MP
PP
0 sg
-35 0 0 13 35 0 0 -13 1975 4615 5 MP stroke
c8
0 11 34 0 0 -11 2010 4615 4 MP
PP
0 sg
-34 0 0 11 34 0 0 -11 2010 4615 5 MP stroke
c8
0 3 35 0 0 -3 2044 4615 4 MP
PP
0 sg
-35 0 0 3 35 0 0 -3 2044 4615 5 MP stroke
c8
0 6 34 0 0 -6 2079 4615 4 MP
PP
0 sg
-34 0 0 6 34 0 0 -6 2079 4615 5 MP stroke
c8
0 0 35 0 0 0 2113 4615 4 MP
PP
0 sg
-35 0 0 0 35 0 0 0 2113 4615 5 MP stroke
c8
0 8 35 0 0 -8 2148 4615 4 MP
PP
0 sg
-35 0 0 8 35 0 0 -8 2148 4615 5 MP stroke
gr

%%IncludeResource: font Symbol
/Symbol /ISOLatin1Encoding 120 FMSR

1573 4892 mt 
(s) s
%%IncludeResource: font Symbol
/Symbol /ISOLatin1Encoding 96 FMSR

1645 4952 mt 
(r) s
%%IncludeResource: font Helvetica
/Helvetica /ISOLatin1Encoding 96 FMSR

1645 4832 mt 
(2) s
%%IncludeResource: font Helvetica
/Helvetica /ISOLatin1Encoding 120 FMSR

 624 3994 mt  -90 rotate
(frequency) s
90 rotate
1 sg
0 1769 1392 0 0 -1769 2882 4615 4 MP
PP
-1392 0 0 1769 1392 0 0 -1769 2882 4615 5 MP stroke
4 w
DO
SO
6 w
0 sg
2882 4615 mt 4274 4615 L
2882 2846 mt 4274 2846 L
2882 4615 mt 2882 2846 L
4274 4615 mt 4274 2846 L
2882 4615 mt 4274 4615 L
2882 4615 mt 2882 2846 L
2882 4615 mt 2882 4597 L
2882 2846 mt 2882 2863 L
2849 4760 mt 
(0) s
3346 4615 mt 3346 4597 L
3346 2846 mt 3346 2863 L
3313 4760 mt 
(2) s
3810 4615 mt 3810 4597 L
3810 2846 mt 3810 2863 L
3777 4760 mt 
(4) s
4274 4615 mt 4274 4597 L
4274 2846 mt 4274 2863 L
4241 4760 mt 
(6) s
3957 4962 mt 
(x 10) s
%%IncludeResource: font Helvetica
/Helvetica /ISOLatin1Encoding 80 FMSR

4183 4888 mt 
(-4) s
2882 4615 mt 2899 4615 L
4274 4615 mt 4256 4615 L
%%IncludeResource: font Helvetica
/Helvetica /ISOLatin1Encoding 120 FMSR

2781 4659 mt 
(0) s
2882 4172 mt 2899 4172 L
4274 4172 mt 4256 4172 L
2647 4216 mt 
(200) s
2882 3730 mt 2899 3730 L
4274 3730 mt 4256 3730 L
2647 3774 mt 
(400) s
2882 3288 mt 2899 3288 L
4274 3288 mt 4256 3288 L
2647 3332 mt 
(600) s
2882 2846 mt 2899 2846 L
4274 2846 mt 4256 2846 L
2647 2890 mt 
(800) s
2882 4615 mt 4274 4615 L
2882 2846 mt 4274 2846 L
2882 4615 mt 2882 2846 L
4274 4615 mt 4274 2846 L
gs 2882 2846 1393 1770 MR c np
c8
0 29 39 0 0 -29 3065 4615 4 MP
PP
0 sg
-39 0 0 29 39 0 0 -29 3065 4615 5 MP stroke
c8
0 228 40 0 0 -228 3104 4615 4 MP
PP
0 sg
-40 0 0 228 40 0 0 -228 3104 4615 5 MP stroke
c8
0 445 39 0 0 -445 3144 4615 4 MP
PP
0 sg
-39 0 0 445 39 0 0 -445 3144 4615 5 MP stroke
c8
0 945 40 0 0 -945 3183 4615 4 MP
PP
0 sg
-40 0 0 945 40 0 0 -945 3183 4615 5 MP stroke
c8
0 1139 39 0 0 -1139 3223 4615 4 MP
PP
0 sg
-39 0 0 1139 39 0 0 -1139 3223 4615 5 MP stroke
c8
0 1586 40 0 0 -1586 3262 4615 4 MP
PP
0 sg
-40 0 0 1586 40 0 0 -1586 3262 4615 5 MP stroke
c8
0 1608 39 0 0 -1608 3302 4615 4 MP
PP
0 sg
-39 0 0 1608 39 0 0 -1608 3302 4615 5 MP stroke
c8
0 1301 40 0 0 -1301 3341 4615 4 MP
PP
0 sg
-40 0 0 1301 40 0 0 -1301 3341 4615 5 MP stroke
c8
0 949 39 0 0 -949 3381 4615 4 MP
PP
0 sg
-39 0 0 949 39 0 0 -949 3381 4615 5 MP stroke
c8
0 808 40 0 0 -808 3420 4615 4 MP
PP
0 sg
-40 0 0 808 40 0 0 -808 3420 4615 5 MP stroke
c8
0 606 39 0 0 -606 3460 4615 4 MP
PP
0 sg
-39 0 0 606 39 0 0 -606 3460 4615 5 MP stroke
c8
0 374 40 0 0 -374 3499 4615 4 MP
PP
0 sg
-40 0 0 374 40 0 0 -374 3499 4615 5 MP stroke
c8
0 303 39 0 0 -303 3539 4615 4 MP
PP
0 sg
-39 0 0 303 39 0 0 -303 3539 4615 5 MP stroke
c8
0 277 40 0 0 -277 3578 4615 4 MP
PP
0 sg
-40 0 0 277 40 0 0 -277 3578 4615 5 MP stroke
c8
0 157 39 0 0 -157 3618 4615 4 MP
PP
0 sg
-39 0 0 157 39 0 0 -157 3618 4615 5 MP stroke
c8
0 87 40 0 0 -87 3657 4615 4 MP
PP
0 sg
-40 0 0 87 40 0 0 -87 3657 4615 5 MP stroke
c8
0 40 39 0 0 -40 3697 4615 4 MP
PP
0 sg
-39 0 0 40 39 0 0 -40 3697 4615 5 MP stroke
c8
0 45 40 0 0 -45 3736 4615 4 MP
PP
0 sg
-40 0 0 45 40 0 0 -45 3736 4615 5 MP stroke
c8
0 36 40 0 0 -36 3776 4615 4 MP
PP
0 sg
-40 0 0 36 40 0 0 -36 3776 4615 5 MP stroke
c8
0 25 39 0 0 -25 3816 4615 4 MP
PP
0 sg
-39 0 0 25 39 0 0 -25 3816 4615 5 MP stroke
c8
0 23 40 0 0 -23 3855 4615 4 MP
PP
0 sg
-40 0 0 23 40 0 0 -23 3855 4615 5 MP stroke
c8
0 18 39 0 0 -18 3895 4615 4 MP
PP
0 sg
-39 0 0 18 39 0 0 -18 3895 4615 5 MP stroke
c8
0 14 40 0 0 -14 3934 4615 4 MP
PP
0 sg
-40 0 0 14 40 0 0 -14 3934 4615 5 MP stroke
c8
0 5 39 0 0 -5 3974 4615 4 MP
PP
0 sg
-39 0 0 5 39 0 0 -5 3974 4615 5 MP stroke
c8
0 5 40 0 0 -5 4013 4615 4 MP
PP
0 sg
-40 0 0 5 40 0 0 -5 4013 4615 5 MP stroke
c8
0 5 39 0 0 -5 4053 4615 4 MP
PP
0 sg
-39 0 0 5 39 0 0 -5 4053 4615 5 MP stroke
c8
0 9 40 0 0 -9 4092 4615 4 MP
PP
0 sg
-40 0 0 9 40 0 0 -9 4092 4615 5 MP stroke
c8
0 0 39 0 0 0 4132 4615 4 MP
PP
0 sg
-39 0 0 0 39 0 0 0 4132 4615 5 MP stroke
c8
0 0 40 0 0 0 4171 4615 4 MP
PP
0 sg
-40 0 0 0 40 0 0 0 4171 4615 5 MP stroke
c8
0 3 39 0 0 -3 4211 4615 4 MP
PP
0 sg
-39 0 0 3 39 0 0 -3 4211 4615 5 MP stroke
gr

%%IncludeResource: font Symbol
/Symbol /ISOLatin1Encoding 120 FMSR

3514 4885 mt 
(s) s
%%IncludeResource: font Helvetica
/Helvetica /ISOLatin1Encoding 96 FMSR

3586 4945 mt 
(n) s
3586 4825 mt 
(2) s
%%IncludeResource: font Helvetica
/Helvetica /ISOLatin1Encoding 120 FMSR

2565 3994 mt  -90 rotate
(frequency) s
90 rotate

end %%Color Dict

eplot
%%EndObject

epage
end

showpage

%%Trailer
%%EOF
